ARM GAS  C:\Users\aupen\AppData\Local\Temp\ccPo8kBl.s 			page 1


   1              		.syntax unified
   2              		.cpu cortex-m3
   3              		.fpu softvfp
   4              		.eabi_attribute 20, 1
   5              		.eabi_attribute 21, 1
   6              		.eabi_attribute 23, 3
   7              		.eabi_attribute 24, 1
   8              		.eabi_attribute 25, 1
   9              		.eabi_attribute 26, 1
  10              		.eabi_attribute 30, 4
  11              		.eabi_attribute 34, 1
  12              		.eabi_attribute 18, 4
  13              		.thumb
  14              		.syntax unified
  15              		.file	"first_move.c"
  16              		.text
  17              	.Ltext0:
  18              		.cfi_sections	.debug_frame
  19              		.section	.text.firstMoveRightLineArc,"ax",%progbits
  20              		.align	1
  21              		.global	firstMoveRightLineArc
  22              		.thumb
  23              		.thumb_func
  24              		.type	firstMoveRightLineArc, %function
  25              	firstMoveRightLineArc:
  26              	.LFB64:
  27              		.file 1 "first_move.c"
   1:first_move.c  **** /* ========================================
   2:first_move.c  ****  *
   3:first_move.c  ****  * Copyright YOUR COMPANY, THE YEAR
   4:first_move.c  ****  * All Rights Reserved
   5:first_move.c  ****  * UNPUBLISHED, LICENSED SOFTWARE.
   6:first_move.c  ****  *
   7:first_move.c  ****  * CONFIDENTIAL AND PROPRIETARY INFORMATION
   8:first_move.c  ****  * WHICH IS THE PROPERTY OF your company.
   9:first_move.c  ****  *
  10:first_move.c  ****  * ========================================
  11:first_move.c  **** */
  12:first_move.c  **** #include <project.h>
  13:first_move.c  **** #include "first_move.h"
  14:first_move.c  **** #include "sensors.h"
  15:first_move.c  **** #include "timer_time.h"
  16:first_move.c  **** #include "drive.h"
  17:first_move.c  **** #include "stdlib.h"
  18:first_move.c  **** 
  19:first_move.c  **** //=============================================================================
  20:first_move.c  **** // Private defines and typedefs
  21:first_move.c  **** //=============================================================================
  22:first_move.c  **** #define Rd_bits(value, mask)        ((value)&(mask))
  23:first_move.c  **** 
  24:first_move.c  **** #define SEARCH_PWM_L  25
  25:first_move.c  **** #define SEARCH_PWM_R  25
  26:first_move.c  **** #define TURN_PWM    40
  27:first_move.c  **** #define ATTACK_PWM  70
  28:first_move.c  **** 
  29:first_move.c  **** 
  30:first_move.c  **** void firstMoveTurnRight();
ARM GAS  C:\Users\aupen\AppData\Local\Temp\ccPo8kBl.s 			page 2


  31:first_move.c  **** void firstMoveTurnLeft();
  32:first_move.c  **** void firstMoveFastForward();
  33:first_move.c  **** void firstMoveDoubleFastForward();
  34:first_move.c  **** void firstMoveDriveToLine();
  35:first_move.c  **** void firstMoveDriveSlowToLine();
  36:first_move.c  **** 
  37:first_move.c  **** void firstMoveSelector(FirstMove_t firstMove)
  38:first_move.c  **** {
  39:first_move.c  ****     switch(firstMove)
  40:first_move.c  ****     {
  41:first_move.c  ****         case DEFAULT:
  42:first_move.c  ****             drive_forward(SEARCH_PWM_L, SEARCH_PWM_R);
  43:first_move.c  ****             CyDelay(50);
  44:first_move.c  ****         break;
  45:first_move.c  ****         case FAST_FORWARD:
  46:first_move.c  ****             firstMoveFastForward();
  47:first_move.c  ****         break;
  48:first_move.c  ****         case TURN_RIGHT_45:
  49:first_move.c  ****             firstMoveTurnRight();
  50:first_move.c  ****         break;
  51:first_move.c  ****         case TURN_LEFT_45:
  52:first_move.c  ****             firstMoveTurnLeft();
  53:first_move.c  ****         break;
  54:first_move.c  ****         case RIGHT_LINE_ARC:
  55:first_move.c  ****             firstMoveRightLineArc();
  56:first_move.c  ****         break;
  57:first_move.c  ****         case DOUBLE_FAST_FORWARD:
  58:first_move.c  ****             firstMoveDoubleFastForward();
  59:first_move.c  ****         break;
  60:first_move.c  ****         case DRIVE_TO_LINE:
  61:first_move.c  ****             firstMoveDriveToLine();
  62:first_move.c  ****         break;
  63:first_move.c  ****         case DRIVE_SLOW_TO_LINE:
  64:first_move.c  ****             firstMoveDriveSlowToLine();
  65:first_move.c  ****             break;
  66:first_move.c  ****         default:
  67:first_move.c  ****             drive_forward(SEARCH_PWM_L, SEARCH_PWM_R);
  68:first_move.c  ****         break;
  69:first_move.c  ****     }
  70:first_move.c  **** }
  71:first_move.c  **** 
  72:first_move.c  **** void firstMoveRightLineArc()
  73:first_move.c  **** {
  28              		.loc 1 73 0
  29              		.cfi_startproc
  30              		@ args = 0, pretend = 0, frame = 0
  31              		@ frame_needed = 0, uses_anonymous_args = 0
  32              		@ link register save eliminated.
  74:first_move.c  ****     //driveLineRight(1300);
  75:first_move.c  ****     //turn_left(50,70);
  76:first_move.c  ****     CyDelay(250);
  33              		.loc 1 76 0
  34 0000 FA20     		movs	r0, #250
  35 0002 FFF7FEBF 		b	CyDelay
  36              	.LVL0:
  37              		.cfi_endproc
  38              	.LFE64:
ARM GAS  C:\Users\aupen\AppData\Local\Temp\ccPo8kBl.s 			page 3


  39              		.size	firstMoveRightLineArc, .-firstMoveRightLineArc
  40              		.section	.text.firstMoveTurnRight,"ax",%progbits
  41              		.align	1
  42              		.global	firstMoveTurnRight
  43              		.thumb
  44              		.thumb_func
  45              		.type	firstMoveTurnRight, %function
  46              	firstMoveTurnRight:
  47              	.LFB65:
  77:first_move.c  **** }
  78:first_move.c  **** 
  79:first_move.c  **** void firstMoveTurnRight()
  80:first_move.c  **** {
  48              		.loc 1 80 0
  49              		.cfi_startproc
  50              		@ args = 0, pretend = 0, frame = 0
  51              		@ frame_needed = 0, uses_anonymous_args = 0
  52 0000 08B5     		push	{r3, lr}
  53              		.cfi_def_cfa_offset 8
  54              		.cfi_offset 3, -8
  55              		.cfi_offset 14, -4
  81:first_move.c  ****     turn_right(40,40);
  56              		.loc 1 81 0
  57 0002 2821     		movs	r1, #40
  58 0004 0846     		mov	r0, r1
  59 0006 FFF7FEFF 		bl	turn_right
  60              	.LVL1:
  82:first_move.c  ****     CyDelay(50);    
  83:first_move.c  **** }
  61              		.loc 1 83 0
  62 000a BDE80840 		pop	{r3, lr}
  63              		.cfi_restore 14
  64              		.cfi_restore 3
  65              		.cfi_def_cfa_offset 0
  82:first_move.c  ****     CyDelay(50);    
  66              		.loc 1 82 0
  67 000e 3220     		movs	r0, #50
  68 0010 FFF7FEBF 		b	CyDelay
  69              	.LVL2:
  70              		.cfi_endproc
  71              	.LFE65:
  72              		.size	firstMoveTurnRight, .-firstMoveTurnRight
  73              		.section	.text.firstMoveTurnLeft,"ax",%progbits
  74              		.align	1
  75              		.global	firstMoveTurnLeft
  76              		.thumb
  77              		.thumb_func
  78              		.type	firstMoveTurnLeft, %function
  79              	firstMoveTurnLeft:
  80              	.LFB66:
  84:first_move.c  **** 
  85:first_move.c  **** void firstMoveTurnLeft()
  86:first_move.c  **** {
  81              		.loc 1 86 0
  82              		.cfi_startproc
  83              		@ args = 0, pretend = 0, frame = 0
  84              		@ frame_needed = 0, uses_anonymous_args = 0
ARM GAS  C:\Users\aupen\AppData\Local\Temp\ccPo8kBl.s 			page 4


  85 0000 08B5     		push	{r3, lr}
  86              		.cfi_def_cfa_offset 8
  87              		.cfi_offset 3, -8
  88              		.cfi_offset 14, -4
  87:first_move.c  ****     turn_left(40,40);
  89              		.loc 1 87 0
  90 0002 2821     		movs	r1, #40
  91 0004 0846     		mov	r0, r1
  92 0006 FFF7FEFF 		bl	turn_left
  93              	.LVL3:
  88:first_move.c  ****     CyDelay(50);    
  89:first_move.c  **** }
  94              		.loc 1 89 0
  95 000a BDE80840 		pop	{r3, lr}
  96              		.cfi_restore 14
  97              		.cfi_restore 3
  98              		.cfi_def_cfa_offset 0
  88:first_move.c  ****     CyDelay(50);    
  99              		.loc 1 88 0
 100 000e 3220     		movs	r0, #50
 101 0010 FFF7FEBF 		b	CyDelay
 102              	.LVL4:
 103              		.cfi_endproc
 104              	.LFE66:
 105              		.size	firstMoveTurnLeft, .-firstMoveTurnLeft
 106              		.section	.text.firstMoveFastForward,"ax",%progbits
 107              		.align	1
 108              		.global	firstMoveFastForward
 109              		.thumb
 110              		.thumb_func
 111              		.type	firstMoveFastForward, %function
 112              	firstMoveFastForward:
 113              	.LFB67:
  90:first_move.c  **** void firstMoveFastForward()
  91:first_move.c  **** {
 114              		.loc 1 91 0
 115              		.cfi_startproc
 116              		@ args = 0, pretend = 0, frame = 0
 117              		@ frame_needed = 0, uses_anonymous_args = 0
  92:first_move.c  ****     drive_forward(ATTACK_PWM, ATTACK_PWM);
 118              		.loc 1 92 0
 119 0000 4621     		movs	r1, #70
  91:first_move.c  ****     drive_forward(ATTACK_PWM, ATTACK_PWM);
 120              		.loc 1 91 0
 121 0002 08B5     		push	{r3, lr}
 122              		.cfi_def_cfa_offset 8
 123              		.cfi_offset 3, -8
 124              		.cfi_offset 14, -4
 125              		.loc 1 92 0
 126 0004 0846     		mov	r0, r1
 127 0006 FFF7FEFF 		bl	drive_forward
 128              	.LVL5:
  93:first_move.c  ****     CyDelay(280);
 129              		.loc 1 93 0
 130 000a 4FF48C70 		mov	r0, #280
 131 000e FFF7FEFF 		bl	CyDelay
 132              	.LVL6:
ARM GAS  C:\Users\aupen\AppData\Local\Temp\ccPo8kBl.s 			page 5


  94:first_move.c  ****     brake();
 133              		.loc 1 94 0
 134 0012 FFF7FEFF 		bl	brake
 135              	.LVL7:
  95:first_move.c  ****     CyDelay(30);
 136              		.loc 1 95 0
 137 0016 1E20     		movs	r0, #30
 138 0018 FFF7FEFF 		bl	CyDelay
 139              	.LVL8:
  96:first_move.c  ****     drive_forward(0,0);   
  97:first_move.c  **** }
 140              		.loc 1 97 0
 141 001c BDE80840 		pop	{r3, lr}
 142              		.cfi_restore 14
 143              		.cfi_restore 3
 144              		.cfi_def_cfa_offset 0
  96:first_move.c  ****     drive_forward(0,0);   
 145              		.loc 1 96 0
 146 0020 0021     		movs	r1, #0
 147 0022 0846     		mov	r0, r1
 148 0024 FFF7FEBF 		b	drive_forward
 149              	.LVL9:
 150              		.cfi_endproc
 151              	.LFE67:
 152              		.size	firstMoveFastForward, .-firstMoveFastForward
 153              		.section	.text.firstMoveDoubleFastForward,"ax",%progbits
 154              		.align	1
 155              		.global	firstMoveDoubleFastForward
 156              		.thumb
 157              		.thumb_func
 158              		.type	firstMoveDoubleFastForward, %function
 159              	firstMoveDoubleFastForward:
 160              	.LFB68:
  98:first_move.c  **** 
  99:first_move.c  **** void firstMoveDoubleFastForward()
 100:first_move.c  **** {
 161              		.loc 1 100 0
 162              		.cfi_startproc
 163              		@ args = 0, pretend = 0, frame = 0
 164              		@ frame_needed = 0, uses_anonymous_args = 0
 101:first_move.c  ****     drive_forward(ATTACK_PWM, ATTACK_PWM);
 165              		.loc 1 101 0
 166 0000 4621     		movs	r1, #70
 100:first_move.c  ****     drive_forward(ATTACK_PWM, ATTACK_PWM);
 167              		.loc 1 100 0
 168 0002 08B5     		push	{r3, lr}
 169              		.cfi_def_cfa_offset 8
 170              		.cfi_offset 3, -8
 171              		.cfi_offset 14, -4
 172              		.loc 1 101 0
 173 0004 0846     		mov	r0, r1
 174 0006 FFF7FEFF 		bl	drive_forward
 175              	.LVL10:
 102:first_move.c  ****     CyDelay(450);
 176              		.loc 1 102 0
 177 000a 4FF4E170 		mov	r0, #450
 178 000e FFF7FEFF 		bl	CyDelay
ARM GAS  C:\Users\aupen\AppData\Local\Temp\ccPo8kBl.s 			page 6


 179              	.LVL11:
 103:first_move.c  ****     brake();
 180              		.loc 1 103 0
 181 0012 FFF7FEFF 		bl	brake
 182              	.LVL12:
 104:first_move.c  ****     CyDelay(30);
 183              		.loc 1 104 0
 184 0016 1E20     		movs	r0, #30
 185 0018 FFF7FEFF 		bl	CyDelay
 186              	.LVL13:
 105:first_move.c  ****     drive_forward(ATTACK_PWM, ATTACK_PWM);
 187              		.loc 1 105 0
 188 001c 4621     		movs	r1, #70
 189 001e 0846     		mov	r0, r1
 190 0020 FFF7FEFF 		bl	drive_forward
 191              	.LVL14:
 106:first_move.c  ****     CyDelay(40);
 192              		.loc 1 106 0
 193 0024 2820     		movs	r0, #40
 194 0026 FFF7FEFF 		bl	CyDelay
 195              	.LVL15:
 107:first_move.c  ****     brake();
 196              		.loc 1 107 0
 197 002a FFF7FEFF 		bl	brake
 198              	.LVL16:
 108:first_move.c  ****     CyDelay(30);
 199              		.loc 1 108 0
 200 002e 1E20     		movs	r0, #30
 201 0030 FFF7FEFF 		bl	CyDelay
 202              	.LVL17:
 109:first_move.c  ****     drive_forward(0,0);   
 110:first_move.c  **** }
 203              		.loc 1 110 0
 204 0034 BDE80840 		pop	{r3, lr}
 205              		.cfi_restore 14
 206              		.cfi_restore 3
 207              		.cfi_def_cfa_offset 0
 109:first_move.c  ****     drive_forward(0,0);   
 208              		.loc 1 109 0
 209 0038 0021     		movs	r1, #0
 210 003a 0846     		mov	r0, r1
 211 003c FFF7FEBF 		b	drive_forward
 212              	.LVL18:
 213              		.cfi_endproc
 214              	.LFE68:
 215              		.size	firstMoveDoubleFastForward, .-firstMoveDoubleFastForward
 216              		.section	.text.firstMoveDriveToLine,"ax",%progbits
 217              		.align	1
 218              		.global	firstMoveDriveToLine
 219              		.thumb
 220              		.thumb_func
 221              		.type	firstMoveDriveToLine, %function
 222              	firstMoveDriveToLine:
 223              	.LFB69:
 111:first_move.c  **** 
 112:first_move.c  **** void firstMoveDriveToLine()
 113:first_move.c  **** {
ARM GAS  C:\Users\aupen\AppData\Local\Temp\ccPo8kBl.s 			page 7


 224              		.loc 1 113 0
 225              		.cfi_startproc
 226              		@ args = 0, pretend = 0, frame = 0
 227              		@ frame_needed = 0, uses_anonymous_args = 0
 114:first_move.c  ****     drive_forward(ATTACK_PWM, ATTACK_PWM);
 228              		.loc 1 114 0
 229 0000 4621     		movs	r1, #70
 230 0002 0846     		mov	r0, r1
 113:first_move.c  ****     drive_forward(ATTACK_PWM, ATTACK_PWM);
 231              		.loc 1 113 0
 232 0004 08B5     		push	{r3, lr}
 233              		.cfi_def_cfa_offset 8
 234              		.cfi_offset 3, -8
 235              		.cfi_offset 14, -4
 236              		.loc 1 114 0
 237 0006 FFF7FEFF 		bl	drive_forward
 238              	.LVL19:
 115:first_move.c  ****     CyDelay(300);
 239              		.loc 1 115 0
 240 000a 4FF49670 		mov	r0, #300
 241 000e FFF7FEFF 		bl	CyDelay
 242              	.LVL20:
 243              	.L7:
 116:first_move.c  ****     while(LineSensRead() == 0){
 244              		.loc 1 116 0
 245 0012 FFF7FEFF 		bl	LineSensRead
 246              	.LVL21:
 247 0016 20B9     		cbnz	r0, .L10
 117:first_move.c  ****         drive_forward(40,40);
 248              		.loc 1 117 0
 249 0018 2821     		movs	r1, #40
 250 001a 0846     		mov	r0, r1
 251 001c FFF7FEFF 		bl	drive_forward
 252              	.LVL22:
 253 0020 F7E7     		b	.L7
 254              	.L10:
 118:first_move.c  ****     }   
 119:first_move.c  **** }
 255              		.loc 1 119 0
 256 0022 08BD     		pop	{r3, pc}
 257              		.cfi_endproc
 258              	.LFE69:
 259              		.size	firstMoveDriveToLine, .-firstMoveDriveToLine
 260              		.section	.text.firstMoveDriveSlowToLine,"ax",%progbits
 261              		.align	1
 262              		.global	firstMoveDriveSlowToLine
 263              		.thumb
 264              		.thumb_func
 265              		.type	firstMoveDriveSlowToLine, %function
 266              	firstMoveDriveSlowToLine:
 267              	.LFB70:
 120:first_move.c  **** 
 121:first_move.c  **** void firstMoveDriveSlowToLine()
 122:first_move.c  **** {
 268              		.loc 1 122 0
 269              		.cfi_startproc
 270              		@ args = 0, pretend = 0, frame = 0
ARM GAS  C:\Users\aupen\AppData\Local\Temp\ccPo8kBl.s 			page 8


 271              		@ frame_needed = 0, uses_anonymous_args = 0
 123:first_move.c  ****     drive_forward(30, 30);
 272              		.loc 1 123 0
 273 0000 1E21     		movs	r1, #30
 274 0002 0846     		mov	r0, r1
 122:first_move.c  ****     drive_forward(30, 30);
 275              		.loc 1 122 0
 276 0004 08B5     		push	{r3, lr}
 277              		.cfi_def_cfa_offset 8
 278              		.cfi_offset 3, -8
 279              		.cfi_offset 14, -4
 280              		.loc 1 123 0
 281 0006 FFF7FEFF 		bl	drive_forward
 282              	.LVL23:
 124:first_move.c  ****     CyDelay(300);
 283              		.loc 1 124 0
 284 000a 4FF49670 		mov	r0, #300
 285 000e FFF7FEFF 		bl	CyDelay
 286              	.LVL24:
 287              	.L12:
 125:first_move.c  ****     while(LineSensRead() == 0){
 288              		.loc 1 125 0
 289 0012 FFF7FEFF 		bl	LineSensRead
 290              	.LVL25:
 291 0016 20B9     		cbnz	r0, .L14
 126:first_move.c  ****         drive_forward(25,25);
 292              		.loc 1 126 0
 293 0018 1921     		movs	r1, #25
 294 001a 0846     		mov	r0, r1
 295 001c FFF7FEFF 		bl	drive_forward
 296              	.LVL26:
 297 0020 F7E7     		b	.L12
 298              	.L14:
 127:first_move.c  ****     }   
 128:first_move.c  **** }
 299              		.loc 1 128 0
 300 0022 08BD     		pop	{r3, pc}
 301              		.cfi_endproc
 302              	.LFE70:
 303              		.size	firstMoveDriveSlowToLine, .-firstMoveDriveSlowToLine
 304              		.section	.text.firstMoveSelector,"ax",%progbits
 305              		.align	1
 306              		.global	firstMoveSelector
 307              		.thumb
 308              		.thumb_func
 309              		.type	firstMoveSelector, %function
 310              	firstMoveSelector:
 311              	.LFB63:
  38:first_move.c  ****     switch(firstMove)
 312              		.loc 1 38 0
 313              		.cfi_startproc
 314              		@ args = 0, pretend = 0, frame = 0
 315              		@ frame_needed = 0, uses_anonymous_args = 0
 316              	.LVL27:
 317 0000 08B5     		push	{r3, lr}
 318              		.cfi_def_cfa_offset 8
 319              		.cfi_offset 3, -8
ARM GAS  C:\Users\aupen\AppData\Local\Temp\ccPo8kBl.s 			page 9


 320              		.cfi_offset 14, -4
  39:first_move.c  ****     {
 321              		.loc 1 39 0
 322 0002 0728     		cmp	r0, #7
 323 0004 2AD8     		bhi	.L16
 324 0006 DFE800F0 		tbb	[pc, r0]
 325              	.L18:
 326 000a 04       		.byte	(.L17-.L18)/2
 327 000b 0D       		.byte	(.L19-.L18)/2
 328 000c 15       		.byte	(.L20-.L18)/2
 329 000d 11       		.byte	(.L21-.L18)/2
 330 000e 19       		.byte	(.L22-.L18)/2
 331 000f 1D       		.byte	(.L23-.L18)/2
 332 0010 21       		.byte	(.L24-.L18)/2
 333 0011 25       		.byte	(.L25-.L18)/2
 334              		.p2align 1
 335              	.L17:
  42:first_move.c  ****             CyDelay(50);
 336              		.loc 1 42 0
 337 0012 1921     		movs	r1, #25
 338 0014 0846     		mov	r0, r1
 339              	.LVL28:
 340 0016 FFF7FEFF 		bl	drive_forward
 341              	.LVL29:
  70:first_move.c  **** 
 342              		.loc 1 70 0
 343 001a BDE80840 		pop	{r3, lr}
 344              		.cfi_remember_state
 345              		.cfi_restore 14
 346              		.cfi_restore 3
 347              		.cfi_def_cfa_offset 0
  43:first_move.c  ****         break;
 348              		.loc 1 43 0
 349 001e 3220     		movs	r0, #50
 350 0020 FFF7FEBF 		b	CyDelay
 351              	.LVL30:
 352              	.L19:
 353              		.cfi_restore_state
  70:first_move.c  **** 
 354              		.loc 1 70 0
 355 0024 BDE80840 		pop	{r3, lr}
 356              		.cfi_remember_state
 357              		.cfi_restore 14
 358              		.cfi_restore 3
 359              		.cfi_def_cfa_offset 0
  46:first_move.c  ****         break;
 360              		.loc 1 46 0
 361 0028 FFF7FEBF 		b	firstMoveFastForward
 362              	.LVL31:
 363              	.L21:
 364              		.cfi_restore_state
  70:first_move.c  **** 
 365              		.loc 1 70 0
 366 002c BDE80840 		pop	{r3, lr}
 367              		.cfi_remember_state
 368              		.cfi_restore 14
 369              		.cfi_restore 3
ARM GAS  C:\Users\aupen\AppData\Local\Temp\ccPo8kBl.s 			page 10


 370              		.cfi_def_cfa_offset 0
  49:first_move.c  ****         break;
 371              		.loc 1 49 0
 372 0030 FFF7FEBF 		b	firstMoveTurnRight
 373              	.LVL32:
 374              	.L20:
 375              		.cfi_restore_state
  70:first_move.c  **** 
 376              		.loc 1 70 0
 377 0034 BDE80840 		pop	{r3, lr}
 378              		.cfi_remember_state
 379              		.cfi_restore 14
 380              		.cfi_restore 3
 381              		.cfi_def_cfa_offset 0
  52:first_move.c  ****         break;
 382              		.loc 1 52 0
 383 0038 FFF7FEBF 		b	firstMoveTurnLeft
 384              	.LVL33:
 385              	.L22:
 386              		.cfi_restore_state
  70:first_move.c  **** 
 387              		.loc 1 70 0
 388 003c BDE80840 		pop	{r3, lr}
 389              		.cfi_remember_state
 390              		.cfi_restore 14
 391              		.cfi_restore 3
 392              		.cfi_def_cfa_offset 0
  55:first_move.c  ****         break;
 393              		.loc 1 55 0
 394 0040 FFF7FEBF 		b	firstMoveRightLineArc
 395              	.LVL34:
 396              	.L23:
 397              		.cfi_restore_state
  70:first_move.c  **** 
 398              		.loc 1 70 0
 399 0044 BDE80840 		pop	{r3, lr}
 400              		.cfi_remember_state
 401              		.cfi_restore 14
 402              		.cfi_restore 3
 403              		.cfi_def_cfa_offset 0
  58:first_move.c  ****         break;
 404              		.loc 1 58 0
 405 0048 FFF7FEBF 		b	firstMoveDoubleFastForward
 406              	.LVL35:
 407              	.L24:
 408              		.cfi_restore_state
  70:first_move.c  **** 
 409              		.loc 1 70 0
 410 004c BDE80840 		pop	{r3, lr}
 411              		.cfi_remember_state
 412              		.cfi_restore 14
 413              		.cfi_restore 3
 414              		.cfi_def_cfa_offset 0
  61:first_move.c  ****         break;
 415              		.loc 1 61 0
 416 0050 FFF7FEBF 		b	firstMoveDriveToLine
 417              	.LVL36:
ARM GAS  C:\Users\aupen\AppData\Local\Temp\ccPo8kBl.s 			page 11


 418              	.L25:
 419              		.cfi_restore_state
  70:first_move.c  **** 
 420              		.loc 1 70 0
 421 0054 BDE80840 		pop	{r3, lr}
 422              		.cfi_restore 14
 423              		.cfi_restore 3
 424              		.cfi_def_cfa_offset 0
  64:first_move.c  ****             break;
 425              		.loc 1 64 0
 426 0058 FFF7FEBF 		b	firstMoveDriveSlowToLine
 427              	.LVL37:
 428              	.L16:
  67:first_move.c  ****         break;
 429              		.loc 1 67 0
 430 005c 1921     		movs	r1, #25
 431 005e 0846     		mov	r0, r1
 432              	.LVL38:
  70:first_move.c  **** 
 433              		.loc 1 70 0
 434 0060 BDE80840 		pop	{r3, lr}
  67:first_move.c  ****         break;
 435              		.loc 1 67 0
 436 0064 FFF7FEBF 		b	drive_forward
 437              	.LVL39:
 438              		.cfi_endproc
 439              	.LFE63:
 440              		.size	firstMoveSelector, .-firstMoveSelector
 441              		.comm	gMotor,16,4
 442              		.comm	gLine,96,4
 443              		.text
 444              	.Letext0:
 445              		.file 2 "c:\\program files (x86)\\cypress\\psoc creator\\4.1\\psoc creator\\import\\gnu\\arm\\5.4.
 446              		.file 3 "c:\\program files (x86)\\cypress\\psoc creator\\4.1\\psoc creator\\import\\gnu\\arm\\5.4.
 447              		.file 4 "first_move.h"
 448              		.file 5 "sensors.h"
 449              		.file 6 "drive.h"
 450              		.file 7 "Generated_Source\\PSoC5/core_cm3.h"
 451              		.file 8 "Generated_Source\\PSoC5/CyLib.h"
 452              		.section	.debug_info,"",%progbits
 453              	.Ldebug_info0:
 454 0000 72050000 		.4byte	0x572
 455 0004 0400     		.2byte	0x4
 456 0006 00000000 		.4byte	.Ldebug_abbrev0
 457 000a 04       		.byte	0x4
 458 000b 01       		.uleb128 0x1
 459 000c C9020000 		.4byte	.LASF57
 460 0010 0C       		.byte	0xc
 461 0011 94030000 		.4byte	.LASF58
 462 0015 8C010000 		.4byte	.LASF59
 463 0019 00000000 		.4byte	.Ldebug_ranges0+0
 464 001d 00000000 		.4byte	0
 465 0021 00000000 		.4byte	.Ldebug_line0
 466 0025 02       		.uleb128 0x2
 467 0026 01       		.byte	0x1
 468 0027 06       		.byte	0x6
 469 0028 69030000 		.4byte	.LASF0
ARM GAS  C:\Users\aupen\AppData\Local\Temp\ccPo8kBl.s 			page 12


 470 002c 02       		.uleb128 0x2
 471 002d 01       		.byte	0x1
 472 002e 08       		.byte	0x8
 473 002f 07010000 		.4byte	.LASF1
 474 0033 02       		.uleb128 0x2
 475 0034 02       		.byte	0x2
 476 0035 05       		.byte	0x5
 477 0036 97020000 		.4byte	.LASF2
 478 003a 02       		.uleb128 0x2
 479 003b 02       		.byte	0x2
 480 003c 07       		.byte	0x7
 481 003d 75030000 		.4byte	.LASF3
 482 0041 03       		.uleb128 0x3
 483 0042 59000000 		.4byte	.LASF9
 484 0046 02       		.byte	0x2
 485 0047 3F       		.byte	0x3f
 486 0048 4C000000 		.4byte	0x4c
 487 004c 02       		.uleb128 0x2
 488 004d 04       		.byte	0x4
 489 004e 05       		.byte	0x5
 490 004f 63000000 		.4byte	.LASF4
 491 0053 02       		.uleb128 0x2
 492 0054 04       		.byte	0x4
 493 0055 07       		.byte	0x7
 494 0056 7A010000 		.4byte	.LASF5
 495 005a 02       		.uleb128 0x2
 496 005b 08       		.byte	0x8
 497 005c 05       		.byte	0x5
 498 005d 00000000 		.4byte	.LASF6
 499 0061 02       		.uleb128 0x2
 500 0062 08       		.byte	0x8
 501 0063 07       		.byte	0x7
 502 0064 E3000000 		.4byte	.LASF7
 503 0068 04       		.uleb128 0x4
 504 0069 04       		.byte	0x4
 505 006a 05       		.byte	0x5
 506 006b 696E7400 		.ascii	"int\000"
 507 006f 02       		.uleb128 0x2
 508 0070 04       		.byte	0x4
 509 0071 07       		.byte	0x7
 510 0072 D8010000 		.4byte	.LASF8
 511 0076 03       		.uleb128 0x3
 512 0077 BF000000 		.4byte	.LASF10
 513 007b 03       		.byte	0x3
 514 007c 2C       		.byte	0x2c
 515 007d 41000000 		.4byte	0x41
 516 0081 02       		.uleb128 0x2
 517 0082 04       		.byte	0x4
 518 0083 04       		.byte	0x4
 519 0084 DD000000 		.4byte	.LASF11
 520 0088 02       		.uleb128 0x2
 521 0089 08       		.byte	0x8
 522 008a 04       		.byte	0x4
 523 008b 8D000000 		.4byte	.LASF12
 524 008f 02       		.uleb128 0x2
 525 0090 01       		.byte	0x1
 526 0091 08       		.byte	0x8
ARM GAS  C:\Users\aupen\AppData\Local\Temp\ccPo8kBl.s 			page 13


 527 0092 4F020000 		.4byte	.LASF13
 528 0096 02       		.uleb128 0x2
 529 0097 08       		.byte	0x8
 530 0098 04       		.byte	0x4
 531 0099 5D030000 		.4byte	.LASF14
 532 009d 02       		.uleb128 0x2
 533 009e 04       		.byte	0x4
 534 009f 07       		.byte	0x7
 535 00a0 29020000 		.4byte	.LASF15
 536 00a4 05       		.uleb128 0x5
 537 00a5 01       		.byte	0x1
 538 00a6 2C000000 		.4byte	0x2c
 539 00aa 04       		.byte	0x4
 540 00ab 14       		.byte	0x14
 541 00ac E1000000 		.4byte	0xe1
 542 00b0 06       		.uleb128 0x6
 543 00b1 85000000 		.4byte	.LASF16
 544 00b5 00       		.byte	0
 545 00b6 06       		.uleb128 0x6
 546 00b7 FA000000 		.4byte	.LASF17
 547 00bb 01       		.byte	0x1
 548 00bc 06       		.uleb128 0x6
 549 00bd 3D010000 		.4byte	.LASF18
 550 00c1 02       		.byte	0x2
 551 00c2 06       		.uleb128 0x6
 552 00c3 6C010000 		.4byte	.LASF19
 553 00c7 03       		.byte	0x3
 554 00c8 06       		.uleb128 0x6
 555 00c9 AF020000 		.4byte	.LASF20
 556 00cd 04       		.byte	0x4
 557 00ce 06       		.uleb128 0x6
 558 00cf ED010000 		.4byte	.LASF21
 559 00d3 05       		.byte	0x5
 560 00d4 06       		.uleb128 0x6
 561 00d5 A1020000 		.4byte	.LASF22
 562 00d9 06       		.byte	0x6
 563 00da 06       		.uleb128 0x6
 564 00db 20000000 		.4byte	.LASF23
 565 00df 07       		.byte	0x7
 566 00e0 00       		.byte	0
 567 00e1 03       		.uleb128 0x3
 568 00e2 13020000 		.4byte	.LASF24
 569 00e6 04       		.byte	0x4
 570 00e7 1D       		.byte	0x1d
 571 00e8 A4000000 		.4byte	0xa4
 572 00ec 07       		.uleb128 0x7
 573 00ed 01020000 		.4byte	.LASF35
 574 00f1 60       		.byte	0x60
 575 00f2 05       		.byte	0x5
 576 00f3 2C       		.byte	0x2c
 577 00f4 71010000 		.4byte	0x171
 578 00f8 08       		.uleb128 0x8
 579 00f9 BE010000 		.4byte	.LASF25
 580 00fd 05       		.byte	0x5
 581 00fe 2D       		.byte	0x2d
 582 00ff 68000000 		.4byte	0x68
 583 0103 00       		.byte	0
ARM GAS  C:\Users\aupen\AppData\Local\Temp\ccPo8kBl.s 			page 14


 584 0104 08       		.uleb128 0x8
 585 0105 6F020000 		.4byte	.LASF26
 586 0109 05       		.byte	0x5
 587 010a 2E       		.byte	0x2e
 588 010b 68000000 		.4byte	0x68
 589 010f 04       		.byte	0x4
 590 0110 08       		.uleb128 0x8
 591 0111 35010000 		.4byte	.LASF27
 592 0115 05       		.byte	0x5
 593 0116 2F       		.byte	0x2f
 594 0117 68000000 		.4byte	0x68
 595 011b 08       		.byte	0x8
 596 011c 08       		.uleb128 0x8
 597 011d 0B020000 		.4byte	.LASF28
 598 0121 05       		.byte	0x5
 599 0122 30       		.byte	0x30
 600 0123 68000000 		.4byte	0x68
 601 0127 0C       		.byte	0xc
 602 0128 08       		.uleb128 0x8
 603 0129 53000000 		.4byte	.LASF29
 604 012d 05       		.byte	0x5
 605 012e 32       		.byte	0x32
 606 012f 68000000 		.4byte	0x68
 607 0133 10       		.byte	0x10
 608 0134 08       		.uleb128 0x8
 609 0135 E5010000 		.4byte	.LASF30
 610 0139 05       		.byte	0x5
 611 013a 33       		.byte	0x33
 612 013b 68000000 		.4byte	0x68
 613 013f 14       		.byte	0x14
 614 0140 08       		.uleb128 0x8
 615 0141 77020000 		.4byte	.LASF31
 616 0145 05       		.byte	0x5
 617 0146 35       		.byte	0x35
 618 0147 68000000 		.4byte	0x68
 619 014b 18       		.byte	0x18
 620 014c 08       		.uleb128 0x8
 621 014d 9A000000 		.4byte	.LASF32
 622 0151 05       		.byte	0x5
 623 0152 36       		.byte	0x36
 624 0153 68000000 		.4byte	0x68
 625 0157 1C       		.byte	0x1c
 626 0158 08       		.uleb128 0x8
 627 0159 4A020000 		.4byte	.LASF33
 628 015d 05       		.byte	0x5
 629 015e 37       		.byte	0x37
 630 015f 68000000 		.4byte	0x68
 631 0163 20       		.byte	0x20
 632 0164 08       		.uleb128 0x8
 633 0165 B5010000 		.4byte	.LASF34
 634 0169 05       		.byte	0x5
 635 016a 39       		.byte	0x39
 636 016b 71010000 		.4byte	0x171
 637 016f 24       		.byte	0x24
 638 0170 00       		.byte	0
 639 0171 09       		.uleb128 0x9
 640 0172 68000000 		.4byte	0x68
ARM GAS  C:\Users\aupen\AppData\Local\Temp\ccPo8kBl.s 			page 15


 641 0176 81010000 		.4byte	0x181
 642 017a 0A       		.uleb128 0xa
 643 017b 9D000000 		.4byte	0x9d
 644 017f 0E       		.byte	0xe
 645 0180 00       		.byte	0
 646 0181 07       		.uleb128 0x7
 647 0182 BE020000 		.4byte	.LASF36
 648 0186 10       		.byte	0x10
 649 0187 06       		.byte	0x6
 650 0188 11       		.byte	0x11
 651 0189 BE010000 		.4byte	0x1be
 652 018d 08       		.uleb128 0x8
 653 018e 88030000 		.4byte	.LASF37
 654 0192 06       		.byte	0x6
 655 0193 12       		.byte	0x12
 656 0194 68000000 		.4byte	0x68
 657 0198 00       		.byte	0
 658 0199 08       		.uleb128 0x8
 659 019a 32020000 		.4byte	.LASF38
 660 019e 06       		.byte	0x6
 661 019f 13       		.byte	0x13
 662 01a0 68000000 		.4byte	0x68
 663 01a4 04       		.byte	0x4
 664 01a5 08       		.uleb128 0x8
 665 01a6 0E000000 		.4byte	.LASF39
 666 01aa 06       		.byte	0x6
 667 01ab 14       		.byte	0x14
 668 01ac 68000000 		.4byte	0x68
 669 01b0 08       		.byte	0x8
 670 01b1 08       		.uleb128 0x8
 671 01b2 41000000 		.4byte	.LASF40
 672 01b6 06       		.byte	0x6
 673 01b7 15       		.byte	0x15
 674 01b8 68000000 		.4byte	0x68
 675 01bc 0C       		.byte	0xc
 676 01bd 00       		.byte	0
 677 01be 0B       		.uleb128 0xb
 678 01bf C7000000 		.4byte	.LASF41
 679 01c3 01       		.byte	0x1
 680 01c4 48       		.byte	0x48
 681 01c5 00000000 		.4byte	.LFB64
 682 01c9 06000000 		.4byte	.LFE64-.LFB64
 683 01cd 01       		.uleb128 0x1
 684 01ce 9C       		.byte	0x9c
 685 01cf E4010000 		.4byte	0x1e4
 686 01d3 0C       		.uleb128 0xc
 687 01d4 06000000 		.4byte	.LVL0
 688 01d8 33050000 		.4byte	0x533
 689 01dc 0D       		.uleb128 0xd
 690 01dd 01       		.uleb128 0x1
 691 01de 50       		.byte	0x50
 692 01df 02       		.uleb128 0x2
 693 01e0 08       		.byte	0x8
 694 01e1 FA       		.byte	0xfa
 695 01e2 00       		.byte	0
 696 01e3 00       		.byte	0
 697 01e4 0B       		.uleb128 0xb
ARM GAS  C:\Users\aupen\AppData\Local\Temp\ccPo8kBl.s 			page 16


 698 01e5 A2000000 		.4byte	.LASF42
 699 01e9 01       		.byte	0x1
 700 01ea 4F       		.byte	0x4f
 701 01eb 00000000 		.4byte	.LFB65
 702 01ef 14000000 		.4byte	.LFE65-.LFB65
 703 01f3 01       		.uleb128 0x1
 704 01f4 9C       		.byte	0x9c
 705 01f5 24020000 		.4byte	0x224
 706 01f9 0E       		.uleb128 0xe
 707 01fa 0A000000 		.4byte	.LVL1
 708 01fe 3E050000 		.4byte	0x53e
 709 0202 13020000 		.4byte	0x213
 710 0206 0D       		.uleb128 0xd
 711 0207 01       		.uleb128 0x1
 712 0208 50       		.byte	0x50
 713 0209 02       		.uleb128 0x2
 714 020a 08       		.byte	0x8
 715 020b 28       		.byte	0x28
 716 020c 0D       		.uleb128 0xd
 717 020d 01       		.uleb128 0x1
 718 020e 51       		.byte	0x51
 719 020f 02       		.uleb128 0x2
 720 0210 08       		.byte	0x8
 721 0211 28       		.byte	0x28
 722 0212 00       		.byte	0
 723 0213 0C       		.uleb128 0xc
 724 0214 14000000 		.4byte	.LVL2
 725 0218 33050000 		.4byte	0x533
 726 021c 0D       		.uleb128 0xd
 727 021d 01       		.uleb128 0x1
 728 021e 50       		.byte	0x50
 729 021f 02       		.uleb128 0x2
 730 0220 08       		.byte	0x8
 731 0221 32       		.byte	0x32
 732 0222 00       		.byte	0
 733 0223 00       		.byte	0
 734 0224 0B       		.uleb128 0xb
 735 0225 7E020000 		.4byte	.LASF43
 736 0229 01       		.byte	0x1
 737 022a 55       		.byte	0x55
 738 022b 00000000 		.4byte	.LFB66
 739 022f 14000000 		.4byte	.LFE66-.LFB66
 740 0233 01       		.uleb128 0x1
 741 0234 9C       		.byte	0x9c
 742 0235 64020000 		.4byte	0x264
 743 0239 0E       		.uleb128 0xe
 744 023a 0A000000 		.4byte	.LVL3
 745 023e 49050000 		.4byte	0x549
 746 0242 53020000 		.4byte	0x253
 747 0246 0D       		.uleb128 0xd
 748 0247 01       		.uleb128 0x1
 749 0248 50       		.byte	0x50
 750 0249 02       		.uleb128 0x2
 751 024a 08       		.byte	0x8
 752 024b 28       		.byte	0x28
 753 024c 0D       		.uleb128 0xd
 754 024d 01       		.uleb128 0x1
ARM GAS  C:\Users\aupen\AppData\Local\Temp\ccPo8kBl.s 			page 17


 755 024e 51       		.byte	0x51
 756 024f 02       		.uleb128 0x2
 757 0250 08       		.byte	0x8
 758 0251 28       		.byte	0x28
 759 0252 00       		.byte	0
 760 0253 0C       		.uleb128 0xc
 761 0254 14000000 		.4byte	.LVL4
 762 0258 33050000 		.4byte	0x533
 763 025c 0D       		.uleb128 0xd
 764 025d 01       		.uleb128 0x1
 765 025e 50       		.byte	0x50
 766 025f 02       		.uleb128 0x2
 767 0260 08       		.byte	0x8
 768 0261 32       		.byte	0x32
 769 0262 00       		.byte	0
 770 0263 00       		.byte	0
 771 0264 0B       		.uleb128 0xb
 772 0265 15010000 		.4byte	.LASF44
 773 0269 01       		.byte	0x1
 774 026a 5A       		.byte	0x5a
 775 026b 00000000 		.4byte	.LFB67
 776 026f 28000000 		.4byte	.LFE67-.LFB67
 777 0273 01       		.uleb128 0x1
 778 0274 9C       		.byte	0x9c
 779 0275 D9020000 		.4byte	0x2d9
 780 0279 0E       		.uleb128 0xe
 781 027a 0A000000 		.4byte	.LVL5
 782 027e 54050000 		.4byte	0x554
 783 0282 93020000 		.4byte	0x293
 784 0286 0D       		.uleb128 0xd
 785 0287 01       		.uleb128 0x1
 786 0288 50       		.byte	0x50
 787 0289 02       		.uleb128 0x2
 788 028a 08       		.byte	0x8
 789 028b 46       		.byte	0x46
 790 028c 0D       		.uleb128 0xd
 791 028d 01       		.uleb128 0x1
 792 028e 51       		.byte	0x51
 793 028f 02       		.uleb128 0x2
 794 0290 08       		.byte	0x8
 795 0291 46       		.byte	0x46
 796 0292 00       		.byte	0
 797 0293 0E       		.uleb128 0xe
 798 0294 12000000 		.4byte	.LVL6
 799 0298 33050000 		.4byte	0x533
 800 029c A8020000 		.4byte	0x2a8
 801 02a0 0D       		.uleb128 0xd
 802 02a1 01       		.uleb128 0x1
 803 02a2 50       		.byte	0x50
 804 02a3 03       		.uleb128 0x3
 805 02a4 0A       		.byte	0xa
 806 02a5 1801     		.2byte	0x118
 807 02a7 00       		.byte	0
 808 02a8 0F       		.uleb128 0xf
 809 02a9 16000000 		.4byte	.LVL7
 810 02ad 5F050000 		.4byte	0x55f
 811 02b1 0E       		.uleb128 0xe
ARM GAS  C:\Users\aupen\AppData\Local\Temp\ccPo8kBl.s 			page 18


 812 02b2 1C000000 		.4byte	.LVL8
 813 02b6 33050000 		.4byte	0x533
 814 02ba C4020000 		.4byte	0x2c4
 815 02be 0D       		.uleb128 0xd
 816 02bf 01       		.uleb128 0x1
 817 02c0 50       		.byte	0x50
 818 02c1 01       		.uleb128 0x1
 819 02c2 4E       		.byte	0x4e
 820 02c3 00       		.byte	0
 821 02c4 0C       		.uleb128 0xc
 822 02c5 28000000 		.4byte	.LVL9
 823 02c9 54050000 		.4byte	0x554
 824 02cd 0D       		.uleb128 0xd
 825 02ce 01       		.uleb128 0x1
 826 02cf 50       		.byte	0x50
 827 02d0 01       		.uleb128 0x1
 828 02d1 30       		.byte	0x30
 829 02d2 0D       		.uleb128 0xd
 830 02d3 01       		.uleb128 0x1
 831 02d4 51       		.byte	0x51
 832 02d5 01       		.uleb128 0x1
 833 02d6 30       		.byte	0x30
 834 02d7 00       		.byte	0
 835 02d8 00       		.byte	0
 836 02d9 0B       		.uleb128 0xb
 837 02da 54020000 		.4byte	.LASF45
 838 02de 01       		.byte	0x1
 839 02df 63       		.byte	0x63
 840 02e0 00000000 		.4byte	.LFB68
 841 02e4 40000000 		.4byte	.LFE68-.LFB68
 842 02e8 01       		.uleb128 0x1
 843 02e9 9C       		.byte	0x9c
 844 02ea 98030000 		.4byte	0x398
 845 02ee 0E       		.uleb128 0xe
 846 02ef 0A000000 		.4byte	.LVL10
 847 02f3 54050000 		.4byte	0x554
 848 02f7 08030000 		.4byte	0x308
 849 02fb 0D       		.uleb128 0xd
 850 02fc 01       		.uleb128 0x1
 851 02fd 50       		.byte	0x50
 852 02fe 02       		.uleb128 0x2
 853 02ff 08       		.byte	0x8
 854 0300 46       		.byte	0x46
 855 0301 0D       		.uleb128 0xd
 856 0302 01       		.uleb128 0x1
 857 0303 51       		.byte	0x51
 858 0304 02       		.uleb128 0x2
 859 0305 08       		.byte	0x8
 860 0306 46       		.byte	0x46
 861 0307 00       		.byte	0
 862 0308 0E       		.uleb128 0xe
 863 0309 12000000 		.4byte	.LVL11
 864 030d 33050000 		.4byte	0x533
 865 0311 1D030000 		.4byte	0x31d
 866 0315 0D       		.uleb128 0xd
 867 0316 01       		.uleb128 0x1
 868 0317 50       		.byte	0x50
ARM GAS  C:\Users\aupen\AppData\Local\Temp\ccPo8kBl.s 			page 19


 869 0318 03       		.uleb128 0x3
 870 0319 0A       		.byte	0xa
 871 031a C201     		.2byte	0x1c2
 872 031c 00       		.byte	0
 873 031d 0F       		.uleb128 0xf
 874 031e 16000000 		.4byte	.LVL12
 875 0322 5F050000 		.4byte	0x55f
 876 0326 0E       		.uleb128 0xe
 877 0327 1C000000 		.4byte	.LVL13
 878 032b 33050000 		.4byte	0x533
 879 032f 39030000 		.4byte	0x339
 880 0333 0D       		.uleb128 0xd
 881 0334 01       		.uleb128 0x1
 882 0335 50       		.byte	0x50
 883 0336 01       		.uleb128 0x1
 884 0337 4E       		.byte	0x4e
 885 0338 00       		.byte	0
 886 0339 0E       		.uleb128 0xe
 887 033a 24000000 		.4byte	.LVL14
 888 033e 54050000 		.4byte	0x554
 889 0342 53030000 		.4byte	0x353
 890 0346 0D       		.uleb128 0xd
 891 0347 01       		.uleb128 0x1
 892 0348 50       		.byte	0x50
 893 0349 02       		.uleb128 0x2
 894 034a 08       		.byte	0x8
 895 034b 46       		.byte	0x46
 896 034c 0D       		.uleb128 0xd
 897 034d 01       		.uleb128 0x1
 898 034e 51       		.byte	0x51
 899 034f 02       		.uleb128 0x2
 900 0350 08       		.byte	0x8
 901 0351 46       		.byte	0x46
 902 0352 00       		.byte	0
 903 0353 0E       		.uleb128 0xe
 904 0354 2A000000 		.4byte	.LVL15
 905 0358 33050000 		.4byte	0x533
 906 035c 67030000 		.4byte	0x367
 907 0360 0D       		.uleb128 0xd
 908 0361 01       		.uleb128 0x1
 909 0362 50       		.byte	0x50
 910 0363 02       		.uleb128 0x2
 911 0364 08       		.byte	0x8
 912 0365 28       		.byte	0x28
 913 0366 00       		.byte	0
 914 0367 0F       		.uleb128 0xf
 915 0368 2E000000 		.4byte	.LVL16
 916 036c 5F050000 		.4byte	0x55f
 917 0370 0E       		.uleb128 0xe
 918 0371 34000000 		.4byte	.LVL17
 919 0375 33050000 		.4byte	0x533
 920 0379 83030000 		.4byte	0x383
 921 037d 0D       		.uleb128 0xd
 922 037e 01       		.uleb128 0x1
 923 037f 50       		.byte	0x50
 924 0380 01       		.uleb128 0x1
 925 0381 4E       		.byte	0x4e
ARM GAS  C:\Users\aupen\AppData\Local\Temp\ccPo8kBl.s 			page 20


 926 0382 00       		.byte	0
 927 0383 0C       		.uleb128 0xc
 928 0384 40000000 		.4byte	.LVL18
 929 0388 54050000 		.4byte	0x554
 930 038c 0D       		.uleb128 0xd
 931 038d 01       		.uleb128 0x1
 932 038e 50       		.byte	0x50
 933 038f 01       		.uleb128 0x1
 934 0390 30       		.byte	0x30
 935 0391 0D       		.uleb128 0xd
 936 0392 01       		.uleb128 0x1
 937 0393 51       		.byte	0x51
 938 0394 01       		.uleb128 0x1
 939 0395 30       		.byte	0x30
 940 0396 00       		.byte	0
 941 0397 00       		.byte	0
 942 0398 0B       		.uleb128 0xb
 943 0399 57010000 		.4byte	.LASF46
 944 039d 01       		.byte	0x1
 945 039e 70       		.byte	0x70
 946 039f 00000000 		.4byte	.LFB69
 947 03a3 24000000 		.4byte	.LFE69-.LFB69
 948 03a7 01       		.uleb128 0x1
 949 03a8 9C       		.byte	0x9c
 950 03a9 FC030000 		.4byte	0x3fc
 951 03ad 0E       		.uleb128 0xe
 952 03ae 0A000000 		.4byte	.LVL19
 953 03b2 54050000 		.4byte	0x554
 954 03b6 C7030000 		.4byte	0x3c7
 955 03ba 0D       		.uleb128 0xd
 956 03bb 01       		.uleb128 0x1
 957 03bc 50       		.byte	0x50
 958 03bd 02       		.uleb128 0x2
 959 03be 08       		.byte	0x8
 960 03bf 46       		.byte	0x46
 961 03c0 0D       		.uleb128 0xd
 962 03c1 01       		.uleb128 0x1
 963 03c2 51       		.byte	0x51
 964 03c3 02       		.uleb128 0x2
 965 03c4 08       		.byte	0x8
 966 03c5 46       		.byte	0x46
 967 03c6 00       		.byte	0
 968 03c7 0E       		.uleb128 0xe
 969 03c8 12000000 		.4byte	.LVL20
 970 03cc 33050000 		.4byte	0x533
 971 03d0 DC030000 		.4byte	0x3dc
 972 03d4 0D       		.uleb128 0xd
 973 03d5 01       		.uleb128 0x1
 974 03d6 50       		.byte	0x50
 975 03d7 03       		.uleb128 0x3
 976 03d8 0A       		.byte	0xa
 977 03d9 2C01     		.2byte	0x12c
 978 03db 00       		.byte	0
 979 03dc 0F       		.uleb128 0xf
 980 03dd 16000000 		.4byte	.LVL21
 981 03e1 6A050000 		.4byte	0x56a
 982 03e5 10       		.uleb128 0x10
ARM GAS  C:\Users\aupen\AppData\Local\Temp\ccPo8kBl.s 			page 21


 983 03e6 20000000 		.4byte	.LVL22
 984 03ea 54050000 		.4byte	0x554
 985 03ee 0D       		.uleb128 0xd
 986 03ef 01       		.uleb128 0x1
 987 03f0 50       		.byte	0x50
 988 03f1 02       		.uleb128 0x2
 989 03f2 08       		.byte	0x8
 990 03f3 28       		.byte	0x28
 991 03f4 0D       		.uleb128 0xd
 992 03f5 01       		.uleb128 0x1
 993 03f6 51       		.byte	0x51
 994 03f7 02       		.uleb128 0x2
 995 03f8 08       		.byte	0x8
 996 03f9 28       		.byte	0x28
 997 03fa 00       		.byte	0
 998 03fb 00       		.byte	0
 999 03fc 0B       		.uleb128 0xb
 1000 03fd 6C000000 		.4byte	.LASF47
 1001 0401 01       		.byte	0x1
 1002 0402 79       		.byte	0x79
 1003 0403 00000000 		.4byte	.LFB70
 1004 0407 24000000 		.4byte	.LFE70-.LFB70
 1005 040b 01       		.uleb128 0x1
 1006 040c 9C       		.byte	0x9c
 1007 040d 5C040000 		.4byte	0x45c
 1008 0411 0E       		.uleb128 0xe
 1009 0412 0A000000 		.4byte	.LVL23
 1010 0416 54050000 		.4byte	0x554
 1011 041a 29040000 		.4byte	0x429
 1012 041e 0D       		.uleb128 0xd
 1013 041f 01       		.uleb128 0x1
 1014 0420 50       		.byte	0x50
 1015 0421 01       		.uleb128 0x1
 1016 0422 4E       		.byte	0x4e
 1017 0423 0D       		.uleb128 0xd
 1018 0424 01       		.uleb128 0x1
 1019 0425 51       		.byte	0x51
 1020 0426 01       		.uleb128 0x1
 1021 0427 4E       		.byte	0x4e
 1022 0428 00       		.byte	0
 1023 0429 0E       		.uleb128 0xe
 1024 042a 12000000 		.4byte	.LVL24
 1025 042e 33050000 		.4byte	0x533
 1026 0432 3E040000 		.4byte	0x43e
 1027 0436 0D       		.uleb128 0xd
 1028 0437 01       		.uleb128 0x1
 1029 0438 50       		.byte	0x50
 1030 0439 03       		.uleb128 0x3
 1031 043a 0A       		.byte	0xa
 1032 043b 2C01     		.2byte	0x12c
 1033 043d 00       		.byte	0
 1034 043e 0F       		.uleb128 0xf
 1035 043f 16000000 		.4byte	.LVL25
 1036 0443 6A050000 		.4byte	0x56a
 1037 0447 10       		.uleb128 0x10
 1038 0448 20000000 		.4byte	.LVL26
 1039 044c 54050000 		.4byte	0x554
ARM GAS  C:\Users\aupen\AppData\Local\Temp\ccPo8kBl.s 			page 22


 1040 0450 0D       		.uleb128 0xd
 1041 0451 01       		.uleb128 0x1
 1042 0452 50       		.byte	0x50
 1043 0453 01       		.uleb128 0x1
 1044 0454 49       		.byte	0x49
 1045 0455 0D       		.uleb128 0xd
 1046 0456 01       		.uleb128 0x1
 1047 0457 51       		.byte	0x51
 1048 0458 01       		.uleb128 0x1
 1049 0459 49       		.byte	0x49
 1050 045a 00       		.byte	0
 1051 045b 00       		.byte	0
 1052 045c 11       		.uleb128 0x11
 1053 045d C6010000 		.4byte	.LASF60
 1054 0461 01       		.byte	0x1
 1055 0462 25       		.byte	0x25
 1056 0463 00000000 		.4byte	.LFB63
 1057 0467 68000000 		.4byte	.LFE63-.LFB63
 1058 046b 01       		.uleb128 0x1
 1059 046c 9C       		.byte	0x9c
 1060 046d 00050000 		.4byte	0x500
 1061 0471 12       		.uleb128 0x12
 1062 0472 1F020000 		.4byte	.LASF61
 1063 0476 01       		.byte	0x1
 1064 0477 25       		.byte	0x25
 1065 0478 E1000000 		.4byte	0xe1
 1066 047c 00000000 		.4byte	.LLST0
 1067 0480 0E       		.uleb128 0xe
 1068 0481 1A000000 		.4byte	.LVL29
 1069 0485 54050000 		.4byte	0x554
 1070 0489 98040000 		.4byte	0x498
 1071 048d 0D       		.uleb128 0xd
 1072 048e 01       		.uleb128 0x1
 1073 048f 50       		.byte	0x50
 1074 0490 01       		.uleb128 0x1
 1075 0491 49       		.byte	0x49
 1076 0492 0D       		.uleb128 0xd
 1077 0493 01       		.uleb128 0x1
 1078 0494 51       		.byte	0x51
 1079 0495 01       		.uleb128 0x1
 1080 0496 49       		.byte	0x49
 1081 0497 00       		.byte	0
 1082 0498 13       		.uleb128 0x13
 1083 0499 24000000 		.4byte	.LVL30
 1084 049d 33050000 		.4byte	0x533
 1085 04a1 AC040000 		.4byte	0x4ac
 1086 04a5 0D       		.uleb128 0xd
 1087 04a6 01       		.uleb128 0x1
 1088 04a7 50       		.byte	0x50
 1089 04a8 02       		.uleb128 0x2
 1090 04a9 08       		.byte	0x8
 1091 04aa 32       		.byte	0x32
 1092 04ab 00       		.byte	0
 1093 04ac 14       		.uleb128 0x14
 1094 04ad 2C000000 		.4byte	.LVL31
 1095 04b1 64020000 		.4byte	0x264
 1096 04b5 14       		.uleb128 0x14
ARM GAS  C:\Users\aupen\AppData\Local\Temp\ccPo8kBl.s 			page 23


 1097 04b6 34000000 		.4byte	.LVL32
 1098 04ba E4010000 		.4byte	0x1e4
 1099 04be 14       		.uleb128 0x14
 1100 04bf 3C000000 		.4byte	.LVL33
 1101 04c3 24020000 		.4byte	0x224
 1102 04c7 14       		.uleb128 0x14
 1103 04c8 44000000 		.4byte	.LVL34
 1104 04cc BE010000 		.4byte	0x1be
 1105 04d0 14       		.uleb128 0x14
 1106 04d1 4C000000 		.4byte	.LVL35
 1107 04d5 D9020000 		.4byte	0x2d9
 1108 04d9 14       		.uleb128 0x14
 1109 04da 54000000 		.4byte	.LVL36
 1110 04de 98030000 		.4byte	0x398
 1111 04e2 14       		.uleb128 0x14
 1112 04e3 5C000000 		.4byte	.LVL37
 1113 04e7 FC030000 		.4byte	0x3fc
 1114 04eb 0C       		.uleb128 0xc
 1115 04ec 68000000 		.4byte	.LVL39
 1116 04f0 54050000 		.4byte	0x554
 1117 04f4 0D       		.uleb128 0xd
 1118 04f5 01       		.uleb128 0x1
 1119 04f6 50       		.byte	0x50
 1120 04f7 01       		.uleb128 0x1
 1121 04f8 49       		.byte	0x49
 1122 04f9 0D       		.uleb128 0xd
 1123 04fa 01       		.uleb128 0x1
 1124 04fb 51       		.byte	0x51
 1125 04fc 01       		.uleb128 0x1
 1126 04fd 49       		.byte	0x49
 1127 04fe 00       		.byte	0
 1128 04ff 00       		.byte	0
 1129 0500 15       		.uleb128 0x15
 1130 0501 4A010000 		.4byte	.LASF48
 1131 0505 07       		.byte	0x7
 1132 0506 1207     		.2byte	0x712
 1133 0508 0C050000 		.4byte	0x50c
 1134 050c 16       		.uleb128 0x16
 1135 050d 76000000 		.4byte	0x76
 1136 0511 17       		.uleb128 0x17
 1137 0512 94000000 		.4byte	.LASF49
 1138 0516 05       		.byte	0x5
 1139 0517 3B       		.byte	0x3b
 1140 0518 EC000000 		.4byte	0xec
 1141 051c 05       		.uleb128 0x5
 1142 051d 03       		.byte	0x3
 1143 051e 00000000 		.4byte	gLine
 1144 0522 17       		.uleb128 0x17
 1145 0523 90020000 		.4byte	.LASF50
 1146 0527 06       		.byte	0x6
 1147 0528 17       		.byte	0x17
 1148 0529 81010000 		.4byte	0x181
 1149 052d 05       		.uleb128 0x5
 1150 052e 03       		.byte	0x3
 1151 052f 00000000 		.4byte	gMotor
 1152 0533 18       		.uleb128 0x18
 1153 0534 A1030000 		.4byte	.LASF51
ARM GAS  C:\Users\aupen\AppData\Local\Temp\ccPo8kBl.s 			page 24


 1154 0538 A1030000 		.4byte	.LASF51
 1155 053c 08       		.byte	0x8
 1156 053d 76       		.byte	0x76
 1157 053e 18       		.uleb128 0x18
 1158 053f 2A010000 		.4byte	.LASF52
 1159 0543 2A010000 		.4byte	.LASF52
 1160 0547 06       		.byte	0x6
 1161 0548 1C       		.byte	0x1c
 1162 0549 18       		.uleb128 0x18
 1163 054a B5000000 		.4byte	.LASF53
 1164 054e B5000000 		.4byte	.LASF53
 1165 0552 06       		.byte	0x6
 1166 0553 1D       		.byte	0x1d
 1167 0554 18       		.uleb128 0x18
 1168 0555 33000000 		.4byte	.LASF54
 1169 0559 33000000 		.4byte	.LASF54
 1170 055d 06       		.byte	0x6
 1171 055e 1A       		.byte	0x1a
 1172 055f 18       		.uleb128 0x18
 1173 0560 57030000 		.4byte	.LASF55
 1174 0564 57030000 		.4byte	.LASF55
 1175 0568 06       		.byte	0x6
 1176 0569 1E       		.byte	0x1e
 1177 056a 18       		.uleb128 0x18
 1178 056b 3D020000 		.4byte	.LASF56
 1179 056f 3D020000 		.4byte	.LASF56
 1180 0573 05       		.byte	0x5
 1181 0574 41       		.byte	0x41
 1182 0575 00       		.byte	0
 1183              		.section	.debug_abbrev,"",%progbits
 1184              	.Ldebug_abbrev0:
 1185 0000 01       		.uleb128 0x1
 1186 0001 11       		.uleb128 0x11
 1187 0002 01       		.byte	0x1
 1188 0003 25       		.uleb128 0x25
 1189 0004 0E       		.uleb128 0xe
 1190 0005 13       		.uleb128 0x13
 1191 0006 0B       		.uleb128 0xb
 1192 0007 03       		.uleb128 0x3
 1193 0008 0E       		.uleb128 0xe
 1194 0009 1B       		.uleb128 0x1b
 1195 000a 0E       		.uleb128 0xe
 1196 000b 55       		.uleb128 0x55
 1197 000c 17       		.uleb128 0x17
 1198 000d 11       		.uleb128 0x11
 1199 000e 01       		.uleb128 0x1
 1200 000f 10       		.uleb128 0x10
 1201 0010 17       		.uleb128 0x17
 1202 0011 00       		.byte	0
 1203 0012 00       		.byte	0
 1204 0013 02       		.uleb128 0x2
 1205 0014 24       		.uleb128 0x24
 1206 0015 00       		.byte	0
 1207 0016 0B       		.uleb128 0xb
 1208 0017 0B       		.uleb128 0xb
 1209 0018 3E       		.uleb128 0x3e
 1210 0019 0B       		.uleb128 0xb
ARM GAS  C:\Users\aupen\AppData\Local\Temp\ccPo8kBl.s 			page 25


 1211 001a 03       		.uleb128 0x3
 1212 001b 0E       		.uleb128 0xe
 1213 001c 00       		.byte	0
 1214 001d 00       		.byte	0
 1215 001e 03       		.uleb128 0x3
 1216 001f 16       		.uleb128 0x16
 1217 0020 00       		.byte	0
 1218 0021 03       		.uleb128 0x3
 1219 0022 0E       		.uleb128 0xe
 1220 0023 3A       		.uleb128 0x3a
 1221 0024 0B       		.uleb128 0xb
 1222 0025 3B       		.uleb128 0x3b
 1223 0026 0B       		.uleb128 0xb
 1224 0027 49       		.uleb128 0x49
 1225 0028 13       		.uleb128 0x13
 1226 0029 00       		.byte	0
 1227 002a 00       		.byte	0
 1228 002b 04       		.uleb128 0x4
 1229 002c 24       		.uleb128 0x24
 1230 002d 00       		.byte	0
 1231 002e 0B       		.uleb128 0xb
 1232 002f 0B       		.uleb128 0xb
 1233 0030 3E       		.uleb128 0x3e
 1234 0031 0B       		.uleb128 0xb
 1235 0032 03       		.uleb128 0x3
 1236 0033 08       		.uleb128 0x8
 1237 0034 00       		.byte	0
 1238 0035 00       		.byte	0
 1239 0036 05       		.uleb128 0x5
 1240 0037 04       		.uleb128 0x4
 1241 0038 01       		.byte	0x1
 1242 0039 0B       		.uleb128 0xb
 1243 003a 0B       		.uleb128 0xb
 1244 003b 49       		.uleb128 0x49
 1245 003c 13       		.uleb128 0x13
 1246 003d 3A       		.uleb128 0x3a
 1247 003e 0B       		.uleb128 0xb
 1248 003f 3B       		.uleb128 0x3b
 1249 0040 0B       		.uleb128 0xb
 1250 0041 01       		.uleb128 0x1
 1251 0042 13       		.uleb128 0x13
 1252 0043 00       		.byte	0
 1253 0044 00       		.byte	0
 1254 0045 06       		.uleb128 0x6
 1255 0046 28       		.uleb128 0x28
 1256 0047 00       		.byte	0
 1257 0048 03       		.uleb128 0x3
 1258 0049 0E       		.uleb128 0xe
 1259 004a 1C       		.uleb128 0x1c
 1260 004b 0B       		.uleb128 0xb
 1261 004c 00       		.byte	0
 1262 004d 00       		.byte	0
 1263 004e 07       		.uleb128 0x7
 1264 004f 13       		.uleb128 0x13
 1265 0050 01       		.byte	0x1
 1266 0051 03       		.uleb128 0x3
 1267 0052 0E       		.uleb128 0xe
ARM GAS  C:\Users\aupen\AppData\Local\Temp\ccPo8kBl.s 			page 26


 1268 0053 0B       		.uleb128 0xb
 1269 0054 0B       		.uleb128 0xb
 1270 0055 3A       		.uleb128 0x3a
 1271 0056 0B       		.uleb128 0xb
 1272 0057 3B       		.uleb128 0x3b
 1273 0058 0B       		.uleb128 0xb
 1274 0059 01       		.uleb128 0x1
 1275 005a 13       		.uleb128 0x13
 1276 005b 00       		.byte	0
 1277 005c 00       		.byte	0
 1278 005d 08       		.uleb128 0x8
 1279 005e 0D       		.uleb128 0xd
 1280 005f 00       		.byte	0
 1281 0060 03       		.uleb128 0x3
 1282 0061 0E       		.uleb128 0xe
 1283 0062 3A       		.uleb128 0x3a
 1284 0063 0B       		.uleb128 0xb
 1285 0064 3B       		.uleb128 0x3b
 1286 0065 0B       		.uleb128 0xb
 1287 0066 49       		.uleb128 0x49
 1288 0067 13       		.uleb128 0x13
 1289 0068 38       		.uleb128 0x38
 1290 0069 0B       		.uleb128 0xb
 1291 006a 00       		.byte	0
 1292 006b 00       		.byte	0
 1293 006c 09       		.uleb128 0x9
 1294 006d 01       		.uleb128 0x1
 1295 006e 01       		.byte	0x1
 1296 006f 49       		.uleb128 0x49
 1297 0070 13       		.uleb128 0x13
 1298 0071 01       		.uleb128 0x1
 1299 0072 13       		.uleb128 0x13
 1300 0073 00       		.byte	0
 1301 0074 00       		.byte	0
 1302 0075 0A       		.uleb128 0xa
 1303 0076 21       		.uleb128 0x21
 1304 0077 00       		.byte	0
 1305 0078 49       		.uleb128 0x49
 1306 0079 13       		.uleb128 0x13
 1307 007a 2F       		.uleb128 0x2f
 1308 007b 0B       		.uleb128 0xb
 1309 007c 00       		.byte	0
 1310 007d 00       		.byte	0
 1311 007e 0B       		.uleb128 0xb
 1312 007f 2E       		.uleb128 0x2e
 1313 0080 01       		.byte	0x1
 1314 0081 3F       		.uleb128 0x3f
 1315 0082 19       		.uleb128 0x19
 1316 0083 03       		.uleb128 0x3
 1317 0084 0E       		.uleb128 0xe
 1318 0085 3A       		.uleb128 0x3a
 1319 0086 0B       		.uleb128 0xb
 1320 0087 3B       		.uleb128 0x3b
 1321 0088 0B       		.uleb128 0xb
 1322 0089 11       		.uleb128 0x11
 1323 008a 01       		.uleb128 0x1
 1324 008b 12       		.uleb128 0x12
ARM GAS  C:\Users\aupen\AppData\Local\Temp\ccPo8kBl.s 			page 27


 1325 008c 06       		.uleb128 0x6
 1326 008d 40       		.uleb128 0x40
 1327 008e 18       		.uleb128 0x18
 1328 008f 9742     		.uleb128 0x2117
 1329 0091 19       		.uleb128 0x19
 1330 0092 01       		.uleb128 0x1
 1331 0093 13       		.uleb128 0x13
 1332 0094 00       		.byte	0
 1333 0095 00       		.byte	0
 1334 0096 0C       		.uleb128 0xc
 1335 0097 898201   		.uleb128 0x4109
 1336 009a 01       		.byte	0x1
 1337 009b 11       		.uleb128 0x11
 1338 009c 01       		.uleb128 0x1
 1339 009d 9542     		.uleb128 0x2115
 1340 009f 19       		.uleb128 0x19
 1341 00a0 31       		.uleb128 0x31
 1342 00a1 13       		.uleb128 0x13
 1343 00a2 00       		.byte	0
 1344 00a3 00       		.byte	0
 1345 00a4 0D       		.uleb128 0xd
 1346 00a5 8A8201   		.uleb128 0x410a
 1347 00a8 00       		.byte	0
 1348 00a9 02       		.uleb128 0x2
 1349 00aa 18       		.uleb128 0x18
 1350 00ab 9142     		.uleb128 0x2111
 1351 00ad 18       		.uleb128 0x18
 1352 00ae 00       		.byte	0
 1353 00af 00       		.byte	0
 1354 00b0 0E       		.uleb128 0xe
 1355 00b1 898201   		.uleb128 0x4109
 1356 00b4 01       		.byte	0x1
 1357 00b5 11       		.uleb128 0x11
 1358 00b6 01       		.uleb128 0x1
 1359 00b7 31       		.uleb128 0x31
 1360 00b8 13       		.uleb128 0x13
 1361 00b9 01       		.uleb128 0x1
 1362 00ba 13       		.uleb128 0x13
 1363 00bb 00       		.byte	0
 1364 00bc 00       		.byte	0
 1365 00bd 0F       		.uleb128 0xf
 1366 00be 898201   		.uleb128 0x4109
 1367 00c1 00       		.byte	0
 1368 00c2 11       		.uleb128 0x11
 1369 00c3 01       		.uleb128 0x1
 1370 00c4 31       		.uleb128 0x31
 1371 00c5 13       		.uleb128 0x13
 1372 00c6 00       		.byte	0
 1373 00c7 00       		.byte	0
 1374 00c8 10       		.uleb128 0x10
 1375 00c9 898201   		.uleb128 0x4109
 1376 00cc 01       		.byte	0x1
 1377 00cd 11       		.uleb128 0x11
 1378 00ce 01       		.uleb128 0x1
 1379 00cf 31       		.uleb128 0x31
 1380 00d0 13       		.uleb128 0x13
 1381 00d1 00       		.byte	0
ARM GAS  C:\Users\aupen\AppData\Local\Temp\ccPo8kBl.s 			page 28


 1382 00d2 00       		.byte	0
 1383 00d3 11       		.uleb128 0x11
 1384 00d4 2E       		.uleb128 0x2e
 1385 00d5 01       		.byte	0x1
 1386 00d6 3F       		.uleb128 0x3f
 1387 00d7 19       		.uleb128 0x19
 1388 00d8 03       		.uleb128 0x3
 1389 00d9 0E       		.uleb128 0xe
 1390 00da 3A       		.uleb128 0x3a
 1391 00db 0B       		.uleb128 0xb
 1392 00dc 3B       		.uleb128 0x3b
 1393 00dd 0B       		.uleb128 0xb
 1394 00de 27       		.uleb128 0x27
 1395 00df 19       		.uleb128 0x19
 1396 00e0 11       		.uleb128 0x11
 1397 00e1 01       		.uleb128 0x1
 1398 00e2 12       		.uleb128 0x12
 1399 00e3 06       		.uleb128 0x6
 1400 00e4 40       		.uleb128 0x40
 1401 00e5 18       		.uleb128 0x18
 1402 00e6 9742     		.uleb128 0x2117
 1403 00e8 19       		.uleb128 0x19
 1404 00e9 01       		.uleb128 0x1
 1405 00ea 13       		.uleb128 0x13
 1406 00eb 00       		.byte	0
 1407 00ec 00       		.byte	0
 1408 00ed 12       		.uleb128 0x12
 1409 00ee 05       		.uleb128 0x5
 1410 00ef 00       		.byte	0
 1411 00f0 03       		.uleb128 0x3
 1412 00f1 0E       		.uleb128 0xe
 1413 00f2 3A       		.uleb128 0x3a
 1414 00f3 0B       		.uleb128 0xb
 1415 00f4 3B       		.uleb128 0x3b
 1416 00f5 0B       		.uleb128 0xb
 1417 00f6 49       		.uleb128 0x49
 1418 00f7 13       		.uleb128 0x13
 1419 00f8 02       		.uleb128 0x2
 1420 00f9 17       		.uleb128 0x17
 1421 00fa 00       		.byte	0
 1422 00fb 00       		.byte	0
 1423 00fc 13       		.uleb128 0x13
 1424 00fd 898201   		.uleb128 0x4109
 1425 0100 01       		.byte	0x1
 1426 0101 11       		.uleb128 0x11
 1427 0102 01       		.uleb128 0x1
 1428 0103 9542     		.uleb128 0x2115
 1429 0105 19       		.uleb128 0x19
 1430 0106 31       		.uleb128 0x31
 1431 0107 13       		.uleb128 0x13
 1432 0108 01       		.uleb128 0x1
 1433 0109 13       		.uleb128 0x13
 1434 010a 00       		.byte	0
 1435 010b 00       		.byte	0
 1436 010c 14       		.uleb128 0x14
 1437 010d 898201   		.uleb128 0x4109
 1438 0110 00       		.byte	0
ARM GAS  C:\Users\aupen\AppData\Local\Temp\ccPo8kBl.s 			page 29


 1439 0111 11       		.uleb128 0x11
 1440 0112 01       		.uleb128 0x1
 1441 0113 9542     		.uleb128 0x2115
 1442 0115 19       		.uleb128 0x19
 1443 0116 31       		.uleb128 0x31
 1444 0117 13       		.uleb128 0x13
 1445 0118 00       		.byte	0
 1446 0119 00       		.byte	0
 1447 011a 15       		.uleb128 0x15
 1448 011b 34       		.uleb128 0x34
 1449 011c 00       		.byte	0
 1450 011d 03       		.uleb128 0x3
 1451 011e 0E       		.uleb128 0xe
 1452 011f 3A       		.uleb128 0x3a
 1453 0120 0B       		.uleb128 0xb
 1454 0121 3B       		.uleb128 0x3b
 1455 0122 05       		.uleb128 0x5
 1456 0123 49       		.uleb128 0x49
 1457 0124 13       		.uleb128 0x13
 1458 0125 3F       		.uleb128 0x3f
 1459 0126 19       		.uleb128 0x19
 1460 0127 3C       		.uleb128 0x3c
 1461 0128 19       		.uleb128 0x19
 1462 0129 00       		.byte	0
 1463 012a 00       		.byte	0
 1464 012b 16       		.uleb128 0x16
 1465 012c 35       		.uleb128 0x35
 1466 012d 00       		.byte	0
 1467 012e 49       		.uleb128 0x49
 1468 012f 13       		.uleb128 0x13
 1469 0130 00       		.byte	0
 1470 0131 00       		.byte	0
 1471 0132 17       		.uleb128 0x17
 1472 0133 34       		.uleb128 0x34
 1473 0134 00       		.byte	0
 1474 0135 03       		.uleb128 0x3
 1475 0136 0E       		.uleb128 0xe
 1476 0137 3A       		.uleb128 0x3a
 1477 0138 0B       		.uleb128 0xb
 1478 0139 3B       		.uleb128 0x3b
 1479 013a 0B       		.uleb128 0xb
 1480 013b 49       		.uleb128 0x49
 1481 013c 13       		.uleb128 0x13
 1482 013d 3F       		.uleb128 0x3f
 1483 013e 19       		.uleb128 0x19
 1484 013f 02       		.uleb128 0x2
 1485 0140 18       		.uleb128 0x18
 1486 0141 00       		.byte	0
 1487 0142 00       		.byte	0
 1488 0143 18       		.uleb128 0x18
 1489 0144 2E       		.uleb128 0x2e
 1490 0145 00       		.byte	0
 1491 0146 3F       		.uleb128 0x3f
 1492 0147 19       		.uleb128 0x19
 1493 0148 3C       		.uleb128 0x3c
 1494 0149 19       		.uleb128 0x19
 1495 014a 6E       		.uleb128 0x6e
ARM GAS  C:\Users\aupen\AppData\Local\Temp\ccPo8kBl.s 			page 30


 1496 014b 0E       		.uleb128 0xe
 1497 014c 03       		.uleb128 0x3
 1498 014d 0E       		.uleb128 0xe
 1499 014e 3A       		.uleb128 0x3a
 1500 014f 0B       		.uleb128 0xb
 1501 0150 3B       		.uleb128 0x3b
 1502 0151 0B       		.uleb128 0xb
 1503 0152 00       		.byte	0
 1504 0153 00       		.byte	0
 1505 0154 00       		.byte	0
 1506              		.section	.debug_loc,"",%progbits
 1507              	.Ldebug_loc0:
 1508              	.LLST0:
 1509 0000 00000000 		.4byte	.LVL27
 1510 0004 16000000 		.4byte	.LVL28
 1511 0008 0100     		.2byte	0x1
 1512 000a 50       		.byte	0x50
 1513 000b 16000000 		.4byte	.LVL28
 1514 000f 24000000 		.4byte	.LVL30
 1515 0013 0400     		.2byte	0x4
 1516 0015 F3       		.byte	0xf3
 1517 0016 01       		.uleb128 0x1
 1518 0017 50       		.byte	0x50
 1519 0018 9F       		.byte	0x9f
 1520 0019 24000000 		.4byte	.LVL30
 1521 001d 2B000000 		.4byte	.LVL31-1
 1522 0021 0100     		.2byte	0x1
 1523 0023 50       		.byte	0x50
 1524 0024 2B000000 		.4byte	.LVL31-1
 1525 0028 2C000000 		.4byte	.LVL31
 1526 002c 0400     		.2byte	0x4
 1527 002e F3       		.byte	0xf3
 1528 002f 01       		.uleb128 0x1
 1529 0030 50       		.byte	0x50
 1530 0031 9F       		.byte	0x9f
 1531 0032 2C000000 		.4byte	.LVL31
 1532 0036 33000000 		.4byte	.LVL32-1
 1533 003a 0100     		.2byte	0x1
 1534 003c 50       		.byte	0x50
 1535 003d 33000000 		.4byte	.LVL32-1
 1536 0041 34000000 		.4byte	.LVL32
 1537 0045 0400     		.2byte	0x4
 1538 0047 F3       		.byte	0xf3
 1539 0048 01       		.uleb128 0x1
 1540 0049 50       		.byte	0x50
 1541 004a 9F       		.byte	0x9f
 1542 004b 34000000 		.4byte	.LVL32
 1543 004f 3B000000 		.4byte	.LVL33-1
 1544 0053 0100     		.2byte	0x1
 1545 0055 50       		.byte	0x50
 1546 0056 3B000000 		.4byte	.LVL33-1
 1547 005a 3C000000 		.4byte	.LVL33
 1548 005e 0400     		.2byte	0x4
 1549 0060 F3       		.byte	0xf3
 1550 0061 01       		.uleb128 0x1
 1551 0062 50       		.byte	0x50
 1552 0063 9F       		.byte	0x9f
ARM GAS  C:\Users\aupen\AppData\Local\Temp\ccPo8kBl.s 			page 31


 1553 0064 3C000000 		.4byte	.LVL33
 1554 0068 43000000 		.4byte	.LVL34-1
 1555 006c 0100     		.2byte	0x1
 1556 006e 50       		.byte	0x50
 1557 006f 43000000 		.4byte	.LVL34-1
 1558 0073 44000000 		.4byte	.LVL34
 1559 0077 0400     		.2byte	0x4
 1560 0079 F3       		.byte	0xf3
 1561 007a 01       		.uleb128 0x1
 1562 007b 50       		.byte	0x50
 1563 007c 9F       		.byte	0x9f
 1564 007d 44000000 		.4byte	.LVL34
 1565 0081 4B000000 		.4byte	.LVL35-1
 1566 0085 0100     		.2byte	0x1
 1567 0087 50       		.byte	0x50
 1568 0088 4B000000 		.4byte	.LVL35-1
 1569 008c 4C000000 		.4byte	.LVL35
 1570 0090 0400     		.2byte	0x4
 1571 0092 F3       		.byte	0xf3
 1572 0093 01       		.uleb128 0x1
 1573 0094 50       		.byte	0x50
 1574 0095 9F       		.byte	0x9f
 1575 0096 4C000000 		.4byte	.LVL35
 1576 009a 53000000 		.4byte	.LVL36-1
 1577 009e 0100     		.2byte	0x1
 1578 00a0 50       		.byte	0x50
 1579 00a1 53000000 		.4byte	.LVL36-1
 1580 00a5 54000000 		.4byte	.LVL36
 1581 00a9 0400     		.2byte	0x4
 1582 00ab F3       		.byte	0xf3
 1583 00ac 01       		.uleb128 0x1
 1584 00ad 50       		.byte	0x50
 1585 00ae 9F       		.byte	0x9f
 1586 00af 54000000 		.4byte	.LVL36
 1587 00b3 5B000000 		.4byte	.LVL37-1
 1588 00b7 0100     		.2byte	0x1
 1589 00b9 50       		.byte	0x50
 1590 00ba 5B000000 		.4byte	.LVL37-1
 1591 00be 5C000000 		.4byte	.LVL37
 1592 00c2 0400     		.2byte	0x4
 1593 00c4 F3       		.byte	0xf3
 1594 00c5 01       		.uleb128 0x1
 1595 00c6 50       		.byte	0x50
 1596 00c7 9F       		.byte	0x9f
 1597 00c8 5C000000 		.4byte	.LVL37
 1598 00cc 60000000 		.4byte	.LVL38
 1599 00d0 0100     		.2byte	0x1
 1600 00d2 50       		.byte	0x50
 1601 00d3 60000000 		.4byte	.LVL38
 1602 00d7 68000000 		.4byte	.LFE63
 1603 00db 0400     		.2byte	0x4
 1604 00dd F3       		.byte	0xf3
 1605 00de 01       		.uleb128 0x1
 1606 00df 50       		.byte	0x50
 1607 00e0 9F       		.byte	0x9f
 1608 00e1 00000000 		.4byte	0
 1609 00e5 00000000 		.4byte	0
ARM GAS  C:\Users\aupen\AppData\Local\Temp\ccPo8kBl.s 			page 32


 1610              		.section	.debug_aranges,"",%progbits
 1611 0000 54000000 		.4byte	0x54
 1612 0004 0200     		.2byte	0x2
 1613 0006 00000000 		.4byte	.Ldebug_info0
 1614 000a 04       		.byte	0x4
 1615 000b 00       		.byte	0
 1616 000c 0000     		.2byte	0
 1617 000e 0000     		.2byte	0
 1618 0010 00000000 		.4byte	.LFB64
 1619 0014 06000000 		.4byte	.LFE64-.LFB64
 1620 0018 00000000 		.4byte	.LFB65
 1621 001c 14000000 		.4byte	.LFE65-.LFB65
 1622 0020 00000000 		.4byte	.LFB66
 1623 0024 14000000 		.4byte	.LFE66-.LFB66
 1624 0028 00000000 		.4byte	.LFB67
 1625 002c 28000000 		.4byte	.LFE67-.LFB67
 1626 0030 00000000 		.4byte	.LFB68
 1627 0034 40000000 		.4byte	.LFE68-.LFB68
 1628 0038 00000000 		.4byte	.LFB69
 1629 003c 24000000 		.4byte	.LFE69-.LFB69
 1630 0040 00000000 		.4byte	.LFB70
 1631 0044 24000000 		.4byte	.LFE70-.LFB70
 1632 0048 00000000 		.4byte	.LFB63
 1633 004c 68000000 		.4byte	.LFE63-.LFB63
 1634 0050 00000000 		.4byte	0
 1635 0054 00000000 		.4byte	0
 1636              		.section	.debug_ranges,"",%progbits
 1637              	.Ldebug_ranges0:
 1638 0000 00000000 		.4byte	.LFB64
 1639 0004 06000000 		.4byte	.LFE64
 1640 0008 00000000 		.4byte	.LFB65
 1641 000c 14000000 		.4byte	.LFE65
 1642 0010 00000000 		.4byte	.LFB66
 1643 0014 14000000 		.4byte	.LFE66
 1644 0018 00000000 		.4byte	.LFB67
 1645 001c 28000000 		.4byte	.LFE67
 1646 0020 00000000 		.4byte	.LFB68
 1647 0024 40000000 		.4byte	.LFE68
 1648 0028 00000000 		.4byte	.LFB69
 1649 002c 24000000 		.4byte	.LFE69
 1650 0030 00000000 		.4byte	.LFB70
 1651 0034 24000000 		.4byte	.LFE70
 1652 0038 00000000 		.4byte	.LFB63
 1653 003c 68000000 		.4byte	.LFE63
 1654 0040 00000000 		.4byte	0
 1655 0044 00000000 		.4byte	0
 1656              		.section	.debug_line,"",%progbits
 1657              	.Ldebug_line0:
 1658 0000 5B020000 		.section	.debug_str,"MS",%progbits,1
 1658      02007801 
 1658      00000201 
 1658      FB0E0D00 
 1658      01010101 
 1659              	.LASF6:
 1660 0000 6C6F6E67 		.ascii	"long long int\000"
 1660      206C6F6E 
 1660      6720696E 
ARM GAS  C:\Users\aupen\AppData\Local\Temp\ccPo8kBl.s 			page 33


 1660      7400
 1661              	.LASF39:
 1662 000e 6D61785F 		.ascii	"max_pwm_Limited_L\000"
 1662      70776D5F 
 1662      4C696D69 
 1662      7465645F 
 1662      4C00
 1663              	.LASF23:
 1664 0020 44524956 		.ascii	"DRIVE_SLOW_TO_LINE\000"
 1664      455F534C 
 1664      4F575F54 
 1664      4F5F4C49 
 1664      4E4500
 1665              	.LASF54:
 1666 0033 64726976 		.ascii	"drive_forward\000"
 1666      655F666F 
 1666      72776172 
 1666      6400
 1667              	.LASF40:
 1668 0041 6D61785F 		.ascii	"max_pwm_Limited_R\000"
 1668      70776D5F 
 1668      4C696D69 
 1668      7465645F 
 1668      5200
 1669              	.LASF29:
 1670 0053 425F7661 		.ascii	"B_val\000"
 1670      6C00
 1671              	.LASF9:
 1672 0059 5F5F696E 		.ascii	"__int32_t\000"
 1672      7433325F 
 1672      7400
 1673              	.LASF4:
 1674 0063 6C6F6E67 		.ascii	"long int\000"
 1674      20696E74 
 1674      00
 1675              	.LASF47:
 1676 006c 66697273 		.ascii	"firstMoveDriveSlowToLine\000"
 1676      744D6F76 
 1676      65447269 
 1676      7665536C 
 1676      6F77546F 
 1677              	.LASF16:
 1678 0085 44454641 		.ascii	"DEFAULT\000"
 1678      554C5400 
 1679              	.LASF12:
 1680 008d 646F7562 		.ascii	"double\000"
 1680      6C6500
 1681              	.LASF49:
 1682 0094 674C696E 		.ascii	"gLine\000"
 1682      6500
 1683              	.LASF32:
 1684 009a 465F5249 		.ascii	"F_RIGHT\000"
 1684      47485400 
 1685              	.LASF42:
 1686 00a2 66697273 		.ascii	"firstMoveTurnRight\000"
 1686      744D6F76 
 1686      65547572 
ARM GAS  C:\Users\aupen\AppData\Local\Temp\ccPo8kBl.s 			page 34


 1686      6E526967 
 1686      687400
 1687              	.LASF53:
 1688 00b5 7475726E 		.ascii	"turn_left\000"
 1688      5F6C6566 
 1688      7400
 1689              	.LASF10:
 1690 00bf 696E7433 		.ascii	"int32_t\000"
 1690      325F7400 
 1691              	.LASF41:
 1692 00c7 66697273 		.ascii	"firstMoveRightLineArc\000"
 1692      744D6F76 
 1692      65526967 
 1692      68744C69 
 1692      6E654172 
 1693              	.LASF11:
 1694 00dd 666C6F61 		.ascii	"float\000"
 1694      7400
 1695              	.LASF7:
 1696 00e3 6C6F6E67 		.ascii	"long long unsigned int\000"
 1696      206C6F6E 
 1696      6720756E 
 1696      7369676E 
 1696      65642069 
 1697              	.LASF17:
 1698 00fa 46415354 		.ascii	"FAST_FORWARD\000"
 1698      5F464F52 
 1698      57415244 
 1698      00
 1699              	.LASF1:
 1700 0107 756E7369 		.ascii	"unsigned char\000"
 1700      676E6564 
 1700      20636861 
 1700      7200
 1701              	.LASF44:
 1702 0115 66697273 		.ascii	"firstMoveFastForward\000"
 1702      744D6F76 
 1702      65466173 
 1702      74466F72 
 1702      77617264 
 1703              	.LASF52:
 1704 012a 7475726E 		.ascii	"turn_right\000"
 1704      5F726967 
 1704      687400
 1705              	.LASF27:
 1706 0135 4652315F 		.ascii	"FR1_val\000"
 1706      76616C00 
 1707              	.LASF18:
 1708 013d 5455524E 		.ascii	"TURN_LEFT_45\000"
 1708      5F4C4546 
 1708      545F3435 
 1708      00
 1709              	.LASF48:
 1710 014a 49544D5F 		.ascii	"ITM_RxBuffer\000"
 1710      52784275 
 1710      66666572 
 1710      00
ARM GAS  C:\Users\aupen\AppData\Local\Temp\ccPo8kBl.s 			page 35


 1711              	.LASF46:
 1712 0157 66697273 		.ascii	"firstMoveDriveToLine\000"
 1712      744D6F76 
 1712      65447269 
 1712      7665546F 
 1712      4C696E65 
 1713              	.LASF19:
 1714 016c 5455524E 		.ascii	"TURN_RIGHT_45\000"
 1714      5F524947 
 1714      48545F34 
 1714      3500
 1715              	.LASF5:
 1716 017a 6C6F6E67 		.ascii	"long unsigned int\000"
 1716      20756E73 
 1716      69676E65 
 1716      6420696E 
 1716      7400
 1717              	.LASF59:
 1718 018c 473A5C52 		.ascii	"G:\\Roboti\\BOLT_sumo_code\\BOLT_sumo.cydsn\000"
 1718      6F626F74 
 1718      695C424F 
 1718      4C545F73 
 1718      756D6F5F 
 1719              	.LASF34:
 1720 01b5 6164635F 		.ascii	"adc_buff\000"
 1720      62756666 
 1720      00
 1721              	.LASF25:
 1722 01be 464C315F 		.ascii	"FL1_val\000"
 1722      76616C00 
 1723              	.LASF60:
 1724 01c6 66697273 		.ascii	"firstMoveSelector\000"
 1724      744D6F76 
 1724      6553656C 
 1724      6563746F 
 1724      7200
 1725              	.LASF8:
 1726 01d8 756E7369 		.ascii	"unsigned int\000"
 1726      676E6564 
 1726      20696E74 
 1726      00
 1727              	.LASF30:
 1728 01e5 4654485F 		.ascii	"FTH_val\000"
 1728      76616C00 
 1729              	.LASF21:
 1730 01ed 444F5542 		.ascii	"DOUBLE_FAST_FORWARD\000"
 1730      4C455F46 
 1730      4153545F 
 1730      464F5257 
 1730      41524400 
 1731              	.LASF35:
 1732 0201 674C696E 		.ascii	"gLinevars\000"
 1732      65766172 
 1732      7300
 1733              	.LASF28:
 1734 020b 4652325F 		.ascii	"FR2_val\000"
 1734      76616C00 
ARM GAS  C:\Users\aupen\AppData\Local\Temp\ccPo8kBl.s 			page 36


 1735              	.LASF24:
 1736 0213 46697273 		.ascii	"FirstMove_t\000"
 1736      744D6F76 
 1736      655F7400 
 1737              	.LASF61:
 1738 021f 66697273 		.ascii	"firstMove\000"
 1738      744D6F76 
 1738      6500
 1739              	.LASF15:
 1740 0229 73697A65 		.ascii	"sizetype\000"
 1740      74797065 
 1740      00
 1741              	.LASF38:
 1742 0232 7475726E 		.ascii	"turn_speed\000"
 1742      5F737065 
 1742      656400
 1743              	.LASF56:
 1744 023d 4C696E65 		.ascii	"LineSensRead\000"
 1744      53656E73 
 1744      52656164 
 1744      00
 1745              	.LASF33:
 1746 024a 52454152 		.ascii	"REAR\000"
 1746      00
 1747              	.LASF13:
 1748 024f 63686172 		.ascii	"char\000"
 1748      00
 1749              	.LASF45:
 1750 0254 66697273 		.ascii	"firstMoveDoubleFastForward\000"
 1750      744D6F76 
 1750      65446F75 
 1750      626C6546 
 1750      61737446 
 1751              	.LASF26:
 1752 026f 464C325F 		.ascii	"FL2_val\000"
 1752      76616C00 
 1753              	.LASF31:
 1754 0277 465F4C45 		.ascii	"F_LEFT\000"
 1754      465400
 1755              	.LASF43:
 1756 027e 66697273 		.ascii	"firstMoveTurnLeft\000"
 1756      744D6F76 
 1756      65547572 
 1756      6E4C6566 
 1756      7400
 1757              	.LASF50:
 1758 0290 674D6F74 		.ascii	"gMotor\000"
 1758      6F7200
 1759              	.LASF2:
 1760 0297 73686F72 		.ascii	"short int\000"
 1760      7420696E 
 1760      7400
 1761              	.LASF22:
 1762 02a1 44524956 		.ascii	"DRIVE_TO_LINE\000"
 1762      455F544F 
 1762      5F4C494E 
 1762      4500
ARM GAS  C:\Users\aupen\AppData\Local\Temp\ccPo8kBl.s 			page 37


 1763              	.LASF20:
 1764 02af 52494748 		.ascii	"RIGHT_LINE_ARC\000"
 1764      545F4C49 
 1764      4E455F41 
 1764      524300
 1765              	.LASF36:
 1766 02be 67447269 		.ascii	"gDrivevars\000"
 1766      76657661 
 1766      727300
 1767              	.LASF57:
 1768 02c9 474E5520 		.ascii	"GNU C11 5.4.1 20160609 (release) [ARM/embedded-5-br"
 1768      43313120 
 1768      352E342E 
 1768      31203230 
 1768      31363036 
 1769 02fc 616E6368 		.ascii	"anch revision 237715] -mcpu=cortex-m3 -mthumb -g -O"
 1769      20726576 
 1769      6973696F 
 1769      6E203233 
 1769      37373135 
 1770 032f 73202D66 		.ascii	"s -ffunction-sections -ffat-lto-objects\000"
 1770      66756E63 
 1770      74696F6E 
 1770      2D736563 
 1770      74696F6E 
 1771              	.LASF55:
 1772 0357 6272616B 		.ascii	"brake\000"
 1772      6500
 1773              	.LASF14:
 1774 035d 6C6F6E67 		.ascii	"long double\000"
 1774      20646F75 
 1774      626C6500 
 1775              	.LASF0:
 1776 0369 7369676E 		.ascii	"signed char\000"
 1776      65642063 
 1776      68617200 
 1777              	.LASF3:
 1778 0375 73686F72 		.ascii	"short unsigned int\000"
 1778      7420756E 
 1778      7369676E 
 1778      65642069 
 1778      6E7400
 1779              	.LASF37:
 1780 0388 62617369 		.ascii	"basic_speed\000"
 1780      635F7370 
 1780      65656400 
 1781              	.LASF58:
 1782 0394 66697273 		.ascii	"first_move.c\000"
 1782      745F6D6F 
 1782      76652E63 
 1782      00
 1783              	.LASF51:
 1784 03a1 43794465 		.ascii	"CyDelay\000"
 1784      6C617900 
 1785              		.ident	"GCC: (GNU Tools for ARM Embedded Processors) 5.4.1 20160609 (release) [ARM/embedded-5-bran
