ARM GAS  C:\Users\aupen\AppData\Local\Temp\ccmHCvVm.s 			page 1


   1              		.syntax unified
   2              		.cpu cortex-m3
   3              		.fpu softvfp
   4              		.eabi_attribute 20, 1
   5              		.eabi_attribute 21, 1
   6              		.eabi_attribute 23, 3
   7              		.eabi_attribute 24, 1
   8              		.eabi_attribute 25, 1
   9              		.eabi_attribute 26, 1
  10              		.eabi_attribute 30, 4
  11              		.eabi_attribute 34, 1
  12              		.eabi_attribute 18, 4
  13              		.thumb
  14              		.syntax unified
  15              		.file	"tactic7.c"
  16              		.text
  17              	.Ltext0:
  18              		.cfi_sections	.debug_frame
  19              		.section	.text.RunTactic7,"ax",%progbits
  20              		.align	1
  21              		.global	RunTactic7
  22              		.thumb
  23              		.thumb_func
  24              		.type	RunTactic7, %function
  25              	RunTactic7:
  26              	.LFB63:
  27              		.file 1 "tactic7.c"
   1:tactic7.c     **** /* ========================================
   2:tactic7.c     ****  *
   3:tactic7.c     ****  * Copyright YOUR COMPANY, THE YEAR
   4:tactic7.c     ****  * All Rights Reserved
   5:tactic7.c     ****  * UNPUBLISHED, LICENSED SOFTWARE.
   6:tactic7.c     ****  *
   7:tactic7.c     ****  * CONFIDENTIAL AND PROPRIETARY INFORMATION
   8:tactic7.c     ****  * WHICH IS THE PROPERTY OF your company.
   9:tactic7.c     ****  *
  10:tactic7.c     ****  * ========================================
  11:tactic7.c     **** */
  12:tactic7.c     **** #include <project.h>
  13:tactic7.c     **** #include "tactic7.h"
  14:tactic7.c     **** #include "first_move.h"
  15:tactic7.c     **** #include "sensors.h"
  16:tactic7.c     **** #include "timer_time.h"
  17:tactic7.c     **** #include "drive.h"
  18:tactic7.c     **** 
  19:tactic7.c     **** //=============================================================================
  20:tactic7.c     **** // Private defines and typedefs
  21:tactic7.c     **** //=============================================================================
  22:tactic7.c     **** #define Rd_bits(value, mask)        ((value)&(mask))
  23:tactic7.c     **** 
  24:tactic7.c     **** #define SEARCH_PWM_L  35
  25:tactic7.c     **** #define SEARCH_PWM_R  35
  26:tactic7.c     **** #define TURN_PWM    40
  27:tactic7.c     **** #define ATTACK_PWM  80
  28:tactic7.c     **** 
  29:tactic7.c     **** //=============================================================================
  30:tactic7.c     **** // Private function declarations
ARM GAS  C:\Users\aupen\AppData\Local\Temp\ccmHCvVm.s 			page 2


  31:tactic7.c     **** //=============================================================================
  32:tactic7.c     **** static void ActOnEnemySpotted(void);
  33:tactic7.c     **** static void ActOnLineDetected(void);
  34:tactic7.c     **** static void DoSomething(void);
  35:tactic7.c     **** 
  36:tactic7.c     **** //=============================================================================
  37:tactic7.c     **** // Private data definitions
  38:tactic7.c     **** //=============================================================================
  39:tactic7.c     **** static uint8_t lineSens = 0;
  40:tactic7.c     **** static uint8_t distSens = 0;
  41:tactic7.c     **** static uint8_t side = 0;
  42:tactic7.c     **** 
  43:tactic7.c     **** 
  44:tactic7.c     **** //=============================================================================
  45:tactic7.c     **** // Public function definitions
  46:tactic7.c     **** //=============================================================================
  47:tactic7.c     **** 
  48:tactic7.c     **** //-----------------------------------------------------------------------------
  49:tactic7.c     **** //! \brief	Combat tactic #1 in action
  50:tactic7.c     **** //-----------------------------------------------------------------------------
  51:tactic7.c     **** void RunTactic7(int firstMove)
  52:tactic7.c     **** {
  28              		.loc 1 52 0
  29              		.cfi_startproc
  30              		@ args = 0, pretend = 0, frame = 0
  31              		@ frame_needed = 0, uses_anonymous_args = 0
  32              	.LVL0:
  33 0000 38B5     		push	{r3, r4, r5, lr}
  34              		.cfi_def_cfa_offset 16
  35              		.cfi_offset 3, -16
  36              		.cfi_offset 4, -12
  37              		.cfi_offset 5, -8
  38              		.cfi_offset 14, -4
  39              		.loc 1 52 0
  40 0002 0446     		mov	r4, r0
  53:tactic7.c     ****     WaitForIRStart();
  41              		.loc 1 53 0
  42 0004 FFF7FEFF 		bl	WaitForIRStart
  43              	.LVL1:
  54:tactic7.c     ****     
  55:tactic7.c     ****     // ============================ First move ================================
  56:tactic7.c     **** 
  57:tactic7.c     ****     //CyDelay(5000);
  58:tactic7.c     ****     firstMoveSelector(firstMove);
  44              		.loc 1 58 0
  45 0008 E0B2     		uxtb	r0, r4
  46 000a FFF7FEFF 		bl	firstMoveSelector
  47              	.LVL2:
  59:tactic7.c     ****     
  60:tactic7.c     ****                     
  61:tactic7.c     **** 
  62:tactic7.c     ****     // ============================= Main loop ================================
  63:tactic7.c     ****     uint32_t timout_time = millis();
  48              		.loc 1 63 0
  49 000e FFF7FEFF 		bl	millis
  50              	.LVL3:
  51 0012 0446     		mov	r4, r0
ARM GAS  C:\Users\aupen\AppData\Local\Temp\ccmHCvVm.s 			page 3


  52              	.LVL4:
  53              	.LBB6:
  54              	.LBB7:
  64:tactic7.c     ****     while (1) {
  65:tactic7.c     **** 		// read all sensors
  66:tactic7.c     **** 		lineSens = LineSensRead();
  67:tactic7.c     **** 	    //distSens = DistSensRead(); //Distance_sensor_value_Read();
  68:tactic7.c     ****         //Sensor_Reset_Write(0xFF);  // why???
  69:tactic7.c     ****         
  70:tactic7.c     ****         //Sensor_Reset_Write(0); 
  71:tactic7.c     **** 
  72:tactic7.c     **** 		if( 0 < lineSens ){
  73:tactic7.c     **** 			// line has detected
  74:tactic7.c     **** 		    ActOnLineDetected();
  75:tactic7.c     **** 			timout_time = millis();
  76:tactic7.c     **** 		}
  77:tactic7.c     **** 		//else if( 0 < distSens ){
  78:tactic7.c     **** 			// opponent spotted
  79:tactic7.c     **** 			//ActOnEnemySpotted();
  80:tactic7.c     **** 			//timout_time = millis();
  81:tactic7.c     **** 		//}
  82:tactic7.c     ****         else {
  83:tactic7.c     ****             drive_forward(SEARCH_PWM_L, SEARCH_PWM_R);
  84:tactic7.c     ****             //CyDelay(50);
  85:tactic7.c     ****         }
  86:tactic7.c     **** 
  87:tactic7.c     **** 		if( 2500 < millis() - timout_time ){
  88:tactic7.c     **** 			timout_time = millis();
  89:tactic7.c     **** 			DoSomething();
  90:tactic7.c     ****             Servo_enable_Write(0);
  91:tactic7.c     **** 		}
  92:tactic7.c     ****     }
  93:tactic7.c     **** }
  94:tactic7.c     **** 
  95:tactic7.c     **** //=============================================================================
  96:tactic7.c     **** // Private function definitions
  97:tactic7.c     **** //=============================================================================
  98:tactic7.c     **** 
  99:tactic7.c     **** //! \brief	Act on opponent spotted event
 100:tactic7.c     **** void ActOnEnemySpotted(void){
 101:tactic7.c     **** 
 102:tactic7.c     **** 
 103:tactic7.c     **** 	    int distSens = DistSensRead(); //Distance_sensor_value_Read();
 104:tactic7.c     ****         //Sensor_Reset_Write(0xFF);  // why???
 105:tactic7.c     ****         
 106:tactic7.c     ****         //Sensor_Reset_Write(0); 
 107:tactic7.c     **** 
 108:tactic7.c     ****     	if( 0 < distSens ){
 109:tactic7.c     ****             int8_t avrg_angle_grad = CalcAvrgAngle();
 110:tactic7.c     **** 
 111:tactic7.c     ****         	int8_t pwm = 60;
 112:tactic7.c     ****             // Attack spotted opponent
 113:tactic7.c     ****         	if( 0 == avrg_angle_grad ){
 114:tactic7.c     ****         		drive_forward( ATTACK_PWM , ATTACK_PWM );		// drive forward
 115:tactic7.c     ****         		CyDelay(40);
 116:tactic7.c     ****         	}else if( -60 >= avrg_angle_grad ){
 117:tactic7.c     ****         		// [-90; -60] grad
ARM GAS  C:\Users\aupen\AppData\Local\Temp\ccmHCvVm.s 			page 4


 118:tactic7.c     ****         		turn_left(TURN_PWM,TURN_PWM); //drive_motors( -pwm, pwm );		// turn on spot left
 119:tactic7.c     ****                 CyDelay(40);
 120:tactic7.c     ****         	}else if( -30 >= avrg_angle_grad ){
 121:tactic7.c     ****         		// (-60; -30] grad
 122:tactic7.c     ****         		drive_forward( pwm / 3, pwm );	// drive more left
 123:tactic7.c     ****                 CyDelay(30);
 124:tactic7.c     ****         	}else if( 0 > avrg_angle_grad ){
 125:tactic7.c     ****         		// (-30; 0) grad
 126:tactic7.c     ****         		drive_forward( ATTACK_PWM * 0.7, ATTACK_PWM );	// drive little left
 127:tactic7.c     ****                 CyDelay(40);
 128:tactic7.c     ****         	}else if( 60 <= avrg_angle_grad ){
 129:tactic7.c     ****         		// [60; 90] grad
 130:tactic7.c     ****         		turn_right(TURN_PWM,TURN_PWM); //drive_motors( pwm, -pwm );		// turn on spot right
 131:tactic7.c     ****                 CyDelay(40);
 132:tactic7.c     ****         	}else if( 30 <= avrg_angle_grad ){
 133:tactic7.c     ****         		// [30; 60) grad
 134:tactic7.c     ****         		drive_forward( pwm, pwm / 3 );	// drive more right
 135:tactic7.c     ****                 CyDelay(30);
 136:tactic7.c     ****         	}else if( 0 <= avrg_angle_grad ){
 137:tactic7.c     ****         		// (0; 30) grad
 138:tactic7.c     ****         		drive_forward( ATTACK_PWM, ATTACK_PWM * 0.7 );	// drive little right
 139:tactic7.c     ****                 CyDelay(40);
 140:tactic7.c     ****         	}
 141:tactic7.c     ****             CyDelay(10);
 142:tactic7.c     **** 
 143:tactic7.c     ****     		}
 144:tactic7.c     ****         else {
 145:tactic7.c     ****             drive_forward(0, 0);
 146:tactic7.c     ****             //CyDelay(50);
 147:tactic7.c     ****         }
 148:tactic7.c     ****        
 149:tactic7.c     **** }
 150:tactic7.c     **** 
 151:tactic7.c     **** //! \brief	Act on line detected event
 152:tactic7.c     **** void ActOnLineDetected(void){
 153:tactic7.c     **** 	//int lineSens = LineSensRead();
 154:tactic7.c     ****      
 155:tactic7.c     **** 	// Line_FL && Line_FR
 156:tactic7.c     **** 	if(gLine.F_LEFT && gLine.F_RIGHT){
  55              		.loc 1 156 0
  56 0014 2A4D     		ldr	r5, .L16
  57              	.LVL5:
  58              	.L7:
  59              	.LBE7:
  60              	.LBE6:
  66:tactic7.c     **** 	    //distSens = DistSensRead(); //Distance_sensor_value_Read();
  61              		.loc 1 66 0
  62 0016 FFF7FEFF 		bl	LineSensRead
  63              	.LVL6:
  72:tactic7.c     **** 			// line has detected
  64              		.loc 1 72 0
  65 001a A0B3     		cbz	r0, .L2
  66              	.LBB9:
  67              	.LBB8:
  68              		.loc 1 156 0
  69 001c AB69     		ldr	r3, [r5, #24]
  70 001e D3B1     		cbz	r3, .L3
ARM GAS  C:\Users\aupen\AppData\Local\Temp\ccmHCvVm.s 			page 5


  71 0020 EB69     		ldr	r3, [r5, #28]
 157:tactic7.c     ****         drive_backward(40,40); //drive_distance_straight_backward(10, 40);
  72              		.loc 1 157 0
  73 0022 2821     		movs	r1, #40
  74 0024 0846     		mov	r0, r1
 156:tactic7.c     ****         drive_backward(40,40); //drive_distance_straight_backward(10, 40);
  75              		.loc 1 156 0
  76 0026 63B1     		cbz	r3, .L4
  77              		.loc 1 157 0
  78 0028 FFF7FEFF 		bl	drive_backward
  79              	.LVL7:
 158:tactic7.c     ****         CyDelay(400);
  80              		.loc 1 158 0
  81 002c 4FF4C870 		mov	r0, #400
  82 0030 FFF7FEFF 		bl	CyDelay
  83              	.LVL8:
 159:tactic7.c     ****         //turn_angle_right(170,50);
 160:tactic7.c     ****         turn_left(TURN_PWM,TURN_PWM); //turn_angle_right(180, TURN_PWM );
  84              		.loc 1 160 0
  85 0034 2821     		movs	r1, #40
  86 0036 0846     		mov	r0, r1
  87 0038 FFF7FEFF 		bl	turn_left
  88              	.LVL9:
 161:tactic7.c     ****         CyDelay(300);
  89              		.loc 1 161 0
  90 003c 4FF49670 		mov	r0, #300
  91 0040 17E0     		b	.L13
  92              	.L4:
 162:tactic7.c     **** 	}
 163:tactic7.c     **** 	// Line_FL
 164:tactic7.c     **** 	else if(gLine.F_LEFT){
 165:tactic7.c     ****         drive_backward(40,40); //drive_distance_straight_backward(10, 40);
  93              		.loc 1 165 0
  94 0042 FFF7FEFF 		bl	drive_backward
  95              	.LVL10:
 166:tactic7.c     ****         CyDelay(150);
  96              		.loc 1 166 0
  97 0046 9620     		movs	r0, #150
  98 0048 FFF7FEFF 		bl	CyDelay
  99              	.LVL11:
 167:tactic7.c     ****         turn_right(TURN_PWM,TURN_PWM); //turn_angle_right(135, TURN_PWM );
 100              		.loc 1 167 0
 101 004c 2821     		movs	r1, #40
 102 004e 0846     		mov	r0, r1
 103 0050 FFF7FEFF 		bl	turn_right
 104              	.LVL12:
 105 0054 0CE0     		b	.L14
 106              	.L3:
 168:tactic7.c     ****         CyDelay(200);
 169:tactic7.c     **** 	}
 170:tactic7.c     **** 	// Line_FR
 171:tactic7.c     **** 	else if(gLine.F_RIGHT){
 107              		.loc 1 171 0
 108 0056 EB69     		ldr	r3, [r5, #28]
 109 0058 6BB1     		cbz	r3, .L5
 172:tactic7.c     ****         drive_backward(40,40); //drive_distance_straight_backward(10, 40);
 110              		.loc 1 172 0
ARM GAS  C:\Users\aupen\AppData\Local\Temp\ccmHCvVm.s 			page 6


 111 005a 2821     		movs	r1, #40
 112 005c 0846     		mov	r0, r1
 113 005e FFF7FEFF 		bl	drive_backward
 114              	.LVL13:
 173:tactic7.c     ****         CyDelay(150);
 115              		.loc 1 173 0
 116 0062 9620     		movs	r0, #150
 117 0064 FFF7FEFF 		bl	CyDelay
 118              	.LVL14:
 174:tactic7.c     ****         turn_left(TURN_PWM,TURN_PWM); //turn_angle_left(135, TURN_PWM );
 119              		.loc 1 174 0
 120 0068 2821     		movs	r1, #40
 121 006a 0846     		mov	r0, r1
 122 006c FFF7FEFF 		bl	turn_left
 123              	.LVL15:
 124              	.L14:
 175:tactic7.c     ****         CyDelay(200);
 125              		.loc 1 175 0
 126 0070 C820     		movs	r0, #200
 127              	.L13:
 128 0072 FFF7FEFF 		bl	CyDelay
 129              	.LVL16:
 130              	.L5:
 176:tactic7.c     **** 	}
 177:tactic7.c     ****     drive_forward( 0, 0 );
 131              		.loc 1 177 0
 132 0076 0021     		movs	r1, #0
 133 0078 0846     		mov	r0, r1
 134 007a FFF7FEFF 		bl	drive_forward
 135              	.LVL17:
 136              	.LBE8:
 137              	.LBE9:
  75:tactic7.c     **** 		}
 138              		.loc 1 75 0
 139 007e FFF7FEFF 		bl	millis
 140              	.LVL18:
 141 0082 0446     		mov	r4, r0
 142              	.LVL19:
 143 0084 03E0     		b	.L6
 144              	.LVL20:
 145              	.L2:
  83:tactic7.c     ****             //CyDelay(50);
 146              		.loc 1 83 0
 147 0086 2321     		movs	r1, #35
 148 0088 0846     		mov	r0, r1
 149 008a FFF7FEFF 		bl	drive_forward
 150              	.LVL21:
 151              	.L6:
  87:tactic7.c     **** 			timout_time = millis();
 152              		.loc 1 87 0
 153 008e FFF7FEFF 		bl	millis
 154              	.LVL22:
 155 0092 40F6C413 		movw	r3, #2500
 156 0096 001B     		subs	r0, r0, r4
 157 0098 9842     		cmp	r0, r3
 158 009a BCD9     		bls	.L7
  88:tactic7.c     **** 			DoSomething();
ARM GAS  C:\Users\aupen\AppData\Local\Temp\ccmHCvVm.s 			page 7


 159              		.loc 1 88 0
 160 009c FFF7FEFF 		bl	millis
 161              	.LVL23:
 162              	.LBB10:
 163              	.LBB11:
 178:tactic7.c     **** }
 179:tactic7.c     **** 
 180:tactic7.c     **** //! \brief	Do something when opponent is not visible
 181:tactic7.c     **** void DoSomething(void){
 182:tactic7.c     **** 
 183:tactic7.c     ****     drive_backward(SEARCH_PWM_L * 2,SEARCH_PWM_L * 2);
 164              		.loc 1 183 0
 165 00a0 4621     		movs	r1, #70
 166              	.LBE11:
 167              	.LBE10:
  88:tactic7.c     **** 			DoSomething();
 168              		.loc 1 88 0
 169 00a2 0446     		mov	r4, r0
 170              	.LVL24:
 171              	.LBB13:
 172              	.LBB12:
 173              		.loc 1 183 0
 174 00a4 0846     		mov	r0, r1
 175              	.LVL25:
 176 00a6 FFF7FEFF 		bl	drive_backward
 177              	.LVL26:
 184:tactic7.c     ****     CyDelay(40);
 178              		.loc 1 184 0
 179 00aa 2820     		movs	r0, #40
 180 00ac FFF7FEFF 		bl	CyDelay
 181              	.LVL27:
 185:tactic7.c     **** 
 186:tactic7.c     ****     drive_forward( 0, 0 ); // BREAK A BIT FOR FUN
 182              		.loc 1 186 0
 183 00b0 0021     		movs	r1, #0
 184 00b2 0846     		mov	r0, r1
 185 00b4 FFF7FEFF 		bl	drive_forward
 186              	.LVL28:
 187              	.LBE12:
 188              	.LBE13:
  90:tactic7.c     **** 		}
 189              		.loc 1 90 0
 190 00b8 0020     		movs	r0, #0
 191 00ba FFF7FEFF 		bl	Servo_enable_Write
 192              	.LVL29:
 193 00be AAE7     		b	.L7
 194              	.L17:
 195              		.align	2
 196              	.L16:
 197 00c0 00000000 		.word	gLine
 198              		.cfi_endproc
 199              	.LFE63:
 200              		.size	RunTactic7, .-RunTactic7
 201              		.comm	gMotor,16,4
 202              		.comm	gLine,96,4
 203              		.text
 204              	.Letext0:
ARM GAS  C:\Users\aupen\AppData\Local\Temp\ccmHCvVm.s 			page 8


 205              		.file 2 "c:\\program files (x86)\\cypress\\psoc creator\\4.1\\psoc creator\\import\\gnu\\arm\\5.4.
 206              		.file 3 "c:\\program files (x86)\\cypress\\psoc creator\\4.1\\psoc creator\\import\\gnu\\arm\\5.4.
 207              		.file 4 "sensors.h"
 208              		.file 5 "drive.h"
 209              		.file 6 "Generated_Source\\PSoC5/core_cm3.h"
 210              		.file 7 "Generated_Source\\PSoC5/CyLib.h"
 211              		.file 8 "first_move.h"
 212              		.file 9 "timer_time.h"
 213              		.file 10 "Generated_Source\\PSoC5/Servo_enable.h"
 214              		.section	.debug_info,"",%progbits
 215              	.Ldebug_info0:
 216 0000 69040000 		.4byte	0x469
 217 0004 0400     		.2byte	0x4
 218 0006 00000000 		.4byte	.Ldebug_abbrev0
 219 000a 04       		.byte	0x4
 220 000b 01       		.uleb128 0x1
 221 000c DD000000 		.4byte	.LASF54
 222 0010 0C       		.byte	0xc
 223 0011 90010000 		.4byte	.LASF55
 224 0015 A1010000 		.4byte	.LASF56
 225 0019 30000000 		.4byte	.Ldebug_ranges0+0x30
 226 001d 00000000 		.4byte	0
 227 0021 00000000 		.4byte	.Ldebug_line0
 228 0025 02       		.uleb128 0x2
 229 0026 01       		.byte	0x1
 230 0027 06       		.byte	0x6
 231 0028 08030000 		.4byte	.LASF0
 232 002c 03       		.uleb128 0x3
 233 002d 20000000 		.4byte	.LASF4
 234 0031 02       		.byte	0x2
 235 0032 1D       		.byte	0x1d
 236 0033 37000000 		.4byte	0x37
 237 0037 02       		.uleb128 0x2
 238 0038 01       		.byte	0x1
 239 0039 08       		.byte	0x8
 240 003a 9F000000 		.4byte	.LASF1
 241 003e 02       		.uleb128 0x2
 242 003f 02       		.byte	0x2
 243 0040 05       		.byte	0x5
 244 0041 B4020000 		.4byte	.LASF2
 245 0045 02       		.uleb128 0x2
 246 0046 02       		.byte	0x2
 247 0047 07       		.byte	0x7
 248 0048 60000000 		.4byte	.LASF3
 249 004c 03       		.uleb128 0x3
 250 004d 56000000 		.4byte	.LASF5
 251 0051 02       		.byte	0x2
 252 0052 3F       		.byte	0x3f
 253 0053 57000000 		.4byte	0x57
 254 0057 02       		.uleb128 0x2
 255 0058 04       		.byte	0x4
 256 0059 05       		.byte	0x5
 257 005a DD020000 		.4byte	.LASF6
 258 005e 03       		.uleb128 0x3
 259 005f CA010000 		.4byte	.LASF7
 260 0063 02       		.byte	0x2
 261 0064 41       		.byte	0x41
ARM GAS  C:\Users\aupen\AppData\Local\Temp\ccmHCvVm.s 			page 9


 262 0065 69000000 		.4byte	0x69
 263 0069 02       		.uleb128 0x2
 264 006a 04       		.byte	0x4
 265 006b 07       		.byte	0x7
 266 006c C0000000 		.4byte	.LASF8
 267 0070 02       		.uleb128 0x2
 268 0071 08       		.byte	0x8
 269 0072 05       		.byte	0x5
 270 0073 00000000 		.4byte	.LASF9
 271 0077 02       		.uleb128 0x2
 272 0078 08       		.byte	0x8
 273 0079 07       		.byte	0x7
 274 007a 2A020000 		.4byte	.LASF10
 275 007e 04       		.uleb128 0x4
 276 007f 04       		.byte	0x4
 277 0080 05       		.byte	0x5
 278 0081 696E7400 		.ascii	"int\000"
 279 0085 02       		.uleb128 0x2
 280 0086 04       		.byte	0x4
 281 0087 07       		.byte	0x7
 282 0088 03020000 		.4byte	.LASF11
 283 008c 03       		.uleb128 0x3
 284 008d 41020000 		.4byte	.LASF12
 285 0091 03       		.byte	0x3
 286 0092 18       		.byte	0x18
 287 0093 2C000000 		.4byte	0x2c
 288 0097 03       		.uleb128 0x3
 289 0098 8B000000 		.4byte	.LASF13
 290 009c 03       		.byte	0x3
 291 009d 2C       		.byte	0x2c
 292 009e 4C000000 		.4byte	0x4c
 293 00a2 03       		.uleb128 0x3
 294 00a3 D4020000 		.4byte	.LASF14
 295 00a7 03       		.byte	0x3
 296 00a8 30       		.byte	0x30
 297 00a9 5E000000 		.4byte	0x5e
 298 00ad 02       		.uleb128 0x2
 299 00ae 04       		.byte	0x4
 300 00af 04       		.byte	0x4
 301 00b0 50000000 		.4byte	.LASF15
 302 00b4 02       		.uleb128 0x2
 303 00b5 08       		.byte	0x8
 304 00b6 04       		.byte	0x4
 305 00b7 9A010000 		.4byte	.LASF16
 306 00bb 02       		.uleb128 0x2
 307 00bc 01       		.byte	0x1
 308 00bd 08       		.byte	0x8
 309 00be 91020000 		.4byte	.LASF17
 310 00c2 02       		.uleb128 0x2
 311 00c3 08       		.byte	0x8
 312 00c4 04       		.byte	0x4
 313 00c5 FC020000 		.4byte	.LASF18
 314 00c9 02       		.uleb128 0x2
 315 00ca 04       		.byte	0x4
 316 00cb 07       		.byte	0x7
 317 00cc 71020000 		.4byte	.LASF19
 318 00d0 05       		.uleb128 0x5
ARM GAS  C:\Users\aupen\AppData\Local\Temp\ccmHCvVm.s 			page 10


 319 00d1 49020000 		.4byte	.LASF30
 320 00d5 60       		.byte	0x60
 321 00d6 04       		.byte	0x4
 322 00d7 2C       		.byte	0x2c
 323 00d8 55010000 		.4byte	0x155
 324 00dc 06       		.uleb128 0x6
 325 00dd DE010000 		.4byte	.LASF20
 326 00e1 04       		.byte	0x4
 327 00e2 2D       		.byte	0x2d
 328 00e3 7E000000 		.4byte	0x7e
 329 00e7 00       		.byte	0
 330 00e8 06       		.uleb128 0x6
 331 00e9 96020000 		.4byte	.LASF21
 332 00ed 04       		.byte	0x4
 333 00ee 2E       		.byte	0x2e
 334 00ef 7E000000 		.4byte	0x7e
 335 00f3 04       		.byte	0x4
 336 00f4 06       		.uleb128 0x6
 337 00f5 6B010000 		.4byte	.LASF22
 338 00f9 04       		.byte	0x4
 339 00fa 2F       		.byte	0x2f
 340 00fb 7E000000 		.4byte	0x7e
 341 00ff 08       		.byte	0x8
 342 0100 06       		.uleb128 0x6
 343 0101 53020000 		.4byte	.LASF23
 344 0105 04       		.byte	0x4
 345 0106 30       		.byte	0x30
 346 0107 7E000000 		.4byte	0x7e
 347 010b 0C       		.byte	0xc
 348 010c 06       		.uleb128 0x6
 349 010d 4A000000 		.4byte	.LASF24
 350 0111 04       		.byte	0x4
 351 0112 32       		.byte	0x32
 352 0113 7E000000 		.4byte	0x7e
 353 0117 10       		.byte	0x10
 354 0118 06       		.uleb128 0x6
 355 0119 22020000 		.4byte	.LASF25
 356 011d 04       		.byte	0x4
 357 011e 33       		.byte	0x33
 358 011f 7E000000 		.4byte	0x7e
 359 0123 14       		.byte	0x14
 360 0124 06       		.uleb128 0x6
 361 0125 89010000 		.4byte	.LASF26
 362 0129 04       		.byte	0x4
 363 012a 35       		.byte	0x35
 364 012b 7E000000 		.4byte	0x7e
 365 012f 18       		.byte	0x18
 366 0130 06       		.uleb128 0x6
 367 0131 79000000 		.4byte	.LASF27
 368 0135 04       		.byte	0x4
 369 0136 36       		.byte	0x36
 370 0137 7E000000 		.4byte	0x7e
 371 013b 1C       		.byte	0x1c
 372 013c 06       		.uleb128 0x6
 373 013d 8C020000 		.4byte	.LASF28
 374 0141 04       		.byte	0x4
 375 0142 37       		.byte	0x37
ARM GAS  C:\Users\aupen\AppData\Local\Temp\ccmHCvVm.s 			page 11


 376 0143 7E000000 		.4byte	0x7e
 377 0147 20       		.byte	0x20
 378 0148 06       		.uleb128 0x6
 379 0149 D5010000 		.4byte	.LASF29
 380 014d 04       		.byte	0x4
 381 014e 39       		.byte	0x39
 382 014f 55010000 		.4byte	0x155
 383 0153 24       		.byte	0x24
 384 0154 00       		.byte	0
 385 0155 07       		.uleb128 0x7
 386 0156 7E000000 		.4byte	0x7e
 387 015a 65010000 		.4byte	0x165
 388 015e 08       		.uleb128 0x8
 389 015f C9000000 		.4byte	0xc9
 390 0163 0E       		.byte	0xe
 391 0164 00       		.byte	0
 392 0165 05       		.uleb128 0x5
 393 0166 C9020000 		.4byte	.LASF31
 394 016a 10       		.byte	0x10
 395 016b 05       		.byte	0x5
 396 016c 11       		.byte	0x11
 397 016d A2010000 		.4byte	0x1a2
 398 0171 06       		.uleb128 0x6
 399 0172 14030000 		.4byte	.LASF32
 400 0176 05       		.byte	0x5
 401 0177 12       		.byte	0x12
 402 0178 7E000000 		.4byte	0x7e
 403 017c 00       		.byte	0
 404 017d 06       		.uleb128 0x6
 405 017e BE020000 		.4byte	.LASF33
 406 0182 05       		.byte	0x5
 407 0183 13       		.byte	0x13
 408 0184 7E000000 		.4byte	0x7e
 409 0188 04       		.byte	0x4
 410 0189 06       		.uleb128 0x6
 411 018a 0E000000 		.4byte	.LASF34
 412 018e 05       		.byte	0x5
 413 018f 14       		.byte	0x14
 414 0190 7E000000 		.4byte	0x7e
 415 0194 08       		.byte	0x8
 416 0195 06       		.uleb128 0x6
 417 0196 38000000 		.4byte	.LASF35
 418 019a 05       		.byte	0x5
 419 019b 15       		.byte	0x15
 420 019c 7E000000 		.4byte	0x7e
 421 01a0 0C       		.byte	0xc
 422 01a1 00       		.byte	0
 423 01a2 09       		.uleb128 0x9
 424 01a3 10020000 		.4byte	.LASF36
 425 01a7 01       		.byte	0x1
 426 01a8 98       		.byte	0x98
 427 01a9 01       		.byte	0x1
 428 01aa 09       		.uleb128 0x9
 429 01ab 93000000 		.4byte	.LASF37
 430 01af 01       		.byte	0x1
 431 01b0 B5       		.byte	0xb5
 432 01b1 01       		.byte	0x1
ARM GAS  C:\Users\aupen\AppData\Local\Temp\ccmHCvVm.s 			page 12


 433 01b2 0A       		.uleb128 0xa
 434 01b3 E6010000 		.4byte	.LASF57
 435 01b7 01       		.byte	0x1
 436 01b8 33       		.byte	0x33
 437 01b9 00000000 		.4byte	.LFB63
 438 01bd C4000000 		.4byte	.LFE63-.LFB63
 439 01c1 01       		.uleb128 0x1
 440 01c2 9C       		.byte	0x9c
 441 01c3 A8030000 		.4byte	0x3a8
 442 01c7 0B       		.uleb128 0xb
 443 01c8 67020000 		.4byte	.LASF58
 444 01cc 01       		.byte	0x1
 445 01cd 33       		.byte	0x33
 446 01ce 7E000000 		.4byte	0x7e
 447 01d2 00000000 		.4byte	.LLST0
 448 01d6 0C       		.uleb128 0xc
 449 01d7 5B020000 		.4byte	.LASF38
 450 01db 01       		.byte	0x1
 451 01dc 3F       		.byte	0x3f
 452 01dd A2000000 		.4byte	0xa2
 453 01e1 2C000000 		.4byte	.LLST1
 454 01e5 0D       		.uleb128 0xd
 455 01e6 A2010000 		.4byte	0x1a2
 456 01ea 14000000 		.4byte	.LBB6
 457 01ee 00000000 		.4byte	.Ldebug_ranges0+0
 458 01f2 01       		.byte	0x1
 459 01f3 4A       		.byte	0x4a
 460 01f4 DE020000 		.4byte	0x2de
 461 01f8 0E       		.uleb128 0xe
 462 01f9 2C000000 		.4byte	.LVL7
 463 01fd FE030000 		.4byte	0x3fe
 464 0201 12020000 		.4byte	0x212
 465 0205 0F       		.uleb128 0xf
 466 0206 01       		.uleb128 0x1
 467 0207 50       		.byte	0x50
 468 0208 02       		.uleb128 0x2
 469 0209 08       		.byte	0x8
 470 020a 28       		.byte	0x28
 471 020b 0F       		.uleb128 0xf
 472 020c 01       		.uleb128 0x1
 473 020d 51       		.byte	0x51
 474 020e 02       		.uleb128 0x2
 475 020f 08       		.byte	0x8
 476 0210 28       		.byte	0x28
 477 0211 00       		.byte	0
 478 0212 0E       		.uleb128 0xe
 479 0213 34000000 		.4byte	.LVL8
 480 0217 09040000 		.4byte	0x409
 481 021b 27020000 		.4byte	0x227
 482 021f 0F       		.uleb128 0xf
 483 0220 01       		.uleb128 0x1
 484 0221 50       		.byte	0x50
 485 0222 03       		.uleb128 0x3
 486 0223 0A       		.byte	0xa
 487 0224 9001     		.2byte	0x190
 488 0226 00       		.byte	0
 489 0227 0E       		.uleb128 0xe
ARM GAS  C:\Users\aupen\AppData\Local\Temp\ccmHCvVm.s 			page 13


 490 0228 3C000000 		.4byte	.LVL9
 491 022c 14040000 		.4byte	0x414
 492 0230 41020000 		.4byte	0x241
 493 0234 0F       		.uleb128 0xf
 494 0235 01       		.uleb128 0x1
 495 0236 50       		.byte	0x50
 496 0237 02       		.uleb128 0x2
 497 0238 08       		.byte	0x8
 498 0239 28       		.byte	0x28
 499 023a 0F       		.uleb128 0xf
 500 023b 01       		.uleb128 0x1
 501 023c 51       		.byte	0x51
 502 023d 02       		.uleb128 0x2
 503 023e 08       		.byte	0x8
 504 023f 28       		.byte	0x28
 505 0240 00       		.byte	0
 506 0241 10       		.uleb128 0x10
 507 0242 46000000 		.4byte	.LVL10
 508 0246 FE030000 		.4byte	0x3fe
 509 024a 0E       		.uleb128 0xe
 510 024b 4C000000 		.4byte	.LVL11
 511 024f 09040000 		.4byte	0x409
 512 0253 5E020000 		.4byte	0x25e
 513 0257 0F       		.uleb128 0xf
 514 0258 01       		.uleb128 0x1
 515 0259 50       		.byte	0x50
 516 025a 02       		.uleb128 0x2
 517 025b 08       		.byte	0x8
 518 025c 96       		.byte	0x96
 519 025d 00       		.byte	0
 520 025e 0E       		.uleb128 0xe
 521 025f 54000000 		.4byte	.LVL12
 522 0263 1F040000 		.4byte	0x41f
 523 0267 78020000 		.4byte	0x278
 524 026b 0F       		.uleb128 0xf
 525 026c 01       		.uleb128 0x1
 526 026d 50       		.byte	0x50
 527 026e 02       		.uleb128 0x2
 528 026f 08       		.byte	0x8
 529 0270 28       		.byte	0x28
 530 0271 0F       		.uleb128 0xf
 531 0272 01       		.uleb128 0x1
 532 0273 51       		.byte	0x51
 533 0274 02       		.uleb128 0x2
 534 0275 08       		.byte	0x8
 535 0276 28       		.byte	0x28
 536 0277 00       		.byte	0
 537 0278 0E       		.uleb128 0xe
 538 0279 62000000 		.4byte	.LVL13
 539 027d FE030000 		.4byte	0x3fe
 540 0281 92020000 		.4byte	0x292
 541 0285 0F       		.uleb128 0xf
 542 0286 01       		.uleb128 0x1
 543 0287 50       		.byte	0x50
 544 0288 02       		.uleb128 0x2
 545 0289 08       		.byte	0x8
 546 028a 28       		.byte	0x28
ARM GAS  C:\Users\aupen\AppData\Local\Temp\ccmHCvVm.s 			page 14


 547 028b 0F       		.uleb128 0xf
 548 028c 01       		.uleb128 0x1
 549 028d 51       		.byte	0x51
 550 028e 02       		.uleb128 0x2
 551 028f 08       		.byte	0x8
 552 0290 28       		.byte	0x28
 553 0291 00       		.byte	0
 554 0292 0E       		.uleb128 0xe
 555 0293 68000000 		.4byte	.LVL14
 556 0297 09040000 		.4byte	0x409
 557 029b A6020000 		.4byte	0x2a6
 558 029f 0F       		.uleb128 0xf
 559 02a0 01       		.uleb128 0x1
 560 02a1 50       		.byte	0x50
 561 02a2 02       		.uleb128 0x2
 562 02a3 08       		.byte	0x8
 563 02a4 96       		.byte	0x96
 564 02a5 00       		.byte	0
 565 02a6 0E       		.uleb128 0xe
 566 02a7 70000000 		.4byte	.LVL15
 567 02ab 14040000 		.4byte	0x414
 568 02af C0020000 		.4byte	0x2c0
 569 02b3 0F       		.uleb128 0xf
 570 02b4 01       		.uleb128 0x1
 571 02b5 50       		.byte	0x50
 572 02b6 02       		.uleb128 0x2
 573 02b7 08       		.byte	0x8
 574 02b8 28       		.byte	0x28
 575 02b9 0F       		.uleb128 0xf
 576 02ba 01       		.uleb128 0x1
 577 02bb 51       		.byte	0x51
 578 02bc 02       		.uleb128 0x2
 579 02bd 08       		.byte	0x8
 580 02be 28       		.byte	0x28
 581 02bf 00       		.byte	0
 582 02c0 10       		.uleb128 0x10
 583 02c1 76000000 		.4byte	.LVL16
 584 02c5 09040000 		.4byte	0x409
 585 02c9 11       		.uleb128 0x11
 586 02ca 7E000000 		.4byte	.LVL17
 587 02ce 2A040000 		.4byte	0x42a
 588 02d2 0F       		.uleb128 0xf
 589 02d3 01       		.uleb128 0x1
 590 02d4 50       		.byte	0x50
 591 02d5 01       		.uleb128 0x1
 592 02d6 30       		.byte	0x30
 593 02d7 0F       		.uleb128 0xf
 594 02d8 01       		.uleb128 0x1
 595 02d9 51       		.byte	0x51
 596 02da 01       		.uleb128 0x1
 597 02db 30       		.byte	0x30
 598 02dc 00       		.byte	0
 599 02dd 00       		.byte	0
 600 02de 0D       		.uleb128 0xd
 601 02df AA010000 		.4byte	0x1aa
 602 02e3 A0000000 		.4byte	.LBB10
 603 02e7 18000000 		.4byte	.Ldebug_ranges0+0x18
ARM GAS  C:\Users\aupen\AppData\Local\Temp\ccmHCvVm.s 			page 15


 604 02eb 01       		.byte	0x1
 605 02ec 59       		.byte	0x59
 606 02ed 34030000 		.4byte	0x334
 607 02f1 0E       		.uleb128 0xe
 608 02f2 AA000000 		.4byte	.LVL26
 609 02f6 FE030000 		.4byte	0x3fe
 610 02fa 0B030000 		.4byte	0x30b
 611 02fe 0F       		.uleb128 0xf
 612 02ff 01       		.uleb128 0x1
 613 0300 50       		.byte	0x50
 614 0301 02       		.uleb128 0x2
 615 0302 08       		.byte	0x8
 616 0303 46       		.byte	0x46
 617 0304 0F       		.uleb128 0xf
 618 0305 01       		.uleb128 0x1
 619 0306 51       		.byte	0x51
 620 0307 02       		.uleb128 0x2
 621 0308 08       		.byte	0x8
 622 0309 46       		.byte	0x46
 623 030a 00       		.byte	0
 624 030b 0E       		.uleb128 0xe
 625 030c B0000000 		.4byte	.LVL27
 626 0310 09040000 		.4byte	0x409
 627 0314 1F030000 		.4byte	0x31f
 628 0318 0F       		.uleb128 0xf
 629 0319 01       		.uleb128 0x1
 630 031a 50       		.byte	0x50
 631 031b 02       		.uleb128 0x2
 632 031c 08       		.byte	0x8
 633 031d 28       		.byte	0x28
 634 031e 00       		.byte	0
 635 031f 11       		.uleb128 0x11
 636 0320 B8000000 		.4byte	.LVL28
 637 0324 2A040000 		.4byte	0x42a
 638 0328 0F       		.uleb128 0xf
 639 0329 01       		.uleb128 0x1
 640 032a 50       		.byte	0x50
 641 032b 01       		.uleb128 0x1
 642 032c 30       		.byte	0x30
 643 032d 0F       		.uleb128 0xf
 644 032e 01       		.uleb128 0x1
 645 032f 51       		.byte	0x51
 646 0330 01       		.uleb128 0x1
 647 0331 30       		.byte	0x30
 648 0332 00       		.byte	0
 649 0333 00       		.byte	0
 650 0334 10       		.uleb128 0x10
 651 0335 08000000 		.4byte	.LVL1
 652 0339 35040000 		.4byte	0x435
 653 033d 0E       		.uleb128 0xe
 654 033e 0E000000 		.4byte	.LVL2
 655 0342 40040000 		.4byte	0x440
 656 0346 51030000 		.4byte	0x351
 657 034a 0F       		.uleb128 0xf
 658 034b 01       		.uleb128 0x1
 659 034c 50       		.byte	0x50
 660 034d 02       		.uleb128 0x2
ARM GAS  C:\Users\aupen\AppData\Local\Temp\ccmHCvVm.s 			page 16


 661 034e 74       		.byte	0x74
 662 034f 00       		.sleb128 0
 663 0350 00       		.byte	0
 664 0351 10       		.uleb128 0x10
 665 0352 12000000 		.4byte	.LVL3
 666 0356 4B040000 		.4byte	0x44b
 667 035a 10       		.uleb128 0x10
 668 035b 1A000000 		.4byte	.LVL6
 669 035f 56040000 		.4byte	0x456
 670 0363 10       		.uleb128 0x10
 671 0364 82000000 		.4byte	.LVL18
 672 0368 4B040000 		.4byte	0x44b
 673 036c 0E       		.uleb128 0xe
 674 036d 8E000000 		.4byte	.LVL21
 675 0371 2A040000 		.4byte	0x42a
 676 0375 86030000 		.4byte	0x386
 677 0379 0F       		.uleb128 0xf
 678 037a 01       		.uleb128 0x1
 679 037b 50       		.byte	0x50
 680 037c 02       		.uleb128 0x2
 681 037d 08       		.byte	0x8
 682 037e 23       		.byte	0x23
 683 037f 0F       		.uleb128 0xf
 684 0380 01       		.uleb128 0x1
 685 0381 51       		.byte	0x51
 686 0382 02       		.uleb128 0x2
 687 0383 08       		.byte	0x8
 688 0384 23       		.byte	0x23
 689 0385 00       		.byte	0
 690 0386 10       		.uleb128 0x10
 691 0387 92000000 		.4byte	.LVL22
 692 038b 4B040000 		.4byte	0x44b
 693 038f 10       		.uleb128 0x10
 694 0390 A0000000 		.4byte	.LVL23
 695 0394 4B040000 		.4byte	0x44b
 696 0398 11       		.uleb128 0x11
 697 0399 BE000000 		.4byte	.LVL29
 698 039d 61040000 		.4byte	0x461
 699 03a1 0F       		.uleb128 0xf
 700 03a2 01       		.uleb128 0x1
 701 03a3 50       		.byte	0x50
 702 03a4 01       		.uleb128 0x1
 703 03a5 30       		.byte	0x30
 704 03a6 00       		.byte	0
 705 03a7 00       		.byte	0
 706 03a8 12       		.uleb128 0x12
 707 03a9 28030000 		.4byte	.LASF59
 708 03ad 01       		.byte	0x1
 709 03ae 27       		.byte	0x27
 710 03af 8C000000 		.4byte	0x8c
 711 03b3 13       		.uleb128 0x13
 712 03b4 80010000 		.4byte	.LASF39
 713 03b8 01       		.byte	0x1
 714 03b9 28       		.byte	0x28
 715 03ba 8C000000 		.4byte	0x8c
 716 03be 00       		.byte	0
 717 03bf 13       		.uleb128 0x13
ARM GAS  C:\Users\aupen\AppData\Local\Temp\ccmHCvVm.s 			page 17


 718 03c0 7A020000 		.4byte	.LASF40
 719 03c4 01       		.byte	0x1
 720 03c5 29       		.byte	0x29
 721 03c6 8C000000 		.4byte	0x8c
 722 03ca 00       		.byte	0
 723 03cb 14       		.uleb128 0x14
 724 03cc 73010000 		.4byte	.LASF41
 725 03d0 06       		.byte	0x6
 726 03d1 1207     		.2byte	0x712
 727 03d3 D7030000 		.4byte	0x3d7
 728 03d7 15       		.uleb128 0x15
 729 03d8 97000000 		.4byte	0x97
 730 03dc 16       		.uleb128 0x16
 731 03dd 73000000 		.4byte	.LASF42
 732 03e1 04       		.byte	0x4
 733 03e2 3B       		.byte	0x3b
 734 03e3 D0000000 		.4byte	0xd0
 735 03e7 05       		.uleb128 0x5
 736 03e8 03       		.byte	0x3
 737 03e9 00000000 		.4byte	gLine
 738 03ed 16       		.uleb128 0x16
 739 03ee AD020000 		.4byte	.LASF43
 740 03f2 05       		.byte	0x5
 741 03f3 17       		.byte	0x17
 742 03f4 65010000 		.4byte	0x165
 743 03f8 05       		.uleb128 0x5
 744 03f9 03       		.byte	0x3
 745 03fa 00000000 		.4byte	gMotor
 746 03fe 17       		.uleb128 0x17
 747 03ff 9E020000 		.4byte	.LASF44
 748 0403 9E020000 		.4byte	.LASF44
 749 0407 05       		.byte	0x5
 750 0408 1B       		.byte	0x1b
 751 0409 17       		.uleb128 0x17
 752 040a 20030000 		.4byte	.LASF45
 753 040e 20030000 		.4byte	.LASF45
 754 0412 07       		.byte	0x7
 755 0413 76       		.byte	0x76
 756 0414 17       		.uleb128 0x17
 757 0415 81000000 		.4byte	.LASF46
 758 0419 81000000 		.4byte	.LASF46
 759 041d 05       		.byte	0x5
 760 041e 1D       		.byte	0x1d
 761 041f 17       		.uleb128 0x17
 762 0420 D2000000 		.4byte	.LASF47
 763 0424 D2000000 		.4byte	.LASF47
 764 0428 05       		.byte	0x5
 765 0429 1C       		.byte	0x1c
 766 042a 17       		.uleb128 0x17
 767 042b 2A000000 		.4byte	.LASF48
 768 042f 2A000000 		.4byte	.LASF48
 769 0433 05       		.byte	0x5
 770 0434 1A       		.byte	0x1a
 771 0435 17       		.uleb128 0x17
 772 0436 ED020000 		.4byte	.LASF49
 773 043a ED020000 		.4byte	.LASF49
 774 043e 04       		.byte	0x4
ARM GAS  C:\Users\aupen\AppData\Local\Temp\ccmHCvVm.s 			page 18


 775 043f 40       		.byte	0x40
 776 0440 17       		.uleb128 0x17
 777 0441 F1010000 		.4byte	.LASF50
 778 0445 F1010000 		.4byte	.LASF50
 779 0449 08       		.byte	0x8
 780 044a 22       		.byte	0x22
 781 044b 17       		.uleb128 0x17
 782 044c E6020000 		.4byte	.LASF51
 783 0450 E6020000 		.4byte	.LASF51
 784 0454 09       		.byte	0x9
 785 0455 15       		.byte	0x15
 786 0456 17       		.uleb128 0x17
 787 0457 7F020000 		.4byte	.LASF52
 788 045b 7F020000 		.4byte	.LASF52
 789 045f 04       		.byte	0x4
 790 0460 41       		.byte	0x41
 791 0461 17       		.uleb128 0x17
 792 0462 AD000000 		.4byte	.LASF53
 793 0466 AD000000 		.4byte	.LASF53
 794 046a 0A       		.byte	0xa
 795 046b 2F       		.byte	0x2f
 796 046c 00       		.byte	0
 797              		.section	.debug_abbrev,"",%progbits
 798              	.Ldebug_abbrev0:
 799 0000 01       		.uleb128 0x1
 800 0001 11       		.uleb128 0x11
 801 0002 01       		.byte	0x1
 802 0003 25       		.uleb128 0x25
 803 0004 0E       		.uleb128 0xe
 804 0005 13       		.uleb128 0x13
 805 0006 0B       		.uleb128 0xb
 806 0007 03       		.uleb128 0x3
 807 0008 0E       		.uleb128 0xe
 808 0009 1B       		.uleb128 0x1b
 809 000a 0E       		.uleb128 0xe
 810 000b 55       		.uleb128 0x55
 811 000c 17       		.uleb128 0x17
 812 000d 11       		.uleb128 0x11
 813 000e 01       		.uleb128 0x1
 814 000f 10       		.uleb128 0x10
 815 0010 17       		.uleb128 0x17
 816 0011 00       		.byte	0
 817 0012 00       		.byte	0
 818 0013 02       		.uleb128 0x2
 819 0014 24       		.uleb128 0x24
 820 0015 00       		.byte	0
 821 0016 0B       		.uleb128 0xb
 822 0017 0B       		.uleb128 0xb
 823 0018 3E       		.uleb128 0x3e
 824 0019 0B       		.uleb128 0xb
 825 001a 03       		.uleb128 0x3
 826 001b 0E       		.uleb128 0xe
 827 001c 00       		.byte	0
 828 001d 00       		.byte	0
 829 001e 03       		.uleb128 0x3
 830 001f 16       		.uleb128 0x16
 831 0020 00       		.byte	0
ARM GAS  C:\Users\aupen\AppData\Local\Temp\ccmHCvVm.s 			page 19


 832 0021 03       		.uleb128 0x3
 833 0022 0E       		.uleb128 0xe
 834 0023 3A       		.uleb128 0x3a
 835 0024 0B       		.uleb128 0xb
 836 0025 3B       		.uleb128 0x3b
 837 0026 0B       		.uleb128 0xb
 838 0027 49       		.uleb128 0x49
 839 0028 13       		.uleb128 0x13
 840 0029 00       		.byte	0
 841 002a 00       		.byte	0
 842 002b 04       		.uleb128 0x4
 843 002c 24       		.uleb128 0x24
 844 002d 00       		.byte	0
 845 002e 0B       		.uleb128 0xb
 846 002f 0B       		.uleb128 0xb
 847 0030 3E       		.uleb128 0x3e
 848 0031 0B       		.uleb128 0xb
 849 0032 03       		.uleb128 0x3
 850 0033 08       		.uleb128 0x8
 851 0034 00       		.byte	0
 852 0035 00       		.byte	0
 853 0036 05       		.uleb128 0x5
 854 0037 13       		.uleb128 0x13
 855 0038 01       		.byte	0x1
 856 0039 03       		.uleb128 0x3
 857 003a 0E       		.uleb128 0xe
 858 003b 0B       		.uleb128 0xb
 859 003c 0B       		.uleb128 0xb
 860 003d 3A       		.uleb128 0x3a
 861 003e 0B       		.uleb128 0xb
 862 003f 3B       		.uleb128 0x3b
 863 0040 0B       		.uleb128 0xb
 864 0041 01       		.uleb128 0x1
 865 0042 13       		.uleb128 0x13
 866 0043 00       		.byte	0
 867 0044 00       		.byte	0
 868 0045 06       		.uleb128 0x6
 869 0046 0D       		.uleb128 0xd
 870 0047 00       		.byte	0
 871 0048 03       		.uleb128 0x3
 872 0049 0E       		.uleb128 0xe
 873 004a 3A       		.uleb128 0x3a
 874 004b 0B       		.uleb128 0xb
 875 004c 3B       		.uleb128 0x3b
 876 004d 0B       		.uleb128 0xb
 877 004e 49       		.uleb128 0x49
 878 004f 13       		.uleb128 0x13
 879 0050 38       		.uleb128 0x38
 880 0051 0B       		.uleb128 0xb
 881 0052 00       		.byte	0
 882 0053 00       		.byte	0
 883 0054 07       		.uleb128 0x7
 884 0055 01       		.uleb128 0x1
 885 0056 01       		.byte	0x1
 886 0057 49       		.uleb128 0x49
 887 0058 13       		.uleb128 0x13
 888 0059 01       		.uleb128 0x1
ARM GAS  C:\Users\aupen\AppData\Local\Temp\ccmHCvVm.s 			page 20


 889 005a 13       		.uleb128 0x13
 890 005b 00       		.byte	0
 891 005c 00       		.byte	0
 892 005d 08       		.uleb128 0x8
 893 005e 21       		.uleb128 0x21
 894 005f 00       		.byte	0
 895 0060 49       		.uleb128 0x49
 896 0061 13       		.uleb128 0x13
 897 0062 2F       		.uleb128 0x2f
 898 0063 0B       		.uleb128 0xb
 899 0064 00       		.byte	0
 900 0065 00       		.byte	0
 901 0066 09       		.uleb128 0x9
 902 0067 2E       		.uleb128 0x2e
 903 0068 00       		.byte	0
 904 0069 03       		.uleb128 0x3
 905 006a 0E       		.uleb128 0xe
 906 006b 3A       		.uleb128 0x3a
 907 006c 0B       		.uleb128 0xb
 908 006d 3B       		.uleb128 0x3b
 909 006e 0B       		.uleb128 0xb
 910 006f 27       		.uleb128 0x27
 911 0070 19       		.uleb128 0x19
 912 0071 20       		.uleb128 0x20
 913 0072 0B       		.uleb128 0xb
 914 0073 00       		.byte	0
 915 0074 00       		.byte	0
 916 0075 0A       		.uleb128 0xa
 917 0076 2E       		.uleb128 0x2e
 918 0077 01       		.byte	0x1
 919 0078 3F       		.uleb128 0x3f
 920 0079 19       		.uleb128 0x19
 921 007a 03       		.uleb128 0x3
 922 007b 0E       		.uleb128 0xe
 923 007c 3A       		.uleb128 0x3a
 924 007d 0B       		.uleb128 0xb
 925 007e 3B       		.uleb128 0x3b
 926 007f 0B       		.uleb128 0xb
 927 0080 27       		.uleb128 0x27
 928 0081 19       		.uleb128 0x19
 929 0082 8701     		.uleb128 0x87
 930 0084 19       		.uleb128 0x19
 931 0085 11       		.uleb128 0x11
 932 0086 01       		.uleb128 0x1
 933 0087 12       		.uleb128 0x12
 934 0088 06       		.uleb128 0x6
 935 0089 40       		.uleb128 0x40
 936 008a 18       		.uleb128 0x18
 937 008b 9742     		.uleb128 0x2117
 938 008d 19       		.uleb128 0x19
 939 008e 01       		.uleb128 0x1
 940 008f 13       		.uleb128 0x13
 941 0090 00       		.byte	0
 942 0091 00       		.byte	0
 943 0092 0B       		.uleb128 0xb
 944 0093 05       		.uleb128 0x5
 945 0094 00       		.byte	0
ARM GAS  C:\Users\aupen\AppData\Local\Temp\ccmHCvVm.s 			page 21


 946 0095 03       		.uleb128 0x3
 947 0096 0E       		.uleb128 0xe
 948 0097 3A       		.uleb128 0x3a
 949 0098 0B       		.uleb128 0xb
 950 0099 3B       		.uleb128 0x3b
 951 009a 0B       		.uleb128 0xb
 952 009b 49       		.uleb128 0x49
 953 009c 13       		.uleb128 0x13
 954 009d 02       		.uleb128 0x2
 955 009e 17       		.uleb128 0x17
 956 009f 00       		.byte	0
 957 00a0 00       		.byte	0
 958 00a1 0C       		.uleb128 0xc
 959 00a2 34       		.uleb128 0x34
 960 00a3 00       		.byte	0
 961 00a4 03       		.uleb128 0x3
 962 00a5 0E       		.uleb128 0xe
 963 00a6 3A       		.uleb128 0x3a
 964 00a7 0B       		.uleb128 0xb
 965 00a8 3B       		.uleb128 0x3b
 966 00a9 0B       		.uleb128 0xb
 967 00aa 49       		.uleb128 0x49
 968 00ab 13       		.uleb128 0x13
 969 00ac 02       		.uleb128 0x2
 970 00ad 17       		.uleb128 0x17
 971 00ae 00       		.byte	0
 972 00af 00       		.byte	0
 973 00b0 0D       		.uleb128 0xd
 974 00b1 1D       		.uleb128 0x1d
 975 00b2 01       		.byte	0x1
 976 00b3 31       		.uleb128 0x31
 977 00b4 13       		.uleb128 0x13
 978 00b5 52       		.uleb128 0x52
 979 00b6 01       		.uleb128 0x1
 980 00b7 55       		.uleb128 0x55
 981 00b8 17       		.uleb128 0x17
 982 00b9 58       		.uleb128 0x58
 983 00ba 0B       		.uleb128 0xb
 984 00bb 59       		.uleb128 0x59
 985 00bc 0B       		.uleb128 0xb
 986 00bd 01       		.uleb128 0x1
 987 00be 13       		.uleb128 0x13
 988 00bf 00       		.byte	0
 989 00c0 00       		.byte	0
 990 00c1 0E       		.uleb128 0xe
 991 00c2 898201   		.uleb128 0x4109
 992 00c5 01       		.byte	0x1
 993 00c6 11       		.uleb128 0x11
 994 00c7 01       		.uleb128 0x1
 995 00c8 31       		.uleb128 0x31
 996 00c9 13       		.uleb128 0x13
 997 00ca 01       		.uleb128 0x1
 998 00cb 13       		.uleb128 0x13
 999 00cc 00       		.byte	0
 1000 00cd 00       		.byte	0
 1001 00ce 0F       		.uleb128 0xf
 1002 00cf 8A8201   		.uleb128 0x410a
ARM GAS  C:\Users\aupen\AppData\Local\Temp\ccmHCvVm.s 			page 22


 1003 00d2 00       		.byte	0
 1004 00d3 02       		.uleb128 0x2
 1005 00d4 18       		.uleb128 0x18
 1006 00d5 9142     		.uleb128 0x2111
 1007 00d7 18       		.uleb128 0x18
 1008 00d8 00       		.byte	0
 1009 00d9 00       		.byte	0
 1010 00da 10       		.uleb128 0x10
 1011 00db 898201   		.uleb128 0x4109
 1012 00de 00       		.byte	0
 1013 00df 11       		.uleb128 0x11
 1014 00e0 01       		.uleb128 0x1
 1015 00e1 31       		.uleb128 0x31
 1016 00e2 13       		.uleb128 0x13
 1017 00e3 00       		.byte	0
 1018 00e4 00       		.byte	0
 1019 00e5 11       		.uleb128 0x11
 1020 00e6 898201   		.uleb128 0x4109
 1021 00e9 01       		.byte	0x1
 1022 00ea 11       		.uleb128 0x11
 1023 00eb 01       		.uleb128 0x1
 1024 00ec 31       		.uleb128 0x31
 1025 00ed 13       		.uleb128 0x13
 1026 00ee 00       		.byte	0
 1027 00ef 00       		.byte	0
 1028 00f0 12       		.uleb128 0x12
 1029 00f1 34       		.uleb128 0x34
 1030 00f2 00       		.byte	0
 1031 00f3 03       		.uleb128 0x3
 1032 00f4 0E       		.uleb128 0xe
 1033 00f5 3A       		.uleb128 0x3a
 1034 00f6 0B       		.uleb128 0xb
 1035 00f7 3B       		.uleb128 0x3b
 1036 00f8 0B       		.uleb128 0xb
 1037 00f9 49       		.uleb128 0x49
 1038 00fa 13       		.uleb128 0x13
 1039 00fb 00       		.byte	0
 1040 00fc 00       		.byte	0
 1041 00fd 13       		.uleb128 0x13
 1042 00fe 34       		.uleb128 0x34
 1043 00ff 00       		.byte	0
 1044 0100 03       		.uleb128 0x3
 1045 0101 0E       		.uleb128 0xe
 1046 0102 3A       		.uleb128 0x3a
 1047 0103 0B       		.uleb128 0xb
 1048 0104 3B       		.uleb128 0x3b
 1049 0105 0B       		.uleb128 0xb
 1050 0106 49       		.uleb128 0x49
 1051 0107 13       		.uleb128 0x13
 1052 0108 1C       		.uleb128 0x1c
 1053 0109 0B       		.uleb128 0xb
 1054 010a 00       		.byte	0
 1055 010b 00       		.byte	0
 1056 010c 14       		.uleb128 0x14
 1057 010d 34       		.uleb128 0x34
 1058 010e 00       		.byte	0
 1059 010f 03       		.uleb128 0x3
ARM GAS  C:\Users\aupen\AppData\Local\Temp\ccmHCvVm.s 			page 23


 1060 0110 0E       		.uleb128 0xe
 1061 0111 3A       		.uleb128 0x3a
 1062 0112 0B       		.uleb128 0xb
 1063 0113 3B       		.uleb128 0x3b
 1064 0114 05       		.uleb128 0x5
 1065 0115 49       		.uleb128 0x49
 1066 0116 13       		.uleb128 0x13
 1067 0117 3F       		.uleb128 0x3f
 1068 0118 19       		.uleb128 0x19
 1069 0119 3C       		.uleb128 0x3c
 1070 011a 19       		.uleb128 0x19
 1071 011b 00       		.byte	0
 1072 011c 00       		.byte	0
 1073 011d 15       		.uleb128 0x15
 1074 011e 35       		.uleb128 0x35
 1075 011f 00       		.byte	0
 1076 0120 49       		.uleb128 0x49
 1077 0121 13       		.uleb128 0x13
 1078 0122 00       		.byte	0
 1079 0123 00       		.byte	0
 1080 0124 16       		.uleb128 0x16
 1081 0125 34       		.uleb128 0x34
 1082 0126 00       		.byte	0
 1083 0127 03       		.uleb128 0x3
 1084 0128 0E       		.uleb128 0xe
 1085 0129 3A       		.uleb128 0x3a
 1086 012a 0B       		.uleb128 0xb
 1087 012b 3B       		.uleb128 0x3b
 1088 012c 0B       		.uleb128 0xb
 1089 012d 49       		.uleb128 0x49
 1090 012e 13       		.uleb128 0x13
 1091 012f 3F       		.uleb128 0x3f
 1092 0130 19       		.uleb128 0x19
 1093 0131 02       		.uleb128 0x2
 1094 0132 18       		.uleb128 0x18
 1095 0133 00       		.byte	0
 1096 0134 00       		.byte	0
 1097 0135 17       		.uleb128 0x17
 1098 0136 2E       		.uleb128 0x2e
 1099 0137 00       		.byte	0
 1100 0138 3F       		.uleb128 0x3f
 1101 0139 19       		.uleb128 0x19
 1102 013a 3C       		.uleb128 0x3c
 1103 013b 19       		.uleb128 0x19
 1104 013c 6E       		.uleb128 0x6e
 1105 013d 0E       		.uleb128 0xe
 1106 013e 03       		.uleb128 0x3
 1107 013f 0E       		.uleb128 0xe
 1108 0140 3A       		.uleb128 0x3a
 1109 0141 0B       		.uleb128 0xb
 1110 0142 3B       		.uleb128 0x3b
 1111 0143 0B       		.uleb128 0xb
 1112 0144 00       		.byte	0
 1113 0145 00       		.byte	0
 1114 0146 00       		.byte	0
 1115              		.section	.debug_loc,"",%progbits
 1116              	.Ldebug_loc0:
ARM GAS  C:\Users\aupen\AppData\Local\Temp\ccmHCvVm.s 			page 24


 1117              	.LLST0:
 1118 0000 00000000 		.4byte	.LVL0
 1119 0004 07000000 		.4byte	.LVL1-1
 1120 0008 0100     		.2byte	0x1
 1121 000a 50       		.byte	0x50
 1122 000b 07000000 		.4byte	.LVL1-1
 1123 000f 14000000 		.4byte	.LVL4
 1124 0013 0100     		.2byte	0x1
 1125 0015 54       		.byte	0x54
 1126 0016 14000000 		.4byte	.LVL4
 1127 001a C4000000 		.4byte	.LFE63
 1128 001e 0400     		.2byte	0x4
 1129 0020 F3       		.byte	0xf3
 1130 0021 01       		.uleb128 0x1
 1131 0022 50       		.byte	0x50
 1132 0023 9F       		.byte	0x9f
 1133 0024 00000000 		.4byte	0
 1134 0028 00000000 		.4byte	0
 1135              	.LLST1:
 1136 002c 14000000 		.4byte	.LVL4
 1137 0030 16000000 		.4byte	.LVL5
 1138 0034 0100     		.2byte	0x1
 1139 0036 50       		.byte	0x50
 1140 0037 16000000 		.4byte	.LVL5
 1141 003b 84000000 		.4byte	.LVL19
 1142 003f 0100     		.2byte	0x1
 1143 0041 54       		.byte	0x54
 1144 0042 84000000 		.4byte	.LVL19
 1145 0046 86000000 		.4byte	.LVL20
 1146 004a 0100     		.2byte	0x1
 1147 004c 50       		.byte	0x50
 1148 004d 86000000 		.4byte	.LVL20
 1149 0051 A4000000 		.4byte	.LVL24
 1150 0055 0100     		.2byte	0x1
 1151 0057 54       		.byte	0x54
 1152 0058 A4000000 		.4byte	.LVL24
 1153 005c A6000000 		.4byte	.LVL25
 1154 0060 0100     		.2byte	0x1
 1155 0062 50       		.byte	0x50
 1156 0063 A6000000 		.4byte	.LVL25
 1157 0067 C4000000 		.4byte	.LFE63
 1158 006b 0100     		.2byte	0x1
 1159 006d 54       		.byte	0x54
 1160 006e 00000000 		.4byte	0
 1161 0072 00000000 		.4byte	0
 1162              		.section	.debug_aranges,"",%progbits
 1163 0000 1C000000 		.4byte	0x1c
 1164 0004 0200     		.2byte	0x2
 1165 0006 00000000 		.4byte	.Ldebug_info0
 1166 000a 04       		.byte	0x4
 1167 000b 00       		.byte	0
 1168 000c 0000     		.2byte	0
 1169 000e 0000     		.2byte	0
 1170 0010 00000000 		.4byte	.LFB63
 1171 0014 C4000000 		.4byte	.LFE63-.LFB63
 1172 0018 00000000 		.4byte	0
 1173 001c 00000000 		.4byte	0
ARM GAS  C:\Users\aupen\AppData\Local\Temp\ccmHCvVm.s 			page 25


 1174              		.section	.debug_ranges,"",%progbits
 1175              	.Ldebug_ranges0:
 1176 0000 14000000 		.4byte	.LBB6
 1177 0004 16000000 		.4byte	.LBE6
 1178 0008 1C000000 		.4byte	.LBB9
 1179 000c 7E000000 		.4byte	.LBE9
 1180 0010 00000000 		.4byte	0
 1181 0014 00000000 		.4byte	0
 1182 0018 A0000000 		.4byte	.LBB10
 1183 001c A2000000 		.4byte	.LBE10
 1184 0020 A4000000 		.4byte	.LBB13
 1185 0024 B8000000 		.4byte	.LBE13
 1186 0028 00000000 		.4byte	0
 1187 002c 00000000 		.4byte	0
 1188 0030 00000000 		.4byte	.LFB63
 1189 0034 C4000000 		.4byte	.LFE63
 1190 0038 00000000 		.4byte	0
 1191 003c 00000000 		.4byte	0
 1192              		.section	.debug_line,"",%progbits
 1193              	.Ldebug_line0:
 1194 0000 E5010000 		.section	.debug_str,"MS",%progbits,1
 1194      02009701 
 1194      00000201 
 1194      FB0E0D00 
 1194      01010101 
 1195              	.LASF9:
 1196 0000 6C6F6E67 		.ascii	"long long int\000"
 1196      206C6F6E 
 1196      6720696E 
 1196      7400
 1197              	.LASF34:
 1198 000e 6D61785F 		.ascii	"max_pwm_Limited_L\000"
 1198      70776D5F 
 1198      4C696D69 
 1198      7465645F 
 1198      4C00
 1199              	.LASF4:
 1200 0020 5F5F7569 		.ascii	"__uint8_t\000"
 1200      6E74385F 
 1200      7400
 1201              	.LASF48:
 1202 002a 64726976 		.ascii	"drive_forward\000"
 1202      655F666F 
 1202      72776172 
 1202      6400
 1203              	.LASF35:
 1204 0038 6D61785F 		.ascii	"max_pwm_Limited_R\000"
 1204      70776D5F 
 1204      4C696D69 
 1204      7465645F 
 1204      5200
 1205              	.LASF24:
 1206 004a 425F7661 		.ascii	"B_val\000"
 1206      6C00
 1207              	.LASF15:
 1208 0050 666C6F61 		.ascii	"float\000"
 1208      7400
ARM GAS  C:\Users\aupen\AppData\Local\Temp\ccmHCvVm.s 			page 26


 1209              	.LASF5:
 1210 0056 5F5F696E 		.ascii	"__int32_t\000"
 1210      7433325F 
 1210      7400
 1211              	.LASF3:
 1212 0060 73686F72 		.ascii	"short unsigned int\000"
 1212      7420756E 
 1212      7369676E 
 1212      65642069 
 1212      6E7400
 1213              	.LASF42:
 1214 0073 674C696E 		.ascii	"gLine\000"
 1214      6500
 1215              	.LASF27:
 1216 0079 465F5249 		.ascii	"F_RIGHT\000"
 1216      47485400 
 1217              	.LASF46:
 1218 0081 7475726E 		.ascii	"turn_left\000"
 1218      5F6C6566 
 1218      7400
 1219              	.LASF13:
 1220 008b 696E7433 		.ascii	"int32_t\000"
 1220      325F7400 
 1221              	.LASF37:
 1222 0093 446F536F 		.ascii	"DoSomething\000"
 1222      6D657468 
 1222      696E6700 
 1223              	.LASF1:
 1224 009f 756E7369 		.ascii	"unsigned char\000"
 1224      676E6564 
 1224      20636861 
 1224      7200
 1225              	.LASF53:
 1226 00ad 53657276 		.ascii	"Servo_enable_Write\000"
 1226      6F5F656E 
 1226      61626C65 
 1226      5F577269 
 1226      746500
 1227              	.LASF8:
 1228 00c0 6C6F6E67 		.ascii	"long unsigned int\000"
 1228      20756E73 
 1228      69676E65 
 1228      6420696E 
 1228      7400
 1229              	.LASF47:
 1230 00d2 7475726E 		.ascii	"turn_right\000"
 1230      5F726967 
 1230      687400
 1231              	.LASF54:
 1232 00dd 474E5520 		.ascii	"GNU C11 5.4.1 20160609 (release) [ARM/embedded-5-br"
 1232      43313120 
 1232      352E342E 
 1232      31203230 
 1232      31363036 
 1233 0110 616E6368 		.ascii	"anch revision 237715] -mcpu=cortex-m3 -mthumb -g -O"
 1233      20726576 
 1233      6973696F 
ARM GAS  C:\Users\aupen\AppData\Local\Temp\ccmHCvVm.s 			page 27


 1233      6E203233 
 1233      37373135 
 1234 0143 73202D66 		.ascii	"s -ffunction-sections -ffat-lto-objects\000"
 1234      66756E63 
 1234      74696F6E 
 1234      2D736563 
 1234      74696F6E 
 1235              	.LASF22:
 1236 016b 4652315F 		.ascii	"FR1_val\000"
 1236      76616C00 
 1237              	.LASF41:
 1238 0173 49544D5F 		.ascii	"ITM_RxBuffer\000"
 1238      52784275 
 1238      66666572 
 1238      00
 1239              	.LASF39:
 1240 0180 64697374 		.ascii	"distSens\000"
 1240      53656E73 
 1240      00
 1241              	.LASF26:
 1242 0189 465F4C45 		.ascii	"F_LEFT\000"
 1242      465400
 1243              	.LASF55:
 1244 0190 74616374 		.ascii	"tactic7.c\000"
 1244      6963372E 
 1244      6300
 1245              	.LASF16:
 1246 019a 646F7562 		.ascii	"double\000"
 1246      6C6500
 1247              	.LASF56:
 1248 01a1 473A5C52 		.ascii	"G:\\Roboti\\BOLT_sumo_code\\BOLT_sumo.cydsn\000"
 1248      6F626F74 
 1248      695C424F 
 1248      4C545F73 
 1248      756D6F5F 
 1249              	.LASF7:
 1250 01ca 5F5F7569 		.ascii	"__uint32_t\000"
 1250      6E743332 
 1250      5F7400
 1251              	.LASF29:
 1252 01d5 6164635F 		.ascii	"adc_buff\000"
 1252      62756666 
 1252      00
 1253              	.LASF20:
 1254 01de 464C315F 		.ascii	"FL1_val\000"
 1254      76616C00 
 1255              	.LASF57:
 1256 01e6 52756E54 		.ascii	"RunTactic7\000"
 1256      61637469 
 1256      633700
 1257              	.LASF50:
 1258 01f1 66697273 		.ascii	"firstMoveSelector\000"
 1258      744D6F76 
 1258      6553656C 
 1258      6563746F 
 1258      7200
 1259              	.LASF11:
ARM GAS  C:\Users\aupen\AppData\Local\Temp\ccmHCvVm.s 			page 28


 1260 0203 756E7369 		.ascii	"unsigned int\000"
 1260      676E6564 
 1260      20696E74 
 1260      00
 1261              	.LASF36:
 1262 0210 4163744F 		.ascii	"ActOnLineDetected\000"
 1262      6E4C696E 
 1262      65446574 
 1262      65637465 
 1262      6400
 1263              	.LASF25:
 1264 0222 4654485F 		.ascii	"FTH_val\000"
 1264      76616C00 
 1265              	.LASF10:
 1266 022a 6C6F6E67 		.ascii	"long long unsigned int\000"
 1266      206C6F6E 
 1266      6720756E 
 1266      7369676E 
 1266      65642069 
 1267              	.LASF12:
 1268 0241 75696E74 		.ascii	"uint8_t\000"
 1268      385F7400 
 1269              	.LASF30:
 1270 0249 674C696E 		.ascii	"gLinevars\000"
 1270      65766172 
 1270      7300
 1271              	.LASF23:
 1272 0253 4652325F 		.ascii	"FR2_val\000"
 1272      76616C00 
 1273              	.LASF38:
 1274 025b 74696D6F 		.ascii	"timout_time\000"
 1274      75745F74 
 1274      696D6500 
 1275              	.LASF58:
 1276 0267 66697273 		.ascii	"firstMove\000"
 1276      744D6F76 
 1276      6500
 1277              	.LASF19:
 1278 0271 73697A65 		.ascii	"sizetype\000"
 1278      74797065 
 1278      00
 1279              	.LASF40:
 1280 027a 73696465 		.ascii	"side\000"
 1280      00
 1281              	.LASF52:
 1282 027f 4C696E65 		.ascii	"LineSensRead\000"
 1282      53656E73 
 1282      52656164 
 1282      00
 1283              	.LASF28:
 1284 028c 52454152 		.ascii	"REAR\000"
 1284      00
 1285              	.LASF17:
 1286 0291 63686172 		.ascii	"char\000"
 1286      00
 1287              	.LASF21:
 1288 0296 464C325F 		.ascii	"FL2_val\000"
ARM GAS  C:\Users\aupen\AppData\Local\Temp\ccmHCvVm.s 			page 29


 1288      76616C00 
 1289              	.LASF44:
 1290 029e 64726976 		.ascii	"drive_backward\000"
 1290      655F6261 
 1290      636B7761 
 1290      726400
 1291              	.LASF43:
 1292 02ad 674D6F74 		.ascii	"gMotor\000"
 1292      6F7200
 1293              	.LASF2:
 1294 02b4 73686F72 		.ascii	"short int\000"
 1294      7420696E 
 1294      7400
 1295              	.LASF33:
 1296 02be 7475726E 		.ascii	"turn_speed\000"
 1296      5F737065 
 1296      656400
 1297              	.LASF31:
 1298 02c9 67447269 		.ascii	"gDrivevars\000"
 1298      76657661 
 1298      727300
 1299              	.LASF14:
 1300 02d4 75696E74 		.ascii	"uint32_t\000"
 1300      33325F74 
 1300      00
 1301              	.LASF6:
 1302 02dd 6C6F6E67 		.ascii	"long int\000"
 1302      20696E74 
 1302      00
 1303              	.LASF51:
 1304 02e6 6D696C6C 		.ascii	"millis\000"
 1304      697300
 1305              	.LASF49:
 1306 02ed 57616974 		.ascii	"WaitForIRStart\000"
 1306      466F7249 
 1306      52537461 
 1306      727400
 1307              	.LASF18:
 1308 02fc 6C6F6E67 		.ascii	"long double\000"
 1308      20646F75 
 1308      626C6500 
 1309              	.LASF0:
 1310 0308 7369676E 		.ascii	"signed char\000"
 1310      65642063 
 1310      68617200 
 1311              	.LASF32:
 1312 0314 62617369 		.ascii	"basic_speed\000"
 1312      635F7370 
 1312      65656400 
 1313              	.LASF45:
 1314 0320 43794465 		.ascii	"CyDelay\000"
 1314      6C617900 
 1315              	.LASF59:
 1316 0328 6C696E65 		.ascii	"lineSens\000"
 1316      53656E73 
 1316      00
 1317              		.ident	"GCC: (GNU Tools for ARM Embedded Processors) 5.4.1 20160609 (release) [ARM/embedded-5-bran
ARM GAS  C:\Users\aupen\AppData\Local\Temp\ccmHCvVm.s 			page 30


