ARM GAS  C:\Users\Armands\AppData\Local\Temp\ccgXqImo.s 			page 1


   1              		.syntax unified
   2              		.cpu cortex-m3
   3              		.fpu softvfp
   4              		.eabi_attribute 20, 1
   5              		.eabi_attribute 21, 1
   6              		.eabi_attribute 23, 3
   7              		.eabi_attribute 24, 1
   8              		.eabi_attribute 25, 1
   9              		.eabi_attribute 26, 1
  10              		.eabi_attribute 30, 1
  11              		.eabi_attribute 34, 1
  12              		.eabi_attribute 18, 4
  13              		.thumb
  14              		.syntax unified
  15              		.file	"MOT_PWM_PM.c"
  16              		.text
  17              	.Ltext0:
  18              		.cfi_sections	.debug_frame
  19              		.section	.text.MOT_PWM_SaveConfig,"ax",%progbits
  20              		.align	2
  21              		.global	MOT_PWM_SaveConfig
  22              		.thumb
  23              		.thumb_func
  24              		.type	MOT_PWM_SaveConfig, %function
  25              	MOT_PWM_SaveConfig:
  26              	.LFB0:
  27              		.file 1 "Generated_Source\\PSoC5\\MOT_PWM_PM.c"
   1:Generated_Source\PSoC5/MOT_PWM_PM.c **** /*******************************************************************************
   2:Generated_Source\PSoC5/MOT_PWM_PM.c **** * File Name: MOT_PWM_PM.c
   3:Generated_Source\PSoC5/MOT_PWM_PM.c **** * Version 3.30
   4:Generated_Source\PSoC5/MOT_PWM_PM.c **** *
   5:Generated_Source\PSoC5/MOT_PWM_PM.c **** * Description:
   6:Generated_Source\PSoC5/MOT_PWM_PM.c **** *  This file provides the power management source code to API for the
   7:Generated_Source\PSoC5/MOT_PWM_PM.c **** *  PWM.
   8:Generated_Source\PSoC5/MOT_PWM_PM.c **** *
   9:Generated_Source\PSoC5/MOT_PWM_PM.c **** * Note:
  10:Generated_Source\PSoC5/MOT_PWM_PM.c **** *
  11:Generated_Source\PSoC5/MOT_PWM_PM.c **** ********************************************************************************
  12:Generated_Source\PSoC5/MOT_PWM_PM.c **** * Copyright 2008-2014, Cypress Semiconductor Corporation.  All rights reserved.
  13:Generated_Source\PSoC5/MOT_PWM_PM.c **** * You may use this file only in accordance with the license, terms, conditions,
  14:Generated_Source\PSoC5/MOT_PWM_PM.c **** * disclaimers, and limitations in the end user license agreement accompanying
  15:Generated_Source\PSoC5/MOT_PWM_PM.c **** * the software package with which this file was provided.
  16:Generated_Source\PSoC5/MOT_PWM_PM.c **** *******************************************************************************/
  17:Generated_Source\PSoC5/MOT_PWM_PM.c **** 
  18:Generated_Source\PSoC5/MOT_PWM_PM.c **** #include "MOT_PWM.h"
  19:Generated_Source\PSoC5/MOT_PWM_PM.c **** 
  20:Generated_Source\PSoC5/MOT_PWM_PM.c **** static MOT_PWM_backupStruct MOT_PWM_backup;
  21:Generated_Source\PSoC5/MOT_PWM_PM.c **** 
  22:Generated_Source\PSoC5/MOT_PWM_PM.c **** 
  23:Generated_Source\PSoC5/MOT_PWM_PM.c **** /*******************************************************************************
  24:Generated_Source\PSoC5/MOT_PWM_PM.c **** * Function Name: MOT_PWM_SaveConfig
  25:Generated_Source\PSoC5/MOT_PWM_PM.c **** ********************************************************************************
  26:Generated_Source\PSoC5/MOT_PWM_PM.c **** *
  27:Generated_Source\PSoC5/MOT_PWM_PM.c **** * Summary:
  28:Generated_Source\PSoC5/MOT_PWM_PM.c **** *  Saves the current user configuration of the component.
  29:Generated_Source\PSoC5/MOT_PWM_PM.c **** *
  30:Generated_Source\PSoC5/MOT_PWM_PM.c **** * Parameters:
ARM GAS  C:\Users\Armands\AppData\Local\Temp\ccgXqImo.s 			page 2


  31:Generated_Source\PSoC5/MOT_PWM_PM.c **** *  None
  32:Generated_Source\PSoC5/MOT_PWM_PM.c **** *
  33:Generated_Source\PSoC5/MOT_PWM_PM.c **** * Return:
  34:Generated_Source\PSoC5/MOT_PWM_PM.c **** *  None
  35:Generated_Source\PSoC5/MOT_PWM_PM.c **** *
  36:Generated_Source\PSoC5/MOT_PWM_PM.c **** * Global variables:
  37:Generated_Source\PSoC5/MOT_PWM_PM.c **** *  MOT_PWM_backup:  Variables of this global structure are modified to
  38:Generated_Source\PSoC5/MOT_PWM_PM.c **** *  store the values of non retention configuration registers when Sleep() API is
  39:Generated_Source\PSoC5/MOT_PWM_PM.c **** *  called.
  40:Generated_Source\PSoC5/MOT_PWM_PM.c **** *
  41:Generated_Source\PSoC5/MOT_PWM_PM.c **** *******************************************************************************/
  42:Generated_Source\PSoC5/MOT_PWM_PM.c **** void MOT_PWM_SaveConfig(void) 
  43:Generated_Source\PSoC5/MOT_PWM_PM.c **** {
  28              		.loc 1 43 0
  29              		.cfi_startproc
  30              		@ args = 0, pretend = 0, frame = 0
  31              		@ frame_needed = 0, uses_anonymous_args = 0
  32 0000 10B5     		push	{r4, lr}
  33              		.cfi_def_cfa_offset 8
  34              		.cfi_offset 4, -8
  35              		.cfi_offset 14, -4
  44:Generated_Source\PSoC5/MOT_PWM_PM.c **** 
  45:Generated_Source\PSoC5/MOT_PWM_PM.c ****     #if(!MOT_PWM_UsingFixedFunction)
  46:Generated_Source\PSoC5/MOT_PWM_PM.c ****         #if(!MOT_PWM_PWMModeIsCenterAligned)
  47:Generated_Source\PSoC5/MOT_PWM_PM.c ****             MOT_PWM_backup.PWMPeriod = MOT_PWM_ReadPeriod();
  36              		.loc 1 47 0
  37 0002 FFF7FEFF 		bl	MOT_PWM_ReadPeriod
  38              	.LVL0:
  39 0006 064C     		ldr	r4, .L3
  40 0008 A070     		strb	r0, [r4, #2]
  48:Generated_Source\PSoC5/MOT_PWM_PM.c ****         #endif /* (!MOT_PWM_PWMModeIsCenterAligned) */
  49:Generated_Source\PSoC5/MOT_PWM_PM.c ****         MOT_PWM_backup.PWMUdb = MOT_PWM_ReadCounter();
  41              		.loc 1 49 0
  42 000a FFF7FEFF 		bl	MOT_PWM_ReadCounter
  43              	.LVL1:
  44 000e 6070     		strb	r0, [r4, #1]
  50:Generated_Source\PSoC5/MOT_PWM_PM.c ****         #if (MOT_PWM_UseStatus)
  51:Generated_Source\PSoC5/MOT_PWM_PM.c ****             MOT_PWM_backup.InterruptMaskValue = MOT_PWM_STATUS_MASK;
  52:Generated_Source\PSoC5/MOT_PWM_PM.c ****         #endif /* (MOT_PWM_UseStatus) */
  53:Generated_Source\PSoC5/MOT_PWM_PM.c **** 
  54:Generated_Source\PSoC5/MOT_PWM_PM.c ****         #if(MOT_PWM_DeadBandMode == MOT_PWM__B_PWM__DBM_256_CLOCKS || \
  55:Generated_Source\PSoC5/MOT_PWM_PM.c ****             MOT_PWM_DeadBandMode == MOT_PWM__B_PWM__DBM_2_4_CLOCKS)
  56:Generated_Source\PSoC5/MOT_PWM_PM.c ****             MOT_PWM_backup.PWMdeadBandValue = MOT_PWM_ReadDeadTime();
  57:Generated_Source\PSoC5/MOT_PWM_PM.c ****         #endif /*  deadband count is either 2-4 clocks or 256 clocks */
  58:Generated_Source\PSoC5/MOT_PWM_PM.c **** 
  59:Generated_Source\PSoC5/MOT_PWM_PM.c ****         #if(MOT_PWM_KillModeMinTime)
  60:Generated_Source\PSoC5/MOT_PWM_PM.c ****              MOT_PWM_backup.PWMKillCounterPeriod = MOT_PWM_ReadKillTime();
  45              		.loc 1 60 0
  46 0010 FFF7FEFF 		bl	MOT_PWM_ReadKillTime
  47              	.LVL2:
  48 0014 E070     		strb	r0, [r4, #3]
  61:Generated_Source\PSoC5/MOT_PWM_PM.c ****         #endif /* (MOT_PWM_KillModeMinTime) */
  62:Generated_Source\PSoC5/MOT_PWM_PM.c **** 
  63:Generated_Source\PSoC5/MOT_PWM_PM.c ****         #if(MOT_PWM_UseControl)
  64:Generated_Source\PSoC5/MOT_PWM_PM.c ****             MOT_PWM_backup.PWMControlRegister = MOT_PWM_ReadControlRegister();
  49              		.loc 1 64 0
  50 0016 FFF7FEFF 		bl	MOT_PWM_ReadControlRegister
ARM GAS  C:\Users\Armands\AppData\Local\Temp\ccgXqImo.s 			page 3


  51              	.LVL3:
  52 001a 2071     		strb	r0, [r4, #4]
  53 001c 10BD     		pop	{r4, pc}
  54              	.L4:
  55 001e 00BF     		.align	2
  56              	.L3:
  57 0020 00000000 		.word	.LANCHOR0
  58              		.cfi_endproc
  59              	.LFE0:
  60              		.size	MOT_PWM_SaveConfig, .-MOT_PWM_SaveConfig
  61              		.section	.text.MOT_PWM_RestoreConfig,"ax",%progbits
  62              		.align	2
  63              		.global	MOT_PWM_RestoreConfig
  64              		.thumb
  65              		.thumb_func
  66              		.type	MOT_PWM_RestoreConfig, %function
  67              	MOT_PWM_RestoreConfig:
  68              	.LFB1:
  65:Generated_Source\PSoC5/MOT_PWM_PM.c ****         #endif /* (MOT_PWM_UseControl) */
  66:Generated_Source\PSoC5/MOT_PWM_PM.c ****     #endif  /* (!MOT_PWM_UsingFixedFunction) */
  67:Generated_Source\PSoC5/MOT_PWM_PM.c **** }
  68:Generated_Source\PSoC5/MOT_PWM_PM.c **** 
  69:Generated_Source\PSoC5/MOT_PWM_PM.c **** 
  70:Generated_Source\PSoC5/MOT_PWM_PM.c **** /*******************************************************************************
  71:Generated_Source\PSoC5/MOT_PWM_PM.c **** * Function Name: MOT_PWM_RestoreConfig
  72:Generated_Source\PSoC5/MOT_PWM_PM.c **** ********************************************************************************
  73:Generated_Source\PSoC5/MOT_PWM_PM.c **** *
  74:Generated_Source\PSoC5/MOT_PWM_PM.c **** * Summary:
  75:Generated_Source\PSoC5/MOT_PWM_PM.c **** *  Restores the current user configuration of the component.
  76:Generated_Source\PSoC5/MOT_PWM_PM.c **** *
  77:Generated_Source\PSoC5/MOT_PWM_PM.c **** * Parameters:
  78:Generated_Source\PSoC5/MOT_PWM_PM.c **** *  None
  79:Generated_Source\PSoC5/MOT_PWM_PM.c **** *
  80:Generated_Source\PSoC5/MOT_PWM_PM.c **** * Return:
  81:Generated_Source\PSoC5/MOT_PWM_PM.c **** *  None
  82:Generated_Source\PSoC5/MOT_PWM_PM.c **** *
  83:Generated_Source\PSoC5/MOT_PWM_PM.c **** * Global variables:
  84:Generated_Source\PSoC5/MOT_PWM_PM.c **** *  MOT_PWM_backup:  Variables of this global structure are used to
  85:Generated_Source\PSoC5/MOT_PWM_PM.c **** *  restore the values of non retention registers on wakeup from sleep mode.
  86:Generated_Source\PSoC5/MOT_PWM_PM.c **** *
  87:Generated_Source\PSoC5/MOT_PWM_PM.c **** *******************************************************************************/
  88:Generated_Source\PSoC5/MOT_PWM_PM.c **** void MOT_PWM_RestoreConfig(void) 
  89:Generated_Source\PSoC5/MOT_PWM_PM.c **** {
  69              		.loc 1 89 0
  70              		.cfi_startproc
  71              		@ args = 0, pretend = 0, frame = 0
  72              		@ frame_needed = 0, uses_anonymous_args = 0
  73 0000 10B5     		push	{r4, lr}
  74              		.cfi_def_cfa_offset 8
  75              		.cfi_offset 4, -8
  76              		.cfi_offset 14, -4
  90:Generated_Source\PSoC5/MOT_PWM_PM.c ****         #if(!MOT_PWM_UsingFixedFunction)
  91:Generated_Source\PSoC5/MOT_PWM_PM.c ****             #if(!MOT_PWM_PWMModeIsCenterAligned)
  92:Generated_Source\PSoC5/MOT_PWM_PM.c ****                 MOT_PWM_WritePeriod(MOT_PWM_backup.PWMPeriod);
  77              		.loc 1 92 0
  78 0002 074C     		ldr	r4, .L7
  79 0004 A078     		ldrb	r0, [r4, #2]	@ zero_extendqisi2
ARM GAS  C:\Users\Armands\AppData\Local\Temp\ccgXqImo.s 			page 4


  80 0006 FFF7FEFF 		bl	MOT_PWM_WritePeriod
  81              	.LVL4:
  93:Generated_Source\PSoC5/MOT_PWM_PM.c ****             #endif /* (!MOT_PWM_PWMModeIsCenterAligned) */
  94:Generated_Source\PSoC5/MOT_PWM_PM.c **** 
  95:Generated_Source\PSoC5/MOT_PWM_PM.c ****             MOT_PWM_WriteCounter(MOT_PWM_backup.PWMUdb);
  82              		.loc 1 95 0
  83 000a 6078     		ldrb	r0, [r4, #1]	@ zero_extendqisi2
  84 000c FFF7FEFF 		bl	MOT_PWM_WriteCounter
  85              	.LVL5:
  96:Generated_Source\PSoC5/MOT_PWM_PM.c **** 
  97:Generated_Source\PSoC5/MOT_PWM_PM.c ****             #if (MOT_PWM_UseStatus)
  98:Generated_Source\PSoC5/MOT_PWM_PM.c ****                 MOT_PWM_STATUS_MASK = MOT_PWM_backup.InterruptMaskValue;
  99:Generated_Source\PSoC5/MOT_PWM_PM.c ****             #endif /* (MOT_PWM_UseStatus) */
 100:Generated_Source\PSoC5/MOT_PWM_PM.c **** 
 101:Generated_Source\PSoC5/MOT_PWM_PM.c ****             #if(MOT_PWM_DeadBandMode == MOT_PWM__B_PWM__DBM_256_CLOCKS || \
 102:Generated_Source\PSoC5/MOT_PWM_PM.c ****                 MOT_PWM_DeadBandMode == MOT_PWM__B_PWM__DBM_2_4_CLOCKS)
 103:Generated_Source\PSoC5/MOT_PWM_PM.c ****                 MOT_PWM_WriteDeadTime(MOT_PWM_backup.PWMdeadBandValue);
 104:Generated_Source\PSoC5/MOT_PWM_PM.c ****             #endif /* deadband count is either 2-4 clocks or 256 clocks */
 105:Generated_Source\PSoC5/MOT_PWM_PM.c **** 
 106:Generated_Source\PSoC5/MOT_PWM_PM.c ****             #if(MOT_PWM_KillModeMinTime)
 107:Generated_Source\PSoC5/MOT_PWM_PM.c ****                 MOT_PWM_WriteKillTime(MOT_PWM_backup.PWMKillCounterPeriod);
  86              		.loc 1 107 0
  87 0010 E078     		ldrb	r0, [r4, #3]	@ zero_extendqisi2
  88 0012 FFF7FEFF 		bl	MOT_PWM_WriteKillTime
  89              	.LVL6:
 108:Generated_Source\PSoC5/MOT_PWM_PM.c ****             #endif /* (MOT_PWM_KillModeMinTime) */
 109:Generated_Source\PSoC5/MOT_PWM_PM.c **** 
 110:Generated_Source\PSoC5/MOT_PWM_PM.c ****             #if(MOT_PWM_UseControl)
 111:Generated_Source\PSoC5/MOT_PWM_PM.c ****                 MOT_PWM_WriteControlRegister(MOT_PWM_backup.PWMControlRegister);
  90              		.loc 1 111 0
  91 0016 2079     		ldrb	r0, [r4, #4]	@ zero_extendqisi2
  92 0018 FFF7FEFF 		bl	MOT_PWM_WriteControlRegister
  93              	.LVL7:
  94 001c 10BD     		pop	{r4, pc}
  95              	.L8:
  96 001e 00BF     		.align	2
  97              	.L7:
  98 0020 00000000 		.word	.LANCHOR0
  99              		.cfi_endproc
 100              	.LFE1:
 101              		.size	MOT_PWM_RestoreConfig, .-MOT_PWM_RestoreConfig
 102              		.section	.text.MOT_PWM_Sleep,"ax",%progbits
 103              		.align	2
 104              		.global	MOT_PWM_Sleep
 105              		.thumb
 106              		.thumb_func
 107              		.type	MOT_PWM_Sleep, %function
 108              	MOT_PWM_Sleep:
 109              	.LFB2:
 112:Generated_Source\PSoC5/MOT_PWM_PM.c ****             #endif /* (MOT_PWM_UseControl) */
 113:Generated_Source\PSoC5/MOT_PWM_PM.c ****         #endif  /* (!MOT_PWM_UsingFixedFunction) */
 114:Generated_Source\PSoC5/MOT_PWM_PM.c ****     }
 115:Generated_Source\PSoC5/MOT_PWM_PM.c **** 
 116:Generated_Source\PSoC5/MOT_PWM_PM.c **** 
 117:Generated_Source\PSoC5/MOT_PWM_PM.c **** /*******************************************************************************
 118:Generated_Source\PSoC5/MOT_PWM_PM.c **** * Function Name: MOT_PWM_Sleep
 119:Generated_Source\PSoC5/MOT_PWM_PM.c **** ********************************************************************************
ARM GAS  C:\Users\Armands\AppData\Local\Temp\ccgXqImo.s 			page 5


 120:Generated_Source\PSoC5/MOT_PWM_PM.c **** *
 121:Generated_Source\PSoC5/MOT_PWM_PM.c **** * Summary:
 122:Generated_Source\PSoC5/MOT_PWM_PM.c **** *  Disables block's operation and saves the user configuration. Should be called
 123:Generated_Source\PSoC5/MOT_PWM_PM.c **** *  just prior to entering sleep.
 124:Generated_Source\PSoC5/MOT_PWM_PM.c **** *
 125:Generated_Source\PSoC5/MOT_PWM_PM.c **** * Parameters:
 126:Generated_Source\PSoC5/MOT_PWM_PM.c **** *  None
 127:Generated_Source\PSoC5/MOT_PWM_PM.c **** *
 128:Generated_Source\PSoC5/MOT_PWM_PM.c **** * Return:
 129:Generated_Source\PSoC5/MOT_PWM_PM.c **** *  None
 130:Generated_Source\PSoC5/MOT_PWM_PM.c **** *
 131:Generated_Source\PSoC5/MOT_PWM_PM.c **** * Global variables:
 132:Generated_Source\PSoC5/MOT_PWM_PM.c **** *  MOT_PWM_backup.PWMEnableState:  Is modified depending on the enable
 133:Generated_Source\PSoC5/MOT_PWM_PM.c **** *  state of the block before entering sleep mode.
 134:Generated_Source\PSoC5/MOT_PWM_PM.c **** *
 135:Generated_Source\PSoC5/MOT_PWM_PM.c **** *******************************************************************************/
 136:Generated_Source\PSoC5/MOT_PWM_PM.c **** void MOT_PWM_Sleep(void) 
 137:Generated_Source\PSoC5/MOT_PWM_PM.c **** {
 110              		.loc 1 137 0
 111              		.cfi_startproc
 112              		@ args = 0, pretend = 0, frame = 0
 113              		@ frame_needed = 0, uses_anonymous_args = 0
 114 0000 08B5     		push	{r3, lr}
 115              		.cfi_def_cfa_offset 8
 116              		.cfi_offset 3, -8
 117              		.cfi_offset 14, -4
 138:Generated_Source\PSoC5/MOT_PWM_PM.c ****     #if(MOT_PWM_UseControl)
 139:Generated_Source\PSoC5/MOT_PWM_PM.c ****         if(MOT_PWM_CTRL_ENABLE == (MOT_PWM_CONTROL & MOT_PWM_CTRL_ENABLE))
 118              		.loc 1 139 0
 119 0002 084B     		ldr	r3, .L13
 120 0004 1B78     		ldrb	r3, [r3]	@ zero_extendqisi2
 121 0006 13F0800F 		tst	r3, #128
 122 000a 03D0     		beq	.L10
 140:Generated_Source\PSoC5/MOT_PWM_PM.c ****         {
 141:Generated_Source\PSoC5/MOT_PWM_PM.c ****             /*Component is enabled */
 142:Generated_Source\PSoC5/MOT_PWM_PM.c ****             MOT_PWM_backup.PWMEnableState = 1u;
 123              		.loc 1 142 0
 124 000c 0122     		movs	r2, #1
 125 000e 064B     		ldr	r3, .L13+4
 126 0010 1A70     		strb	r2, [r3]
 127 0012 02E0     		b	.L11
 128              	.L10:
 143:Generated_Source\PSoC5/MOT_PWM_PM.c ****         }
 144:Generated_Source\PSoC5/MOT_PWM_PM.c ****         else
 145:Generated_Source\PSoC5/MOT_PWM_PM.c ****         {
 146:Generated_Source\PSoC5/MOT_PWM_PM.c ****             /* Component is disabled */
 147:Generated_Source\PSoC5/MOT_PWM_PM.c ****             MOT_PWM_backup.PWMEnableState = 0u;
 129              		.loc 1 147 0
 130 0014 0022     		movs	r2, #0
 131 0016 044B     		ldr	r3, .L13+4
 132 0018 1A70     		strb	r2, [r3]
 133              	.L11:
 148:Generated_Source\PSoC5/MOT_PWM_PM.c ****         }
 149:Generated_Source\PSoC5/MOT_PWM_PM.c ****     #endif /* (MOT_PWM_UseControl) */
 150:Generated_Source\PSoC5/MOT_PWM_PM.c **** 
 151:Generated_Source\PSoC5/MOT_PWM_PM.c ****     /* Stop component */
 152:Generated_Source\PSoC5/MOT_PWM_PM.c ****     MOT_PWM_Stop();
ARM GAS  C:\Users\Armands\AppData\Local\Temp\ccgXqImo.s 			page 6


 134              		.loc 1 152 0
 135 001a FFF7FEFF 		bl	MOT_PWM_Stop
 136              	.LVL8:
 153:Generated_Source\PSoC5/MOT_PWM_PM.c **** 
 154:Generated_Source\PSoC5/MOT_PWM_PM.c ****     /* Save registers configuration */
 155:Generated_Source\PSoC5/MOT_PWM_PM.c ****     MOT_PWM_SaveConfig();
 137              		.loc 1 155 0
 138 001e FFF7FEFF 		bl	MOT_PWM_SaveConfig
 139              	.LVL9:
 140 0022 08BD     		pop	{r3, pc}
 141              	.L14:
 142              		.align	2
 143              	.L13:
 144 0024 70640040 		.word	1073767536
 145 0028 00000000 		.word	.LANCHOR0
 146              		.cfi_endproc
 147              	.LFE2:
 148              		.size	MOT_PWM_Sleep, .-MOT_PWM_Sleep
 149              		.section	.text.MOT_PWM_Wakeup,"ax",%progbits
 150              		.align	2
 151              		.global	MOT_PWM_Wakeup
 152              		.thumb
 153              		.thumb_func
 154              		.type	MOT_PWM_Wakeup, %function
 155              	MOT_PWM_Wakeup:
 156              	.LFB3:
 156:Generated_Source\PSoC5/MOT_PWM_PM.c **** }
 157:Generated_Source\PSoC5/MOT_PWM_PM.c **** 
 158:Generated_Source\PSoC5/MOT_PWM_PM.c **** 
 159:Generated_Source\PSoC5/MOT_PWM_PM.c **** /*******************************************************************************
 160:Generated_Source\PSoC5/MOT_PWM_PM.c **** * Function Name: MOT_PWM_Wakeup
 161:Generated_Source\PSoC5/MOT_PWM_PM.c **** ********************************************************************************
 162:Generated_Source\PSoC5/MOT_PWM_PM.c **** *
 163:Generated_Source\PSoC5/MOT_PWM_PM.c **** * Summary:
 164:Generated_Source\PSoC5/MOT_PWM_PM.c **** *  Restores and enables the user configuration. Should be called just after
 165:Generated_Source\PSoC5/MOT_PWM_PM.c **** *  awaking from sleep.
 166:Generated_Source\PSoC5/MOT_PWM_PM.c **** *
 167:Generated_Source\PSoC5/MOT_PWM_PM.c **** * Parameters:
 168:Generated_Source\PSoC5/MOT_PWM_PM.c **** *  None
 169:Generated_Source\PSoC5/MOT_PWM_PM.c **** *
 170:Generated_Source\PSoC5/MOT_PWM_PM.c **** * Return:
 171:Generated_Source\PSoC5/MOT_PWM_PM.c **** *  None
 172:Generated_Source\PSoC5/MOT_PWM_PM.c **** *
 173:Generated_Source\PSoC5/MOT_PWM_PM.c **** * Global variables:
 174:Generated_Source\PSoC5/MOT_PWM_PM.c **** *  MOT_PWM_backup.pwmEnable:  Is used to restore the enable state of
 175:Generated_Source\PSoC5/MOT_PWM_PM.c **** *  block on wakeup from sleep mode.
 176:Generated_Source\PSoC5/MOT_PWM_PM.c **** *
 177:Generated_Source\PSoC5/MOT_PWM_PM.c **** *******************************************************************************/
 178:Generated_Source\PSoC5/MOT_PWM_PM.c **** void MOT_PWM_Wakeup(void) 
 179:Generated_Source\PSoC5/MOT_PWM_PM.c **** {
 157              		.loc 1 179 0
 158              		.cfi_startproc
 159              		@ args = 0, pretend = 0, frame = 0
 160              		@ frame_needed = 0, uses_anonymous_args = 0
 161 0000 08B5     		push	{r3, lr}
 162              		.cfi_def_cfa_offset 8
 163              		.cfi_offset 3, -8
ARM GAS  C:\Users\Armands\AppData\Local\Temp\ccgXqImo.s 			page 7


 164              		.cfi_offset 14, -4
 180:Generated_Source\PSoC5/MOT_PWM_PM.c ****      /* Restore registers values */
 181:Generated_Source\PSoC5/MOT_PWM_PM.c ****     MOT_PWM_RestoreConfig();
 165              		.loc 1 181 0
 166 0002 FFF7FEFF 		bl	MOT_PWM_RestoreConfig
 167              	.LVL10:
 182:Generated_Source\PSoC5/MOT_PWM_PM.c **** 
 183:Generated_Source\PSoC5/MOT_PWM_PM.c ****     if(MOT_PWM_backup.PWMEnableState != 0u)
 168              		.loc 1 183 0
 169 0006 034B     		ldr	r3, .L18
 170 0008 1B78     		ldrb	r3, [r3]	@ zero_extendqisi2
 171 000a 0BB1     		cbz	r3, .L15
 184:Generated_Source\PSoC5/MOT_PWM_PM.c ****     {
 185:Generated_Source\PSoC5/MOT_PWM_PM.c ****         /* Enable component's operation */
 186:Generated_Source\PSoC5/MOT_PWM_PM.c ****         MOT_PWM_Enable();
 172              		.loc 1 186 0
 173 000c FFF7FEFF 		bl	MOT_PWM_Enable
 174              	.LVL11:
 175              	.L15:
 176 0010 08BD     		pop	{r3, pc}
 177              	.L19:
 178 0012 00BF     		.align	2
 179              	.L18:
 180 0014 00000000 		.word	.LANCHOR0
 181              		.cfi_endproc
 182              	.LFE3:
 183              		.size	MOT_PWM_Wakeup, .-MOT_PWM_Wakeup
 184              		.bss
 185              		.align	2
 186              		.set	.LANCHOR0,. + 0
 187              		.type	MOT_PWM_backup, %object
 188              		.size	MOT_PWM_backup, 5
 189              	MOT_PWM_backup:
 190 0000 00000000 		.space	5
 190      00
 191              		.text
 192              	.Letext0:
 193              		.file 2 "Generated_Source\\PSoC5\\cytypes.h"
 194              		.file 3 "Generated_Source\\PSoC5\\MOT_PWM.h"
 195              		.section	.debug_info,"",%progbits
 196              	.Ldebug_info0:
 197 0000 3B020000 		.4byte	0x23b
 198 0004 0400     		.2byte	0x4
 199 0006 00000000 		.4byte	.Ldebug_abbrev0
 200 000a 04       		.byte	0x4
 201 000b 01       		.uleb128 0x1
 202 000c B4000000 		.4byte	.LASF36
 203 0010 0C       		.byte	0xc
 204 0011 7C020000 		.4byte	.LASF37
 205 0015 EA020000 		.4byte	.LASF38
 206 0019 00000000 		.4byte	.Ldebug_ranges0+0
 207 001d 00000000 		.4byte	0
 208 0021 00000000 		.4byte	.Ldebug_line0
 209 0025 02       		.uleb128 0x2
 210 0026 01       		.byte	0x1
 211 0027 06       		.byte	0x6
 212 0028 DE020000 		.4byte	.LASF0
ARM GAS  C:\Users\Armands\AppData\Local\Temp\ccgXqImo.s 			page 8


 213 002c 02       		.uleb128 0x2
 214 002d 01       		.byte	0x1
 215 002e 08       		.byte	0x8
 216 002f A6000000 		.4byte	.LASF1
 217 0033 02       		.uleb128 0x2
 218 0034 02       		.byte	0x2
 219 0035 05       		.byte	0x5
 220 0036 72020000 		.4byte	.LASF2
 221 003a 02       		.uleb128 0x2
 222 003b 02       		.byte	0x2
 223 003c 07       		.byte	0x7
 224 003d 35000000 		.4byte	.LASF3
 225 0041 02       		.uleb128 0x2
 226 0042 04       		.byte	0x4
 227 0043 05       		.byte	0x5
 228 0044 B4020000 		.4byte	.LASF4
 229 0048 02       		.uleb128 0x2
 230 0049 04       		.byte	0x4
 231 004a 07       		.byte	0x7
 232 004b 6E010000 		.4byte	.LASF5
 233 004f 02       		.uleb128 0x2
 234 0050 08       		.byte	0x8
 235 0051 05       		.byte	0x5
 236 0052 49020000 		.4byte	.LASF6
 237 0056 02       		.uleb128 0x2
 238 0057 08       		.byte	0x8
 239 0058 07       		.byte	0x7
 240 0059 01020000 		.4byte	.LASF7
 241 005d 03       		.uleb128 0x3
 242 005e 04       		.byte	0x4
 243 005f 05       		.byte	0x5
 244 0060 696E7400 		.ascii	"int\000"
 245 0064 02       		.uleb128 0x2
 246 0065 04       		.byte	0x4
 247 0066 07       		.byte	0x7
 248 0067 DF010000 		.4byte	.LASF8
 249 006b 04       		.uleb128 0x4
 250 006c 80010000 		.4byte	.LASF12
 251 0070 02       		.byte	0x2
 252 0071 9201     		.2byte	0x192
 253 0073 2C000000 		.4byte	0x2c
 254 0077 02       		.uleb128 0x2
 255 0078 04       		.byte	0x4
 256 0079 04       		.byte	0x4
 257 007a 8D000000 		.4byte	.LASF9
 258 007e 02       		.uleb128 0x2
 259 007f 08       		.byte	0x8
 260 0080 04       		.byte	0x4
 261 0081 C3010000 		.4byte	.LASF10
 262 0085 02       		.uleb128 0x2
 263 0086 01       		.byte	0x1
 264 0087 08       		.byte	0x8
 265 0088 6D020000 		.4byte	.LASF11
 266 008c 04       		.uleb128 0x4
 267 008d 3B020000 		.4byte	.LASF13
 268 0091 02       		.byte	0x2
 269 0092 3C02     		.2byte	0x23c
ARM GAS  C:\Users\Armands\AppData\Local\Temp\ccgXqImo.s 			page 9


 270 0094 98000000 		.4byte	0x98
 271 0098 05       		.uleb128 0x5
 272 0099 6B000000 		.4byte	0x6b
 273 009d 02       		.uleb128 0x2
 274 009e 08       		.byte	0x8
 275 009f 04       		.byte	0x4
 276 00a0 D2020000 		.4byte	.LASF14
 277 00a4 02       		.uleb128 0x2
 278 00a5 04       		.byte	0x4
 279 00a6 07       		.byte	0x7
 280 00a7 40020000 		.4byte	.LASF15
 281 00ab 06       		.uleb128 0x6
 282 00ac 05       		.byte	0x5
 283 00ad 03       		.byte	0x3
 284 00ae 6B       		.byte	0x6b
 285 00af F0000000 		.4byte	0xf0
 286 00b3 07       		.uleb128 0x7
 287 00b4 42010000 		.4byte	.LASF16
 288 00b8 03       		.byte	0x3
 289 00b9 6E       		.byte	0x6e
 290 00ba 6B000000 		.4byte	0x6b
 291 00be 00       		.byte	0
 292 00bf 07       		.uleb128 0x7
 293 00c0 00000000 		.4byte	.LASF17
 294 00c4 03       		.byte	0x3
 295 00c5 71       		.byte	0x71
 296 00c6 6B000000 		.4byte	0x6b
 297 00ca 01       		.byte	0x1
 298 00cb 07       		.uleb128 0x7
 299 00cc 1C000000 		.4byte	.LASF18
 300 00d0 03       		.byte	0x3
 301 00d1 73       		.byte	0x73
 302 00d2 6B000000 		.4byte	0x6b
 303 00d6 02       		.byte	0x2
 304 00d7 07       		.uleb128 0x7
 305 00d8 BD020000 		.4byte	.LASF19
 306 00dc 03       		.byte	0x3
 307 00dd 81       		.byte	0x81
 308 00de 6B000000 		.4byte	0x6b
 309 00e2 03       		.byte	0x3
 310 00e3 07       		.uleb128 0x7
 311 00e4 93000000 		.4byte	.LASF20
 312 00e8 03       		.byte	0x3
 313 00e9 86       		.byte	0x86
 314 00ea 6B000000 		.4byte	0x6b
 315 00ee 04       		.byte	0x4
 316 00ef 00       		.byte	0
 317 00f0 08       		.uleb128 0x8
 318 00f1 CA010000 		.4byte	.LASF21
 319 00f5 03       		.byte	0x3
 320 00f6 8B       		.byte	0x8b
 321 00f7 AB000000 		.4byte	0xab
 322 00fb 09       		.uleb128 0x9
 323 00fc 7A000000 		.4byte	.LASF22
 324 0100 01       		.byte	0x1
 325 0101 2A       		.byte	0x2a
 326 0102 00000000 		.4byte	.LFB0
ARM GAS  C:\Users\Armands\AppData\Local\Temp\ccgXqImo.s 			page 10


 327 0106 24000000 		.4byte	.LFE0-.LFB0
 328 010a 01       		.uleb128 0x1
 329 010b 9C       		.byte	0x9c
 330 010c 35010000 		.4byte	0x135
 331 0110 0A       		.uleb128 0xa
 332 0111 06000000 		.4byte	.LVL0
 333 0115 D0010000 		.4byte	0x1d0
 334 0119 0A       		.uleb128 0xa
 335 011a 0E000000 		.4byte	.LVL1
 336 011e DB010000 		.4byte	0x1db
 337 0122 0A       		.uleb128 0xa
 338 0123 14000000 		.4byte	.LVL2
 339 0127 E6010000 		.4byte	0x1e6
 340 012b 0A       		.uleb128 0xa
 341 012c 1A000000 		.4byte	.LVL3
 342 0130 F1010000 		.4byte	0x1f1
 343 0134 00       		.byte	0
 344 0135 09       		.uleb128 0x9
 345 0136 57020000 		.4byte	.LASF23
 346 013a 01       		.byte	0x1
 347 013b 58       		.byte	0x58
 348 013c 00000000 		.4byte	.LFB1
 349 0140 24000000 		.4byte	.LFE1-.LFB1
 350 0144 01       		.uleb128 0x1
 351 0145 9C       		.byte	0x9c
 352 0146 6F010000 		.4byte	0x16f
 353 014a 0A       		.uleb128 0xa
 354 014b 0A000000 		.4byte	.LVL4
 355 014f FC010000 		.4byte	0x1fc
 356 0153 0A       		.uleb128 0xa
 357 0154 10000000 		.4byte	.LVL5
 358 0158 07020000 		.4byte	0x207
 359 015c 0A       		.uleb128 0xa
 360 015d 16000000 		.4byte	.LVL6
 361 0161 12020000 		.4byte	0x212
 362 0165 0A       		.uleb128 0xa
 363 0166 1C000000 		.4byte	.LVL7
 364 016a 1D020000 		.4byte	0x21d
 365 016e 00       		.byte	0
 366 016f 09       		.uleb128 0x9
 367 0170 B5010000 		.4byte	.LASF24
 368 0174 01       		.byte	0x1
 369 0175 88       		.byte	0x88
 370 0176 00000000 		.4byte	.LFB2
 371 017a 2C000000 		.4byte	.LFE2-.LFB2
 372 017e 01       		.uleb128 0x1
 373 017f 9C       		.byte	0x9c
 374 0180 97010000 		.4byte	0x197
 375 0184 0A       		.uleb128 0xa
 376 0185 1E000000 		.4byte	.LVL8
 377 0189 28020000 		.4byte	0x228
 378 018d 0A       		.uleb128 0xa
 379 018e 22000000 		.4byte	.LVL9
 380 0192 FB000000 		.4byte	0xfb
 381 0196 00       		.byte	0
 382 0197 09       		.uleb128 0x9
 383 0198 2C020000 		.4byte	.LASF25
ARM GAS  C:\Users\Armands\AppData\Local\Temp\ccgXqImo.s 			page 11


 384 019c 01       		.byte	0x1
 385 019d B2       		.byte	0xb2
 386 019e 00000000 		.4byte	.LFB3
 387 01a2 18000000 		.4byte	.LFE3-.LFB3
 388 01a6 01       		.uleb128 0x1
 389 01a7 9C       		.byte	0x9c
 390 01a8 BF010000 		.4byte	0x1bf
 391 01ac 0A       		.uleb128 0xa
 392 01ad 06000000 		.4byte	.LVL10
 393 01b1 35010000 		.4byte	0x135
 394 01b5 0A       		.uleb128 0xa
 395 01b6 10000000 		.4byte	.LVL11
 396 01ba 33020000 		.4byte	0x233
 397 01be 00       		.byte	0
 398 01bf 0B       		.uleb128 0xb
 399 01c0 48000000 		.4byte	.LASF39
 400 01c4 01       		.byte	0x1
 401 01c5 14       		.byte	0x14
 402 01c6 F0000000 		.4byte	0xf0
 403 01ca 05       		.uleb128 0x5
 404 01cb 03       		.byte	0x3
 405 01cc 00000000 		.4byte	MOT_PWM_backup
 406 01d0 0C       		.uleb128 0xc
 407 01d1 A2010000 		.4byte	.LASF26
 408 01d5 A2010000 		.4byte	.LASF26
 409 01d9 03       		.byte	0x3
 410 01da C0       		.byte	0xc0
 411 01db 0C       		.uleb128 0xc
 412 01dc 18020000 		.4byte	.LASF27
 413 01e0 18020000 		.4byte	.LASF27
 414 01e4 03       		.byte	0x3
 415 01e5 B3       		.byte	0xb3
 416 01e6 0C       		.uleb128 0xc
 417 01e7 EC010000 		.4byte	.LASF28
 418 01eb EC010000 		.4byte	.LASF28
 419 01ef 03       		.byte	0x3
 420 01f0 D7       		.byte	0xd7
 421 01f1 0C       		.uleb128 0xc
 422 01f2 86010000 		.4byte	.LASF29
 423 01f6 86010000 		.4byte	.LASF29
 424 01fa 03       		.byte	0x3
 425 01fb 9D       		.byte	0x9d
 426 01fc 0C       		.uleb128 0xc
 427 01fd A0020000 		.4byte	.LASF30
 428 0201 A0020000 		.4byte	.LASF30
 429 0205 03       		.byte	0x3
 430 0206 BE       		.byte	0xbe
 431 0207 0C       		.uleb128 0xc
 432 0208 07000000 		.4byte	.LASF31
 433 020c 07000000 		.4byte	.LASF31
 434 0210 03       		.byte	0x3
 435 0211 BA       		.byte	0xba
 436 0212 0C       		.uleb128 0xc
 437 0213 57000000 		.4byte	.LASF32
 438 0217 57000000 		.4byte	.LASF32
 439 021b 03       		.byte	0x3
 440 021c D6       		.byte	0xd6
ARM GAS  C:\Users\Armands\AppData\Local\Temp\ccgXqImo.s 			page 12


 441 021d 0C       		.uleb128 0xc
 442 021e 51010000 		.4byte	.LASF33
 443 0222 51010000 		.4byte	.LASF33
 444 0226 03       		.byte	0x3
 445 0227 9E       		.byte	0x9e
 446 0228 0C       		.uleb128 0xc
 447 0229 6D000000 		.4byte	.LASF34
 448 022d 6D000000 		.4byte	.LASF34
 449 0231 03       		.byte	0x3
 450 0232 93       		.byte	0x93
 451 0233 0C       		.uleb128 0xc
 452 0234 26000000 		.4byte	.LASF35
 453 0238 26000000 		.4byte	.LASF35
 454 023c 03       		.byte	0x3
 455 023d DB       		.byte	0xdb
 456 023e 00       		.byte	0
 457              		.section	.debug_abbrev,"",%progbits
 458              	.Ldebug_abbrev0:
 459 0000 01       		.uleb128 0x1
 460 0001 11       		.uleb128 0x11
 461 0002 01       		.byte	0x1
 462 0003 25       		.uleb128 0x25
 463 0004 0E       		.uleb128 0xe
 464 0005 13       		.uleb128 0x13
 465 0006 0B       		.uleb128 0xb
 466 0007 03       		.uleb128 0x3
 467 0008 0E       		.uleb128 0xe
 468 0009 1B       		.uleb128 0x1b
 469 000a 0E       		.uleb128 0xe
 470 000b 55       		.uleb128 0x55
 471 000c 17       		.uleb128 0x17
 472 000d 11       		.uleb128 0x11
 473 000e 01       		.uleb128 0x1
 474 000f 10       		.uleb128 0x10
 475 0010 17       		.uleb128 0x17
 476 0011 00       		.byte	0
 477 0012 00       		.byte	0
 478 0013 02       		.uleb128 0x2
 479 0014 24       		.uleb128 0x24
 480 0015 00       		.byte	0
 481 0016 0B       		.uleb128 0xb
 482 0017 0B       		.uleb128 0xb
 483 0018 3E       		.uleb128 0x3e
 484 0019 0B       		.uleb128 0xb
 485 001a 03       		.uleb128 0x3
 486 001b 0E       		.uleb128 0xe
 487 001c 00       		.byte	0
 488 001d 00       		.byte	0
 489 001e 03       		.uleb128 0x3
 490 001f 24       		.uleb128 0x24
 491 0020 00       		.byte	0
 492 0021 0B       		.uleb128 0xb
 493 0022 0B       		.uleb128 0xb
 494 0023 3E       		.uleb128 0x3e
 495 0024 0B       		.uleb128 0xb
 496 0025 03       		.uleb128 0x3
 497 0026 08       		.uleb128 0x8
ARM GAS  C:\Users\Armands\AppData\Local\Temp\ccgXqImo.s 			page 13


 498 0027 00       		.byte	0
 499 0028 00       		.byte	0
 500 0029 04       		.uleb128 0x4
 501 002a 16       		.uleb128 0x16
 502 002b 00       		.byte	0
 503 002c 03       		.uleb128 0x3
 504 002d 0E       		.uleb128 0xe
 505 002e 3A       		.uleb128 0x3a
 506 002f 0B       		.uleb128 0xb
 507 0030 3B       		.uleb128 0x3b
 508 0031 05       		.uleb128 0x5
 509 0032 49       		.uleb128 0x49
 510 0033 13       		.uleb128 0x13
 511 0034 00       		.byte	0
 512 0035 00       		.byte	0
 513 0036 05       		.uleb128 0x5
 514 0037 35       		.uleb128 0x35
 515 0038 00       		.byte	0
 516 0039 49       		.uleb128 0x49
 517 003a 13       		.uleb128 0x13
 518 003b 00       		.byte	0
 519 003c 00       		.byte	0
 520 003d 06       		.uleb128 0x6
 521 003e 13       		.uleb128 0x13
 522 003f 01       		.byte	0x1
 523 0040 0B       		.uleb128 0xb
 524 0041 0B       		.uleb128 0xb
 525 0042 3A       		.uleb128 0x3a
 526 0043 0B       		.uleb128 0xb
 527 0044 3B       		.uleb128 0x3b
 528 0045 0B       		.uleb128 0xb
 529 0046 01       		.uleb128 0x1
 530 0047 13       		.uleb128 0x13
 531 0048 00       		.byte	0
 532 0049 00       		.byte	0
 533 004a 07       		.uleb128 0x7
 534 004b 0D       		.uleb128 0xd
 535 004c 00       		.byte	0
 536 004d 03       		.uleb128 0x3
 537 004e 0E       		.uleb128 0xe
 538 004f 3A       		.uleb128 0x3a
 539 0050 0B       		.uleb128 0xb
 540 0051 3B       		.uleb128 0x3b
 541 0052 0B       		.uleb128 0xb
 542 0053 49       		.uleb128 0x49
 543 0054 13       		.uleb128 0x13
 544 0055 38       		.uleb128 0x38
 545 0056 0B       		.uleb128 0xb
 546 0057 00       		.byte	0
 547 0058 00       		.byte	0
 548 0059 08       		.uleb128 0x8
 549 005a 16       		.uleb128 0x16
 550 005b 00       		.byte	0
 551 005c 03       		.uleb128 0x3
 552 005d 0E       		.uleb128 0xe
 553 005e 3A       		.uleb128 0x3a
 554 005f 0B       		.uleb128 0xb
ARM GAS  C:\Users\Armands\AppData\Local\Temp\ccgXqImo.s 			page 14


 555 0060 3B       		.uleb128 0x3b
 556 0061 0B       		.uleb128 0xb
 557 0062 49       		.uleb128 0x49
 558 0063 13       		.uleb128 0x13
 559 0064 00       		.byte	0
 560 0065 00       		.byte	0
 561 0066 09       		.uleb128 0x9
 562 0067 2E       		.uleb128 0x2e
 563 0068 01       		.byte	0x1
 564 0069 3F       		.uleb128 0x3f
 565 006a 19       		.uleb128 0x19
 566 006b 03       		.uleb128 0x3
 567 006c 0E       		.uleb128 0xe
 568 006d 3A       		.uleb128 0x3a
 569 006e 0B       		.uleb128 0xb
 570 006f 3B       		.uleb128 0x3b
 571 0070 0B       		.uleb128 0xb
 572 0071 27       		.uleb128 0x27
 573 0072 19       		.uleb128 0x19
 574 0073 11       		.uleb128 0x11
 575 0074 01       		.uleb128 0x1
 576 0075 12       		.uleb128 0x12
 577 0076 06       		.uleb128 0x6
 578 0077 40       		.uleb128 0x40
 579 0078 18       		.uleb128 0x18
 580 0079 9742     		.uleb128 0x2117
 581 007b 19       		.uleb128 0x19
 582 007c 01       		.uleb128 0x1
 583 007d 13       		.uleb128 0x13
 584 007e 00       		.byte	0
 585 007f 00       		.byte	0
 586 0080 0A       		.uleb128 0xa
 587 0081 898201   		.uleb128 0x4109
 588 0084 00       		.byte	0
 589 0085 11       		.uleb128 0x11
 590 0086 01       		.uleb128 0x1
 591 0087 31       		.uleb128 0x31
 592 0088 13       		.uleb128 0x13
 593 0089 00       		.byte	0
 594 008a 00       		.byte	0
 595 008b 0B       		.uleb128 0xb
 596 008c 34       		.uleb128 0x34
 597 008d 00       		.byte	0
 598 008e 03       		.uleb128 0x3
 599 008f 0E       		.uleb128 0xe
 600 0090 3A       		.uleb128 0x3a
 601 0091 0B       		.uleb128 0xb
 602 0092 3B       		.uleb128 0x3b
 603 0093 0B       		.uleb128 0xb
 604 0094 49       		.uleb128 0x49
 605 0095 13       		.uleb128 0x13
 606 0096 02       		.uleb128 0x2
 607 0097 18       		.uleb128 0x18
 608 0098 00       		.byte	0
 609 0099 00       		.byte	0
 610 009a 0C       		.uleb128 0xc
 611 009b 2E       		.uleb128 0x2e
ARM GAS  C:\Users\Armands\AppData\Local\Temp\ccgXqImo.s 			page 15


 612 009c 00       		.byte	0
 613 009d 3F       		.uleb128 0x3f
 614 009e 19       		.uleb128 0x19
 615 009f 3C       		.uleb128 0x3c
 616 00a0 19       		.uleb128 0x19
 617 00a1 6E       		.uleb128 0x6e
 618 00a2 0E       		.uleb128 0xe
 619 00a3 03       		.uleb128 0x3
 620 00a4 0E       		.uleb128 0xe
 621 00a5 3A       		.uleb128 0x3a
 622 00a6 0B       		.uleb128 0xb
 623 00a7 3B       		.uleb128 0x3b
 624 00a8 0B       		.uleb128 0xb
 625 00a9 00       		.byte	0
 626 00aa 00       		.byte	0
 627 00ab 00       		.byte	0
 628              		.section	.debug_aranges,"",%progbits
 629 0000 34000000 		.4byte	0x34
 630 0004 0200     		.2byte	0x2
 631 0006 00000000 		.4byte	.Ldebug_info0
 632 000a 04       		.byte	0x4
 633 000b 00       		.byte	0
 634 000c 0000     		.2byte	0
 635 000e 0000     		.2byte	0
 636 0010 00000000 		.4byte	.LFB0
 637 0014 24000000 		.4byte	.LFE0-.LFB0
 638 0018 00000000 		.4byte	.LFB1
 639 001c 24000000 		.4byte	.LFE1-.LFB1
 640 0020 00000000 		.4byte	.LFB2
 641 0024 2C000000 		.4byte	.LFE2-.LFB2
 642 0028 00000000 		.4byte	.LFB3
 643 002c 18000000 		.4byte	.LFE3-.LFB3
 644 0030 00000000 		.4byte	0
 645 0034 00000000 		.4byte	0
 646              		.section	.debug_ranges,"",%progbits
 647              	.Ldebug_ranges0:
 648 0000 00000000 		.4byte	.LFB0
 649 0004 24000000 		.4byte	.LFE0
 650 0008 00000000 		.4byte	.LFB1
 651 000c 24000000 		.4byte	.LFE1
 652 0010 00000000 		.4byte	.LFB2
 653 0014 2C000000 		.4byte	.LFE2
 654 0018 00000000 		.4byte	.LFB3
 655 001c 18000000 		.4byte	.LFE3
 656 0020 00000000 		.4byte	0
 657 0024 00000000 		.4byte	0
 658              		.section	.debug_line,"",%progbits
 659              	.Ldebug_line0:
 660 0000 AD000000 		.section	.debug_str,"MS",%progbits,1
 660      02005400 
 660      00000201 
 660      FB0E0D00 
 660      01010101 
 661              	.LASF17:
 662 0000 50574D55 		.ascii	"PWMUdb\000"
 662      646200
 663              	.LASF31:
ARM GAS  C:\Users\Armands\AppData\Local\Temp\ccgXqImo.s 			page 16


 664 0007 4D4F545F 		.ascii	"MOT_PWM_WriteCounter\000"
 664      50574D5F 
 664      57726974 
 664      65436F75 
 664      6E746572 
 665              	.LASF18:
 666 001c 50574D50 		.ascii	"PWMPeriod\000"
 666      6572696F 
 666      6400
 667              	.LASF35:
 668 0026 4D4F545F 		.ascii	"MOT_PWM_Enable\000"
 668      50574D5F 
 668      456E6162 
 668      6C6500
 669              	.LASF3:
 670 0035 73686F72 		.ascii	"short unsigned int\000"
 670      7420756E 
 670      7369676E 
 670      65642069 
 670      6E7400
 671              	.LASF39:
 672 0048 4D4F545F 		.ascii	"MOT_PWM_backup\000"
 672      50574D5F 
 672      6261636B 
 672      757000
 673              	.LASF32:
 674 0057 4D4F545F 		.ascii	"MOT_PWM_WriteKillTime\000"
 674      50574D5F 
 674      57726974 
 674      654B696C 
 674      6C54696D 
 675              	.LASF34:
 676 006d 4D4F545F 		.ascii	"MOT_PWM_Stop\000"
 676      50574D5F 
 676      53746F70 
 676      00
 677              	.LASF22:
 678 007a 4D4F545F 		.ascii	"MOT_PWM_SaveConfig\000"
 678      50574D5F 
 678      53617665 
 678      436F6E66 
 678      696700
 679              	.LASF9:
 680 008d 666C6F61 		.ascii	"float\000"
 680      7400
 681              	.LASF20:
 682 0093 50574D43 		.ascii	"PWMControlRegister\000"
 682      6F6E7472 
 682      6F6C5265 
 682      67697374 
 682      657200
 683              	.LASF1:
 684 00a6 756E7369 		.ascii	"unsigned char\000"
 684      676E6564 
 684      20636861 
 684      7200
 685              	.LASF36:
ARM GAS  C:\Users\Armands\AppData\Local\Temp\ccgXqImo.s 			page 17


 686 00b4 474E5520 		.ascii	"GNU C11 5.4.1 20160609 (release) [ARM/embedded-5-br"
 686      43313120 
 686      352E342E 
 686      31203230 
 686      31363036 
 687 00e7 616E6368 		.ascii	"anch revision 237715] -mcpu=cortex-m3 -mthumb -g -O"
 687      20726576 
 687      6973696F 
 687      6E203233 
 687      37373135 
 688 011a 67202D66 		.ascii	"g -ffunction-sections -ffat-lto-objects\000"
 688      66756E63 
 688      74696F6E 
 688      2D736563 
 688      74696F6E 
 689              	.LASF16:
 690 0142 50574D45 		.ascii	"PWMEnableState\000"
 690      6E61626C 
 690      65537461 
 690      746500
 691              	.LASF33:
 692 0151 4D4F545F 		.ascii	"MOT_PWM_WriteControlRegister\000"
 692      50574D5F 
 692      57726974 
 692      65436F6E 
 692      74726F6C 
 693              	.LASF5:
 694 016e 6C6F6E67 		.ascii	"long unsigned int\000"
 694      20756E73 
 694      69676E65 
 694      6420696E 
 694      7400
 695              	.LASF12:
 696 0180 75696E74 		.ascii	"uint8\000"
 696      3800
 697              	.LASF29:
 698 0186 4D4F545F 		.ascii	"MOT_PWM_ReadControlRegister\000"
 698      50574D5F 
 698      52656164 
 698      436F6E74 
 698      726F6C52 
 699              	.LASF26:
 700 01a2 4D4F545F 		.ascii	"MOT_PWM_ReadPeriod\000"
 700      50574D5F 
 700      52656164 
 700      50657269 
 700      6F6400
 701              	.LASF24:
 702 01b5 4D4F545F 		.ascii	"MOT_PWM_Sleep\000"
 702      50574D5F 
 702      536C6565 
 702      7000
 703              	.LASF10:
 704 01c3 646F7562 		.ascii	"double\000"
 704      6C6500
 705              	.LASF21:
 706 01ca 4D4F545F 		.ascii	"MOT_PWM_backupStruct\000"
ARM GAS  C:\Users\Armands\AppData\Local\Temp\ccgXqImo.s 			page 18


 706      50574D5F 
 706      6261636B 
 706      75705374 
 706      72756374 
 707              	.LASF8:
 708 01df 756E7369 		.ascii	"unsigned int\000"
 708      676E6564 
 708      20696E74 
 708      00
 709              	.LASF28:
 710 01ec 4D4F545F 		.ascii	"MOT_PWM_ReadKillTime\000"
 710      50574D5F 
 710      52656164 
 710      4B696C6C 
 710      54696D65 
 711              	.LASF7:
 712 0201 6C6F6E67 		.ascii	"long long unsigned int\000"
 712      206C6F6E 
 712      6720756E 
 712      7369676E 
 712      65642069 
 713              	.LASF27:
 714 0218 4D4F545F 		.ascii	"MOT_PWM_ReadCounter\000"
 714      50574D5F 
 714      52656164 
 714      436F756E 
 714      74657200 
 715              	.LASF25:
 716 022c 4D4F545F 		.ascii	"MOT_PWM_Wakeup\000"
 716      50574D5F 
 716      57616B65 
 716      757000
 717              	.LASF13:
 718 023b 72656738 		.ascii	"reg8\000"
 718      00
 719              	.LASF15:
 720 0240 73697A65 		.ascii	"sizetype\000"
 720      74797065 
 720      00
 721              	.LASF6:
 722 0249 6C6F6E67 		.ascii	"long long int\000"
 722      206C6F6E 
 722      6720696E 
 722      7400
 723              	.LASF23:
 724 0257 4D4F545F 		.ascii	"MOT_PWM_RestoreConfig\000"
 724      50574D5F 
 724      52657374 
 724      6F726543 
 724      6F6E6669 
 725              	.LASF11:
 726 026d 63686172 		.ascii	"char\000"
 726      00
 727              	.LASF2:
 728 0272 73686F72 		.ascii	"short int\000"
 728      7420696E 
 728      7400
ARM GAS  C:\Users\Armands\AppData\Local\Temp\ccgXqImo.s 			page 19


 729              	.LASF37:
 730 027c 47656E65 		.ascii	"Generated_Source\\PSoC5\\MOT_PWM_PM.c\000"
 730      72617465 
 730      645F536F 
 730      75726365 
 730      5C50536F 
 731              	.LASF30:
 732 02a0 4D4F545F 		.ascii	"MOT_PWM_WritePeriod\000"
 732      50574D5F 
 732      57726974 
 732      65506572 
 732      696F6400 
 733              	.LASF4:
 734 02b4 6C6F6E67 		.ascii	"long int\000"
 734      20696E74 
 734      00
 735              	.LASF19:
 736 02bd 50574D4B 		.ascii	"PWMKillCounterPeriod\000"
 736      696C6C43 
 736      6F756E74 
 736      65725065 
 736      72696F64 
 737              	.LASF14:
 738 02d2 6C6F6E67 		.ascii	"long double\000"
 738      20646F75 
 738      626C6500 
 739              	.LASF0:
 740 02de 7369676E 		.ascii	"signed char\000"
 740      65642063 
 740      68617200 
 741              	.LASF38:
 742 02ea 433A5C55 		.ascii	"C:\\Users\\Armands\\Documents\\bolt_sumo_code\\BOLT"
 742      73657273 
 742      5C41726D 
 742      616E6473 
 742      5C446F63 
 743 0318 5F73756D 		.ascii	"_sumo.cydsn\000"
 743      6F2E6379 
 743      64736E00 
 744              		.ident	"GCC: (GNU Tools for ARM Embedded Processors) 5.4.1 20160609 (release) [ARM/embedded-5-bran
