ARM GAS  C:\Users\Armands\AppData\Local\Temp\ccZR2QL2.s 			page 1


   1              		.syntax unified
   2              		.cpu cortex-m3
   3              		.fpu softvfp
   4              		.eabi_attribute 20, 1
   5              		.eabi_attribute 21, 1
   6              		.eabi_attribute 23, 3
   7              		.eabi_attribute 24, 1
   8              		.eabi_attribute 25, 1
   9              		.eabi_attribute 26, 1
  10              		.eabi_attribute 30, 1
  11              		.eabi_attribute 34, 1
  12              		.eabi_attribute 18, 4
  13              		.thumb
  14              		.syntax unified
  15              		.file	"tactic0_basic.c"
  16              		.text
  17              	.Ltext0:
  18              		.cfi_sections	.debug_frame
  19              		.section	.text.DoSomething,"ax",%progbits
  20              		.align	2
  21              		.thumb
  22              		.thumb_func
  23              		.type	DoSomething, %function
  24              	DoSomething:
  25              	.LFB66:
  26              		.file 1 "tactic0_basic.c"
   1:tactic0_basic.c **** /* ========================================
   2:tactic0_basic.c ****  *
   3:tactic0_basic.c ****  * Copyright YOUR COMPANY, THE YEAR
   4:tactic0_basic.c ****  * All Rights Reserved
   5:tactic0_basic.c ****  * UNPUBLISHED, LICENSED SOFTWARE.
   6:tactic0_basic.c ****  *
   7:tactic0_basic.c ****  * CONFIDENTIAL AND PROPRIETARY INFORMATION
   8:tactic0_basic.c ****  * WHICH IS THE PROPERTY OF your company.
   9:tactic0_basic.c ****  *
  10:tactic0_basic.c ****  * ========================================
  11:tactic0_basic.c **** */
  12:tactic0_basic.c **** #include <project.h>
  13:tactic0_basic.c **** #include "tactic0_basic.h"
  14:tactic0_basic.c **** #include "sensors.h"
  15:tactic0_basic.c **** #include "timer_time.h"
  16:tactic0_basic.c **** #include "drive.h"
  17:tactic0_basic.c **** #include "first_move.h"
  18:tactic0_basic.c **** 
  19:tactic0_basic.c **** //=============================================================================
  20:tactic0_basic.c **** // Private defines and typedefs
  21:tactic0_basic.c **** //=============================================================================
  22:tactic0_basic.c **** #define Rd_bits(value, mask)        ((value)&(mask))
  23:tactic0_basic.c **** 
  24:tactic0_basic.c **** #define SEARCH_PWM_L  25
  25:tactic0_basic.c **** #define SEARCH_PWM_R  25
  26:tactic0_basic.c **** #define TURN_PWM    40
  27:tactic0_basic.c **** //#define ATTACK_PWM  70
  28:tactic0_basic.c **** 
  29:tactic0_basic.c **** //=============================================================================
  30:tactic0_basic.c **** // Private function declarations
  31:tactic0_basic.c **** //=============================================================================
ARM GAS  C:\Users\Armands\AppData\Local\Temp\ccZR2QL2.s 			page 2


  32:tactic0_basic.c **** static void ActOnEnemySpotted(void);
  33:tactic0_basic.c **** static void ActOnLineDetected(void);
  34:tactic0_basic.c **** static void DoSomething(void);
  35:tactic0_basic.c **** 
  36:tactic0_basic.c **** //=============================================================================
  37:tactic0_basic.c **** // Private data definitions
  38:tactic0_basic.c **** //=============================================================================
  39:tactic0_basic.c **** static uint8_t lineSens = 0;
  40:tactic0_basic.c **** static uint8_t distSens = 0;
  41:tactic0_basic.c **** int speed_pwm = 80;
  42:tactic0_basic.c **** 
  43:tactic0_basic.c **** //=============================================================================
  44:tactic0_basic.c **** // Public function definitions
  45:tactic0_basic.c **** //=============================================================================
  46:tactic0_basic.c **** 
  47:tactic0_basic.c **** //-----------------------------------------------------------------------------
  48:tactic0_basic.c **** //! \brief	Combat tactic #1 in action
  49:tactic0_basic.c **** //-----------------------------------------------------------------------------
  50:tactic0_basic.c **** void RunTactic0(int firstMove, int speedlimit)
  51:tactic0_basic.c **** {
  52:tactic0_basic.c ****     WaitForIRStart();
  53:tactic0_basic.c ****     speed_pwm = speedlimit;
  54:tactic0_basic.c ****     // ============================ First move ================================
  55:tactic0_basic.c **** 
  56:tactic0_basic.c ****     firstMoveSelector(firstMove);
  57:tactic0_basic.c ****     
  58:tactic0_basic.c ****     
  59:tactic0_basic.c ****     //drive_forward(SEARCH_PWM_L, SEARCH_PWM_R);
  60:tactic0_basic.c ****     //CyDelay(50);
  61:tactic0_basic.c **** 
  62:tactic0_basic.c **** 
  63:tactic0_basic.c ****     // ============================= Main loop ================================
  64:tactic0_basic.c ****     uint32_t timout_time = millis();
  65:tactic0_basic.c ****     while (1) {
  66:tactic0_basic.c **** 		// read all sensors
  67:tactic0_basic.c **** 		lineSens = LineSensRead();
  68:tactic0_basic.c **** 	    distSens = DistSensRead(); //Distance_sensor_value_Read();
  69:tactic0_basic.c ****         //Sensor_Reset_Write(0xFF);  // why???
  70:tactic0_basic.c ****         
  71:tactic0_basic.c ****         //Sensor_Reset_Write(0); 
  72:tactic0_basic.c **** 
  73:tactic0_basic.c **** 		if( 0 < lineSens ){
  74:tactic0_basic.c **** 			// line has detected
  75:tactic0_basic.c **** 		    ActOnLineDetected();
  76:tactic0_basic.c **** 			timout_time = millis();
  77:tactic0_basic.c **** 		}
  78:tactic0_basic.c **** 		else if( 0 < distSens ){
  79:tactic0_basic.c **** 			// opponent spotted
  80:tactic0_basic.c **** 			ActOnEnemySpotted();
  81:tactic0_basic.c **** 			timout_time = millis();
  82:tactic0_basic.c **** 		}
  83:tactic0_basic.c ****         else {
  84:tactic0_basic.c ****             drive_forward(gMotor.basic_speed, gMotor.basic_speed);
  85:tactic0_basic.c ****             //CyDelay(50);
  86:tactic0_basic.c ****         }
  87:tactic0_basic.c **** 
  88:tactic0_basic.c **** 		if( 3000 < millis() - timout_time ){
ARM GAS  C:\Users\Armands\AppData\Local\Temp\ccZR2QL2.s 			page 3


  89:tactic0_basic.c **** 			timout_time = millis();
  90:tactic0_basic.c **** 			DoSomething();
  91:tactic0_basic.c ****             Servo_enable_Write(0);
  92:tactic0_basic.c **** 		}
  93:tactic0_basic.c ****     }
  94:tactic0_basic.c **** }
  95:tactic0_basic.c **** 
  96:tactic0_basic.c **** //=============================================================================
  97:tactic0_basic.c **** // Private function definitions
  98:tactic0_basic.c **** //=============================================================================
  99:tactic0_basic.c **** 
 100:tactic0_basic.c **** //! \brief	Act on opponent spotted event
 101:tactic0_basic.c **** void ActOnEnemySpotted(void){
 102:tactic0_basic.c **** 
 103:tactic0_basic.c **** 
 104:tactic0_basic.c **** 	    int distSens = DistSensRead(); //Distance_sensor_value_Read();
 105:tactic0_basic.c ****         //Sensor_Reset_Write(0xFF);  // why???
 106:tactic0_basic.c ****         
 107:tactic0_basic.c ****         //Sensor_Reset_Write(0); 
 108:tactic0_basic.c **** 
 109:tactic0_basic.c ****     	if( 0 < distSens ){
 110:tactic0_basic.c ****             int8_t avrg_angle_grad = CalcAvrgAngle();
 111:tactic0_basic.c **** 
 112:tactic0_basic.c ****         	int8_t pwm = 60;
 113:tactic0_basic.c ****             // Attack spotted opponent
 114:tactic0_basic.c ****         	if( 0 == avrg_angle_grad ){
 115:tactic0_basic.c ****         		drive_forward( speed_pwm , speed_pwm );		// drive forward
 116:tactic0_basic.c ****         		CyDelay(40);
 117:tactic0_basic.c ****         	}else if( -60 >= avrg_angle_grad ){
 118:tactic0_basic.c ****         		// [-90; -60] grad
 119:tactic0_basic.c ****         		turn_left(TURN_PWM,TURN_PWM); //drive_motors( -pwm, pwm );		// turn on spot left
 120:tactic0_basic.c ****                 CyDelay(40);
 121:tactic0_basic.c ****         	}else if( -30 >= avrg_angle_grad ){
 122:tactic0_basic.c ****         		// (-60; -30] grad
 123:tactic0_basic.c ****         		drive_forward( pwm / 3, pwm );	// drive more left
 124:tactic0_basic.c ****                 CyDelay(30);
 125:tactic0_basic.c ****         	}else if( 0 > avrg_angle_grad ){
 126:tactic0_basic.c ****         		// (-30; 0) grad
 127:tactic0_basic.c ****         		drive_forward( speed_pwm * 0.7, speed_pwm );	// drive little left
 128:tactic0_basic.c ****                 CyDelay(40);
 129:tactic0_basic.c ****         	}else if( 60 <= avrg_angle_grad ){
 130:tactic0_basic.c ****         		// [60; 90] grad
 131:tactic0_basic.c ****         		turn_right(TURN_PWM,TURN_PWM); //drive_motors( pwm, -pwm );		// turn on spot right
 132:tactic0_basic.c ****                 CyDelay(40);
 133:tactic0_basic.c ****         	}else if( 30 <= avrg_angle_grad ){
 134:tactic0_basic.c ****         		// [30; 60) grad
 135:tactic0_basic.c ****         		drive_forward( pwm, pwm / 3 );	// drive more right
 136:tactic0_basic.c ****                 CyDelay(30);
 137:tactic0_basic.c ****         	}else if( 0 <= avrg_angle_grad ){
 138:tactic0_basic.c ****         		// (0; 30) grad
 139:tactic0_basic.c ****         		drive_forward( speed_pwm, speed_pwm * 0.7 );	// drive little right
 140:tactic0_basic.c ****                 CyDelay(40);
 141:tactic0_basic.c ****         	}
 142:tactic0_basic.c ****             CyDelay(10);
 143:tactic0_basic.c **** 
 144:tactic0_basic.c ****     		}
 145:tactic0_basic.c ****         else {
ARM GAS  C:\Users\Armands\AppData\Local\Temp\ccZR2QL2.s 			page 4


 146:tactic0_basic.c ****             drive_forward(30, 30);
 147:tactic0_basic.c ****             //CyDelay(50);
 148:tactic0_basic.c ****         }
 149:tactic0_basic.c ****        
 150:tactic0_basic.c **** }
 151:tactic0_basic.c **** 
 152:tactic0_basic.c **** //! \brief	Act on line detected event
 153:tactic0_basic.c **** void ActOnLineDetected(void){
 154:tactic0_basic.c **** 	//int lineSens = LineSensRead();
 155:tactic0_basic.c ****      
 156:tactic0_basic.c **** 	// Line_FL && Line_FR
 157:tactic0_basic.c **** 	if(gLine.F_LEFT && gLine.F_RIGHT){
 158:tactic0_basic.c ****         drive_backward(40,40); //drive_distance_straight_backward(10, 40);
 159:tactic0_basic.c ****         CyDelay(400);
 160:tactic0_basic.c ****         //turn_angle_right(170,50);
 161:tactic0_basic.c ****         turn_left(TURN_PWM,TURN_PWM); //turn_angle_right(180, TURN_PWM );
 162:tactic0_basic.c ****         CyDelay(300);
 163:tactic0_basic.c **** 	}
 164:tactic0_basic.c **** 	// Line_FL
 165:tactic0_basic.c **** 	else if(gLine.F_LEFT){
 166:tactic0_basic.c ****         drive_backward(40,40); //drive_distance_straight_backward(10, 40);
 167:tactic0_basic.c ****         CyDelay(150);
 168:tactic0_basic.c ****         turn_right(TURN_PWM,TURN_PWM); //turn_angle_right(135, TURN_PWM );
 169:tactic0_basic.c ****         CyDelay(200);
 170:tactic0_basic.c **** 	}
 171:tactic0_basic.c **** 	// Line_FR
 172:tactic0_basic.c **** 	else if(gLine.F_RIGHT){
 173:tactic0_basic.c ****         drive_backward(40,40); //drive_distance_straight_backward(10, 40);
 174:tactic0_basic.c ****         CyDelay(150);
 175:tactic0_basic.c ****         turn_left(TURN_PWM,TURN_PWM); //turn_angle_left(135, TURN_PWM );
 176:tactic0_basic.c ****         CyDelay(200);
 177:tactic0_basic.c **** 	}
 178:tactic0_basic.c ****     //drive_forward( 0, 0 );
 179:tactic0_basic.c **** }
 180:tactic0_basic.c **** 
 181:tactic0_basic.c **** //! \brief	Do something when opponent is not visible
 182:tactic0_basic.c **** void DoSomething(void){
  27              		.loc 1 182 0
  28              		.cfi_startproc
  29              		@ args = 0, pretend = 0, frame = 0
  30              		@ frame_needed = 0, uses_anonymous_args = 0
  31 0000 08B5     		push	{r3, lr}
  32              		.cfi_def_cfa_offset 8
  33              		.cfi_offset 3, -8
  34              		.cfi_offset 14, -4
 183:tactic0_basic.c **** 	// Drive little forward.
 184:tactic0_basic.c ****     //drive_forward( 40, 40 );
 185:tactic0_basic.c ****     //CyDelay(50);
 186:tactic0_basic.c ****     drive_forward( 0, 0 ); // BREAK A BIT FOR FUN
  35              		.loc 1 186 0
  36 0002 0021     		movs	r1, #0
  37 0004 0846     		mov	r0, r1
  38 0006 FFF7FEFF 		bl	drive_forward
  39              	.LVL0:
 187:tactic0_basic.c ****     CyDelay(50);
  40              		.loc 1 187 0
  41 000a 3220     		movs	r0, #50
ARM GAS  C:\Users\Armands\AppData\Local\Temp\ccZR2QL2.s 			page 5


  42 000c FFF7FEFF 		bl	CyDelay
  43              	.LVL1:
  44 0010 08BD     		pop	{r3, pc}
  45              		.cfi_endproc
  46              	.LFE66:
  47              		.size	DoSomething, .-DoSomething
  48 0012 00BF     		.section	.text.ActOnLineDetected,"ax",%progbits
  49              		.align	2
  50              		.thumb
  51              		.thumb_func
  52              		.type	ActOnLineDetected, %function
  53              	ActOnLineDetected:
  54              	.LFB65:
 153:tactic0_basic.c **** 	//int lineSens = LineSensRead();
  55              		.loc 1 153 0
  56              		.cfi_startproc
  57              		@ args = 0, pretend = 0, frame = 0
  58              		@ frame_needed = 0, uses_anonymous_args = 0
  59 0000 08B5     		push	{r3, lr}
  60              		.cfi_def_cfa_offset 8
  61              		.cfi_offset 3, -8
  62              		.cfi_offset 14, -4
 157:tactic0_basic.c ****         drive_backward(40,40); //drive_distance_straight_backward(10, 40);
  63              		.loc 1 157 0
  64 0002 1C4B     		ldr	r3, .L8
  65 0004 9B69     		ldr	r3, [r3, #24]
  66 0006 9BB1     		cbz	r3, .L4
 157:tactic0_basic.c ****         drive_backward(40,40); //drive_distance_straight_backward(10, 40);
  67              		.loc 1 157 0 is_stmt 0 discriminator 1
  68 0008 1A4A     		ldr	r2, .L8
  69 000a D269     		ldr	r2, [r2, #28]
  70 000c 82B1     		cbz	r2, .L4
 158:tactic0_basic.c ****         CyDelay(400);
  71              		.loc 1 158 0 is_stmt 1
  72 000e 2821     		movs	r1, #40
  73 0010 0846     		mov	r0, r1
  74 0012 FFF7FEFF 		bl	drive_backward
  75              	.LVL2:
 159:tactic0_basic.c ****         //turn_angle_right(170,50);
  76              		.loc 1 159 0
  77 0016 4FF4C870 		mov	r0, #400
  78 001a FFF7FEFF 		bl	CyDelay
  79              	.LVL3:
 161:tactic0_basic.c ****         CyDelay(300);
  80              		.loc 1 161 0
  81 001e 2821     		movs	r1, #40
  82 0020 0846     		mov	r0, r1
  83 0022 FFF7FEFF 		bl	turn_left
  84              	.LVL4:
 162:tactic0_basic.c **** 	}
  85              		.loc 1 162 0
  86 0026 4FF49670 		mov	r0, #300
  87 002a FFF7FEFF 		bl	CyDelay
  88              	.LVL5:
  89 002e 08BD     		pop	{r3, pc}
  90              	.L4:
 165:tactic0_basic.c ****         drive_backward(40,40); //drive_distance_straight_backward(10, 40);
ARM GAS  C:\Users\Armands\AppData\Local\Temp\ccZR2QL2.s 			page 6


  91              		.loc 1 165 0
  92 0030 73B1     		cbz	r3, .L6
 166:tactic0_basic.c ****         CyDelay(150);
  93              		.loc 1 166 0
  94 0032 2821     		movs	r1, #40
  95 0034 0846     		mov	r0, r1
  96 0036 FFF7FEFF 		bl	drive_backward
  97              	.LVL6:
 167:tactic0_basic.c ****         turn_right(TURN_PWM,TURN_PWM); //turn_angle_right(135, TURN_PWM );
  98              		.loc 1 167 0
  99 003a 9620     		movs	r0, #150
 100 003c FFF7FEFF 		bl	CyDelay
 101              	.LVL7:
 168:tactic0_basic.c ****         CyDelay(200);
 102              		.loc 1 168 0
 103 0040 2821     		movs	r1, #40
 104 0042 0846     		mov	r0, r1
 105 0044 FFF7FEFF 		bl	turn_right
 106              	.LVL8:
 169:tactic0_basic.c **** 	}
 107              		.loc 1 169 0
 108 0048 C820     		movs	r0, #200
 109 004a FFF7FEFF 		bl	CyDelay
 110              	.LVL9:
 111 004e 08BD     		pop	{r3, pc}
 112              	.L6:
 172:tactic0_basic.c ****         drive_backward(40,40); //drive_distance_straight_backward(10, 40);
 113              		.loc 1 172 0
 114 0050 084B     		ldr	r3, .L8
 115 0052 DB69     		ldr	r3, [r3, #28]
 116 0054 6BB1     		cbz	r3, .L3
 173:tactic0_basic.c ****         CyDelay(150);
 117              		.loc 1 173 0
 118 0056 2821     		movs	r1, #40
 119 0058 0846     		mov	r0, r1
 120 005a FFF7FEFF 		bl	drive_backward
 121              	.LVL10:
 174:tactic0_basic.c ****         turn_left(TURN_PWM,TURN_PWM); //turn_angle_left(135, TURN_PWM );
 122              		.loc 1 174 0
 123 005e 9620     		movs	r0, #150
 124 0060 FFF7FEFF 		bl	CyDelay
 125              	.LVL11:
 175:tactic0_basic.c ****         CyDelay(200);
 126              		.loc 1 175 0
 127 0064 2821     		movs	r1, #40
 128 0066 0846     		mov	r0, r1
 129 0068 FFF7FEFF 		bl	turn_left
 130              	.LVL12:
 176:tactic0_basic.c **** 	}
 131              		.loc 1 176 0
 132 006c C820     		movs	r0, #200
 133 006e FFF7FEFF 		bl	CyDelay
 134              	.LVL13:
 135              	.L3:
 136 0072 08BD     		pop	{r3, pc}
 137              	.L9:
 138              		.align	2
ARM GAS  C:\Users\Armands\AppData\Local\Temp\ccZR2QL2.s 			page 7


 139              	.L8:
 140 0074 00000000 		.word	gLine
 141              		.cfi_endproc
 142              	.LFE65:
 143              		.size	ActOnLineDetected, .-ActOnLineDetected
 144              		.global	__aeabi_i2d
 145              		.global	__aeabi_dmul
 146              		.global	__aeabi_d2iz
 147              		.section	.text.ActOnEnemySpotted,"ax",%progbits
 148              		.align	2
 149              		.thumb
 150              		.thumb_func
 151              		.type	ActOnEnemySpotted, %function
 152              	ActOnEnemySpotted:
 153              	.LFB64:
 101:tactic0_basic.c **** 
 154              		.loc 1 101 0
 155              		.cfi_startproc
 156              		@ args = 0, pretend = 0, frame = 0
 157              		@ frame_needed = 0, uses_anonymous_args = 0
 158 0000 10B5     		push	{r4, lr}
 159              		.cfi_def_cfa_offset 8
 160              		.cfi_offset 4, -8
 161              		.cfi_offset 14, -4
 104:tactic0_basic.c ****         //Sensor_Reset_Write(0xFF);  // why???
 162              		.loc 1 104 0
 163 0002 FFF7FEFF 		bl	DistSensRead
 164              	.LVL14:
 109:tactic0_basic.c ****             int8_t avrg_angle_grad = CalcAvrgAngle();
 165              		.loc 1 109 0
 166 0006 0028     		cmp	r0, #0
 167 0008 63DD     		ble	.L11
 168              	.LBB2:
 110:tactic0_basic.c **** 
 169              		.loc 1 110 0
 170 000a FFF7FEFF 		bl	CalcAvrgAngle
 171              	.LVL15:
 114:tactic0_basic.c ****         		drive_forward( speed_pwm , speed_pwm );		// drive forward
 172              		.loc 1 114 0
 173 000e 40B9     		cbnz	r0, .L12
 115:tactic0_basic.c ****         		CyDelay(40);
 174              		.loc 1 115 0
 175 0010 354B     		ldr	r3, .L21+8
 176 0012 1868     		ldr	r0, [r3]
 177              	.LVL16:
 178 0014 0146     		mov	r1, r0
 179 0016 FFF7FEFF 		bl	drive_forward
 180              	.LVL17:
 116:tactic0_basic.c ****         	}else if( -60 >= avrg_angle_grad ){
 181              		.loc 1 116 0
 182 001a 2820     		movs	r0, #40
 183 001c FFF7FEFF 		bl	CyDelay
 184              	.LVL18:
 185 0020 53E0     		b	.L13
 186              	.LVL19:
 187              	.L12:
 117:tactic0_basic.c ****         		// [-90; -60] grad
ARM GAS  C:\Users\Armands\AppData\Local\Temp\ccZR2QL2.s 			page 8


 188              		.loc 1 117 0
 189 0022 10F13B0F 		cmn	r0, #59
 190 0026 07DA     		bge	.L14
 119:tactic0_basic.c ****                 CyDelay(40);
 191              		.loc 1 119 0
 192 0028 2821     		movs	r1, #40
 193 002a 0846     		mov	r0, r1
 194              	.LVL20:
 195 002c FFF7FEFF 		bl	turn_left
 196              	.LVL21:
 120:tactic0_basic.c ****         	}else if( -30 >= avrg_angle_grad ){
 197              		.loc 1 120 0
 198 0030 2820     		movs	r0, #40
 199 0032 FFF7FEFF 		bl	CyDelay
 200              	.LVL22:
 201 0036 48E0     		b	.L13
 202              	.LVL23:
 203              	.L14:
 121:tactic0_basic.c ****         		// (-60; -30] grad
 204              		.loc 1 121 0
 205 0038 10F11D0F 		cmn	r0, #29
 206 003c 07DA     		bge	.L15
 123:tactic0_basic.c ****                 CyDelay(30);
 207              		.loc 1 123 0
 208 003e 3C21     		movs	r1, #60
 209 0040 1420     		movs	r0, #20
 210              	.LVL24:
 211 0042 FFF7FEFF 		bl	drive_forward
 212              	.LVL25:
 124:tactic0_basic.c ****         	}else if( 0 > avrg_angle_grad ){
 213              		.loc 1 124 0
 214 0046 1E20     		movs	r0, #30
 215 0048 FFF7FEFF 		bl	CyDelay
 216              	.LVL26:
 217 004c 3DE0     		b	.L13
 218              	.LVL27:
 219              	.L15:
 125:tactic0_basic.c ****         		// (-30; 0) grad
 220              		.loc 1 125 0
 221 004e 0028     		cmp	r0, #0
 222 0050 12DA     		bge	.L16
 127:tactic0_basic.c ****                 CyDelay(40);
 223              		.loc 1 127 0
 224 0052 254B     		ldr	r3, .L21+8
 225 0054 1C68     		ldr	r4, [r3]
 226 0056 2046     		mov	r0, r4
 227              	.LVL28:
 228 0058 FFF7FEFF 		bl	__aeabi_i2d
 229              	.LVL29:
 230 005c 20A3     		adr	r3, .L21
 231 005e D3E90023 		ldrd	r2, [r3]
 232 0062 FFF7FEFF 		bl	__aeabi_dmul
 233              	.LVL30:
 234 0066 FFF7FEFF 		bl	__aeabi_d2iz
 235              	.LVL31:
 236 006a 2146     		mov	r1, r4
 237 006c FFF7FEFF 		bl	drive_forward
ARM GAS  C:\Users\Armands\AppData\Local\Temp\ccZR2QL2.s 			page 9


 238              	.LVL32:
 128:tactic0_basic.c ****         	}else if( 60 <= avrg_angle_grad ){
 239              		.loc 1 128 0
 240 0070 2820     		movs	r0, #40
 241 0072 FFF7FEFF 		bl	CyDelay
 242              	.LVL33:
 243 0076 28E0     		b	.L13
 244              	.LVL34:
 245              	.L16:
 129:tactic0_basic.c ****         		// [60; 90] grad
 246              		.loc 1 129 0
 247 0078 3B28     		cmp	r0, #59
 248 007a 07DD     		ble	.L17
 131:tactic0_basic.c ****                 CyDelay(40);
 249              		.loc 1 131 0
 250 007c 2821     		movs	r1, #40
 251 007e 0846     		mov	r0, r1
 252              	.LVL35:
 253 0080 FFF7FEFF 		bl	turn_right
 254              	.LVL36:
 132:tactic0_basic.c ****         	}else if( 30 <= avrg_angle_grad ){
 255              		.loc 1 132 0
 256 0084 2820     		movs	r0, #40
 257 0086 FFF7FEFF 		bl	CyDelay
 258              	.LVL37:
 259 008a 1EE0     		b	.L13
 260              	.LVL38:
 261              	.L17:
 133:tactic0_basic.c ****         		// [30; 60) grad
 262              		.loc 1 133 0
 263 008c 1D28     		cmp	r0, #29
 264 008e 07DD     		ble	.L18
 135:tactic0_basic.c ****                 CyDelay(30);
 265              		.loc 1 135 0
 266 0090 1421     		movs	r1, #20
 267 0092 3C20     		movs	r0, #60
 268              	.LVL39:
 269 0094 FFF7FEFF 		bl	drive_forward
 270              	.LVL40:
 136:tactic0_basic.c ****         	}else if( 0 <= avrg_angle_grad ){
 271              		.loc 1 136 0
 272 0098 1E20     		movs	r0, #30
 273 009a FFF7FEFF 		bl	CyDelay
 274              	.LVL41:
 275 009e 14E0     		b	.L13
 276              	.LVL42:
 277              	.L18:
 137:tactic0_basic.c ****         		// (0; 30) grad
 278              		.loc 1 137 0
 279 00a0 0028     		cmp	r0, #0
 280 00a2 12DB     		blt	.L13
 139:tactic0_basic.c ****                 CyDelay(40);
 281              		.loc 1 139 0
 282 00a4 104B     		ldr	r3, .L21+8
 283 00a6 1C68     		ldr	r4, [r3]
 284 00a8 2046     		mov	r0, r4
 285              	.LVL43:
ARM GAS  C:\Users\Armands\AppData\Local\Temp\ccZR2QL2.s 			page 10


 286 00aa FFF7FEFF 		bl	__aeabi_i2d
 287              	.LVL44:
 288 00ae 0CA3     		adr	r3, .L21
 289 00b0 D3E90023 		ldrd	r2, [r3]
 290 00b4 FFF7FEFF 		bl	__aeabi_dmul
 291              	.LVL45:
 292 00b8 FFF7FEFF 		bl	__aeabi_d2iz
 293              	.LVL46:
 294 00bc 0146     		mov	r1, r0
 295 00be 2046     		mov	r0, r4
 296 00c0 FFF7FEFF 		bl	drive_forward
 297              	.LVL47:
 140:tactic0_basic.c ****         	}
 298              		.loc 1 140 0
 299 00c4 2820     		movs	r0, #40
 300 00c6 FFF7FEFF 		bl	CyDelay
 301              	.LVL48:
 302              	.L13:
 142:tactic0_basic.c **** 
 303              		.loc 1 142 0
 304 00ca 0A20     		movs	r0, #10
 305 00cc FFF7FEFF 		bl	CyDelay
 306              	.LVL49:
 307              	.LBE2:
 308 00d0 10BD     		pop	{r4, pc}
 309              	.LVL50:
 310              	.L11:
 146:tactic0_basic.c ****             //CyDelay(50);
 311              		.loc 1 146 0
 312 00d2 1E21     		movs	r1, #30
 313 00d4 0846     		mov	r0, r1
 314              	.LVL51:
 315 00d6 FFF7FEFF 		bl	drive_forward
 316              	.LVL52:
 317 00da 10BD     		pop	{r4, pc}
 318              	.L22:
 319 00dc AFF30080 		.align	3
 320              	.L21:
 321 00e0 66666666 		.word	1717986918
 322 00e4 6666E63F 		.word	1072064102
 323 00e8 00000000 		.word	.LANCHOR0
 324              		.cfi_endproc
 325              	.LFE64:
 326              		.size	ActOnEnemySpotted, .-ActOnEnemySpotted
 327              		.section	.text.RunTactic0,"ax",%progbits
 328              		.align	2
 329              		.global	RunTactic0
 330              		.thumb
 331              		.thumb_func
 332              		.type	RunTactic0, %function
 333              	RunTactic0:
 334              	.LFB63:
  51:tactic0_basic.c ****     WaitForIRStart();
 335              		.loc 1 51 0
 336              		.cfi_startproc
 337              		@ args = 0, pretend = 0, frame = 0
 338              		@ frame_needed = 0, uses_anonymous_args = 0
ARM GAS  C:\Users\Armands\AppData\Local\Temp\ccZR2QL2.s 			page 11


 339              	.LVL53:
 340 0000 38B5     		push	{r3, r4, r5, lr}
 341              		.cfi_def_cfa_offset 16
 342              		.cfi_offset 3, -16
 343              		.cfi_offset 4, -12
 344              		.cfi_offset 5, -8
 345              		.cfi_offset 14, -4
 346 0002 0446     		mov	r4, r0
 347 0004 0D46     		mov	r5, r1
  52:tactic0_basic.c ****     speed_pwm = speedlimit;
 348              		.loc 1 52 0
 349 0006 FFF7FEFF 		bl	WaitForIRStart
 350              	.LVL54:
  53:tactic0_basic.c ****     // ============================ First move ================================
 351              		.loc 1 53 0
 352 000a 194B     		ldr	r3, .L30
 353 000c 1D60     		str	r5, [r3]
  56:tactic0_basic.c ****     
 354              		.loc 1 56 0
 355 000e E0B2     		uxtb	r0, r4
 356 0010 FFF7FEFF 		bl	firstMoveSelector
 357              	.LVL55:
  64:tactic0_basic.c ****     while (1) {
 358              		.loc 1 64 0
 359 0014 FFF7FEFF 		bl	millis
 360              	.LVL56:
 361 0018 0546     		mov	r5, r0
 362              	.LVL57:
 363              	.L27:
  67:tactic0_basic.c **** 	    distSens = DistSensRead(); //Distance_sensor_value_Read();
 364              		.loc 1 67 0
 365 001a FFF7FEFF 		bl	LineSensRead
 366              	.LVL58:
 367 001e 154C     		ldr	r4, .L30+4
 368 0020 2070     		strb	r0, [r4]
  68:tactic0_basic.c ****         //Sensor_Reset_Write(0xFF);  // why???
 369              		.loc 1 68 0
 370 0022 FFF7FEFF 		bl	DistSensRead
 371              	.LVL59:
  73:tactic0_basic.c **** 			// line has detected
 372              		.loc 1 73 0
 373 0026 2378     		ldrb	r3, [r4]	@ zero_extendqisi2
 374 0028 2BB1     		cbz	r3, .L24
  75:tactic0_basic.c **** 			timout_time = millis();
 375              		.loc 1 75 0
 376 002a FFF7FEFF 		bl	ActOnLineDetected
 377              	.LVL60:
  76:tactic0_basic.c **** 		}
 378              		.loc 1 76 0
 379 002e FFF7FEFF 		bl	millis
 380              	.LVL61:
 381 0032 0546     		mov	r5, r0
 382              	.LVL62:
 383 0034 0BE0     		b	.L25
 384              	.LVL63:
 385              	.L24:
  78:tactic0_basic.c **** 			// opponent spotted
ARM GAS  C:\Users\Armands\AppData\Local\Temp\ccZR2QL2.s 			page 12


 386              		.loc 1 78 0
 387 0036 28B1     		cbz	r0, .L26
  80:tactic0_basic.c **** 			timout_time = millis();
 388              		.loc 1 80 0
 389 0038 FFF7FEFF 		bl	ActOnEnemySpotted
 390              	.LVL64:
  81:tactic0_basic.c **** 		}
 391              		.loc 1 81 0
 392 003c FFF7FEFF 		bl	millis
 393              	.LVL65:
 394 0040 0546     		mov	r5, r0
 395              	.LVL66:
 396 0042 04E0     		b	.L25
 397              	.LVL67:
 398              	.L26:
  84:tactic0_basic.c ****             //CyDelay(50);
 399              		.loc 1 84 0
 400 0044 0C4B     		ldr	r3, .L30+8
 401 0046 1868     		ldr	r0, [r3]
 402 0048 0146     		mov	r1, r0
 403 004a FFF7FEFF 		bl	drive_forward
 404              	.LVL68:
 405              	.L25:
  88:tactic0_basic.c **** 			timout_time = millis();
 406              		.loc 1 88 0
 407 004e FFF7FEFF 		bl	millis
 408              	.LVL69:
 409 0052 401B     		subs	r0, r0, r5
 410 0054 40F6B833 		movw	r3, #3000
 411 0058 9842     		cmp	r0, r3
 412 005a DED9     		bls	.L27
  89:tactic0_basic.c **** 			DoSomething();
 413              		.loc 1 89 0
 414 005c FFF7FEFF 		bl	millis
 415              	.LVL70:
 416 0060 0546     		mov	r5, r0
 417              	.LVL71:
  90:tactic0_basic.c ****             Servo_enable_Write(0);
 418              		.loc 1 90 0
 419 0062 FFF7FEFF 		bl	DoSomething
 420              	.LVL72:
  91:tactic0_basic.c **** 		}
 421              		.loc 1 91 0
 422 0066 0020     		movs	r0, #0
 423 0068 FFF7FEFF 		bl	Servo_enable_Write
 424              	.LVL73:
 425 006c D5E7     		b	.L27
 426              	.L31:
 427 006e 00BF     		.align	2
 428              	.L30:
 429 0070 00000000 		.word	.LANCHOR0
 430 0074 00000000 		.word	.LANCHOR1
 431 0078 00000000 		.word	gMotor
 432              		.cfi_endproc
 433              	.LFE63:
 434              		.size	RunTactic0, .-RunTactic0
 435              		.global	speed_pwm
ARM GAS  C:\Users\Armands\AppData\Local\Temp\ccZR2QL2.s 			page 13


 436              		.comm	gMotor,16,4
 437              		.comm	gLine,96,4
 438              		.data
 439              		.align	2
 440              		.set	.LANCHOR0,. + 0
 441              		.type	speed_pwm, %object
 442              		.size	speed_pwm, 4
 443              	speed_pwm:
 444 0000 50000000 		.word	80
 445              		.bss
 446              		.set	.LANCHOR1,. + 0
 447              		.type	lineSens, %object
 448              		.size	lineSens, 1
 449              	lineSens:
 450 0000 00       		.space	1
 451              		.text
 452              	.Letext0:
 453              		.file 2 "c:\\program files (x86)\\cypress\\psoc creator\\4.4\\psoc creator\\import\\gnu\\arm\\5.4.
 454              		.file 3 "c:\\program files (x86)\\cypress\\psoc creator\\4.4\\psoc creator\\import\\gnu\\arm\\5.4.
 455              		.file 4 "sensors.h"
 456              		.file 5 "drive.h"
 457              		.file 6 "Generated_Source\\PSoC5/core_cm3.h"
 458              		.file 7 "Generated_Source\\PSoC5/CyLib.h"
 459              		.file 8 "first_move.h"
 460              		.file 9 "timer_time.h"
 461              		.file 10 "Generated_Source\\PSoC5/Servo_enable.h"
 462              		.section	.debug_info,"",%progbits
 463              	.Ldebug_info0:
 464 0000 78060000 		.4byte	0x678
 465 0004 0400     		.2byte	0x4
 466 0006 00000000 		.4byte	.Ldebug_abbrev0
 467 000a 04       		.byte	0x4
 468 000b 01       		.uleb128 0x1
 469 000c EF020000 		.4byte	.LASF63
 470 0010 0C       		.byte	0xc
 471 0011 A4020000 		.4byte	.LASF64
 472 0015 FD000000 		.4byte	.LASF65
 473 0019 00000000 		.4byte	.Ldebug_ranges0+0
 474 001d 00000000 		.4byte	0
 475 0021 00000000 		.4byte	.Ldebug_line0
 476 0025 02       		.uleb128 0x2
 477 0026 E7010000 		.4byte	.LASF0
 478 002a 02       		.byte	0x2
 479 002b 1B       		.byte	0x1b
 480 002c 30000000 		.4byte	0x30
 481 0030 03       		.uleb128 0x3
 482 0031 01       		.byte	0x1
 483 0032 06       		.byte	0x6
 484 0033 73010000 		.4byte	.LASF2
 485 0037 02       		.uleb128 0x2
 486 0038 37010000 		.4byte	.LASF1
 487 003c 02       		.byte	0x2
 488 003d 1D       		.byte	0x1d
 489 003e 42000000 		.4byte	0x42
 490 0042 03       		.uleb128 0x3
 491 0043 01       		.byte	0x1
 492 0044 08       		.byte	0x8
ARM GAS  C:\Users\Armands\AppData\Local\Temp\ccZR2QL2.s 			page 14


 493 0045 65010000 		.4byte	.LASF3
 494 0049 03       		.uleb128 0x3
 495 004a 02       		.byte	0x2
 496 004b 05       		.byte	0x5
 497 004c 2F000000 		.4byte	.LASF4
 498 0050 03       		.uleb128 0x3
 499 0051 02       		.byte	0x2
 500 0052 07       		.byte	0x7
 501 0053 07020000 		.4byte	.LASF5
 502 0057 02       		.uleb128 0x2
 503 0058 FD010000 		.4byte	.LASF6
 504 005c 02       		.byte	0x2
 505 005d 3F       		.byte	0x3f
 506 005e 62000000 		.4byte	0x62
 507 0062 03       		.uleb128 0x3
 508 0063 04       		.byte	0x4
 509 0064 05       		.byte	0x5
 510 0065 E6000000 		.4byte	.LASF7
 511 0069 02       		.uleb128 0x2
 512 006a 58000000 		.4byte	.LASF8
 513 006e 02       		.byte	0x2
 514 006f 41       		.byte	0x41
 515 0070 74000000 		.4byte	0x74
 516 0074 03       		.uleb128 0x3
 517 0075 04       		.byte	0x4
 518 0076 07       		.byte	0x7
 519 0077 66020000 		.4byte	.LASF9
 520 007b 03       		.uleb128 0x3
 521 007c 08       		.byte	0x8
 522 007d 05       		.byte	0x5
 523 007e BA000000 		.4byte	.LASF10
 524 0082 03       		.uleb128 0x3
 525 0083 08       		.byte	0x8
 526 0084 07       		.byte	0x7
 527 0085 7F010000 		.4byte	.LASF11
 528 0089 04       		.uleb128 0x4
 529 008a 04       		.byte	0x4
 530 008b 05       		.byte	0x5
 531 008c 696E7400 		.ascii	"int\000"
 532 0090 03       		.uleb128 0x3
 533 0091 04       		.byte	0x4
 534 0092 07       		.byte	0x7
 535 0093 9F010000 		.4byte	.LASF12
 536 0097 02       		.uleb128 0x2
 537 0098 1B000000 		.4byte	.LASF13
 538 009c 03       		.byte	0x3
 539 009d 14       		.byte	0x14
 540 009e 25000000 		.4byte	0x25
 541 00a2 02       		.uleb128 0x2
 542 00a3 6E000000 		.4byte	.LASF14
 543 00a7 03       		.byte	0x3
 544 00a8 18       		.byte	0x18
 545 00a9 37000000 		.4byte	0x37
 546 00ad 02       		.uleb128 0x2
 547 00ae F5010000 		.4byte	.LASF15
 548 00b2 03       		.byte	0x3
 549 00b3 2C       		.byte	0x2c
ARM GAS  C:\Users\Armands\AppData\Local\Temp\ccZR2QL2.s 			page 15


 550 00b4 57000000 		.4byte	0x57
 551 00b8 02       		.uleb128 0x2
 552 00b9 96010000 		.4byte	.LASF16
 553 00bd 03       		.byte	0x3
 554 00be 30       		.byte	0x30
 555 00bf 69000000 		.4byte	0x69
 556 00c3 03       		.uleb128 0x3
 557 00c4 04       		.byte	0x4
 558 00c5 04       		.byte	0x4
 559 00c6 99000000 		.4byte	.LASF17
 560 00ca 03       		.uleb128 0x3
 561 00cb 08       		.byte	0x8
 562 00cc 04       		.byte	0x4
 563 00cd 83020000 		.4byte	.LASF18
 564 00d1 03       		.uleb128 0x3
 565 00d2 01       		.byte	0x1
 566 00d3 08       		.byte	0x8
 567 00d4 F0010000 		.4byte	.LASF19
 568 00d8 03       		.uleb128 0x3
 569 00d9 08       		.byte	0x8
 570 00da 04       		.byte	0x4
 571 00db 4C000000 		.4byte	.LASF20
 572 00df 03       		.uleb128 0x3
 573 00e0 04       		.byte	0x4
 574 00e1 07       		.byte	0x7
 575 00e2 39000000 		.4byte	.LASF21
 576 00e6 05       		.uleb128 0x5
 577 00e7 B4020000 		.4byte	.LASF32
 578 00eb 60       		.byte	0x60
 579 00ec 04       		.byte	0x4
 580 00ed 2C       		.byte	0x2c
 581 00ee 6B010000 		.4byte	0x16b
 582 00f2 06       		.uleb128 0x6
 583 00f3 91030000 		.4byte	.LASF22
 584 00f7 04       		.byte	0x4
 585 00f8 2D       		.byte	0x2d
 586 00f9 89000000 		.4byte	0x89
 587 00fd 00       		.byte	0
 588 00fe 06       		.uleb128 0x6
 589 00ff 91000000 		.4byte	.LASF23
 590 0103 04       		.byte	0x4
 591 0104 2E       		.byte	0x2e
 592 0105 89000000 		.4byte	0x89
 593 0109 04       		.byte	0x4
 594 010a 06       		.uleb128 0x6
 595 010b DA020000 		.4byte	.LASF24
 596 010f 04       		.byte	0x4
 597 0110 2F       		.byte	0x2f
 598 0111 89000000 		.4byte	0x89
 599 0115 08       		.byte	0x8
 600 0116 06       		.uleb128 0x6
 601 0117 7F000000 		.4byte	.LASF25
 602 011b 04       		.byte	0x4
 603 011c 30       		.byte	0x30
 604 011d 89000000 		.4byte	0x89
 605 0121 0C       		.byte	0xc
 606 0122 06       		.uleb128 0x6
ARM GAS  C:\Users\Armands\AppData\Local\Temp\ccZR2QL2.s 			page 16


 607 0123 5F010000 		.4byte	.LASF26
 608 0127 04       		.byte	0x4
 609 0128 32       		.byte	0x32
 610 0129 89000000 		.4byte	0x89
 611 012d 10       		.byte	0x10
 612 012e 06       		.uleb128 0x6
 613 012f 51010000 		.4byte	.LASF27
 614 0133 04       		.byte	0x4
 615 0134 33       		.byte	0x33
 616 0135 89000000 		.4byte	0x89
 617 0139 14       		.byte	0x14
 618 013a 06       		.uleb128 0x6
 619 013b F6000000 		.4byte	.LASF28
 620 013f 04       		.byte	0x4
 621 0140 35       		.byte	0x35
 622 0141 89000000 		.4byte	0x89
 623 0145 18       		.byte	0x18
 624 0146 06       		.uleb128 0x6
 625 0147 9C020000 		.4byte	.LASF29
 626 014b 04       		.byte	0x4
 627 014c 36       		.byte	0x36
 628 014d 89000000 		.4byte	0x89
 629 0151 1C       		.byte	0x1c
 630 0152 06       		.uleb128 0x6
 631 0153 E2010000 		.4byte	.LASF30
 632 0157 04       		.byte	0x4
 633 0158 37       		.byte	0x37
 634 0159 89000000 		.4byte	0x89
 635 015d 20       		.byte	0x20
 636 015e 06       		.uleb128 0x6
 637 015f 76000000 		.4byte	.LASF31
 638 0163 04       		.byte	0x4
 639 0164 39       		.byte	0x39
 640 0165 6B010000 		.4byte	0x16b
 641 0169 24       		.byte	0x24
 642 016a 00       		.byte	0
 643 016b 07       		.uleb128 0x7
 644 016c 89000000 		.4byte	0x89
 645 0170 7B010000 		.4byte	0x17b
 646 0174 08       		.uleb128 0x8
 647 0175 DF000000 		.4byte	0xdf
 648 0179 0E       		.byte	0xe
 649 017a 00       		.byte	0
 650 017b 05       		.uleb128 0x5
 651 017c 10000000 		.4byte	.LASF33
 652 0180 10       		.byte	0x10
 653 0181 05       		.byte	0x5
 654 0182 11       		.byte	0x11
 655 0183 B8010000 		.4byte	0x1b8
 656 0187 06       		.uleb128 0x6
 657 0188 85030000 		.4byte	.LASF34
 658 018c 05       		.byte	0x5
 659 018d 12       		.byte	0x12
 660 018e 89000000 		.4byte	0x89
 661 0192 00       		.byte	0
 662 0193 06       		.uleb128 0x6
 663 0194 78020000 		.4byte	.LASF35
ARM GAS  C:\Users\Armands\AppData\Local\Temp\ccZR2QL2.s 			page 17


 664 0198 05       		.byte	0x5
 665 0199 13       		.byte	0x13
 666 019a 89000000 		.4byte	0x89
 667 019e 04       		.byte	0x4
 668 019f 06       		.uleb128 0x6
 669 01a0 1A020000 		.4byte	.LASF36
 670 01a4 05       		.byte	0x5
 671 01a5 14       		.byte	0x14
 672 01a6 89000000 		.4byte	0x89
 673 01aa 08       		.byte	0x8
 674 01ab 06       		.uleb128 0x6
 675 01ac 2C020000 		.4byte	.LASF37
 676 01b0 05       		.byte	0x5
 677 01b1 15       		.byte	0x15
 678 01b2 89000000 		.4byte	0x89
 679 01b6 0C       		.byte	0xc
 680 01b7 00       		.byte	0
 681 01b8 09       		.uleb128 0x9
 682 01b9 99030000 		.4byte	.LASF38
 683 01bd 01       		.byte	0x1
 684 01be B6       		.byte	0xb6
 685 01bf 00000000 		.4byte	.LFB66
 686 01c3 12000000 		.4byte	.LFE66-.LFB66
 687 01c7 01       		.uleb128 0x1
 688 01c8 9C       		.byte	0x9c
 689 01c9 F6010000 		.4byte	0x1f6
 690 01cd 0A       		.uleb128 0xa
 691 01ce 0A000000 		.4byte	.LVL0
 692 01d2 F7050000 		.4byte	0x5f7
 693 01d6 E5010000 		.4byte	0x1e5
 694 01da 0B       		.uleb128 0xb
 695 01db 01       		.uleb128 0x1
 696 01dc 50       		.byte	0x50
 697 01dd 01       		.uleb128 0x1
 698 01de 30       		.byte	0x30
 699 01df 0B       		.uleb128 0xb
 700 01e0 01       		.uleb128 0x1
 701 01e1 51       		.byte	0x51
 702 01e2 01       		.uleb128 0x1
 703 01e3 30       		.byte	0x30
 704 01e4 00       		.byte	0
 705 01e5 0C       		.uleb128 0xc
 706 01e6 10000000 		.4byte	.LVL1
 707 01ea 02060000 		.4byte	0x602
 708 01ee 0B       		.uleb128 0xb
 709 01ef 01       		.uleb128 0x1
 710 01f0 50       		.byte	0x50
 711 01f1 02       		.uleb128 0x2
 712 01f2 08       		.byte	0x8
 713 01f3 32       		.byte	0x32
 714 01f4 00       		.byte	0
 715 01f5 00       		.byte	0
 716 01f6 09       		.uleb128 0x9
 717 01f7 C8020000 		.4byte	.LASF39
 718 01fb 01       		.byte	0x1
 719 01fc 99       		.byte	0x99
 720 01fd 00000000 		.4byte	.LFB65
ARM GAS  C:\Users\Armands\AppData\Local\Temp\ccZR2QL2.s 			page 18


 721 0201 78000000 		.4byte	.LFE65-.LFB65
 722 0205 01       		.uleb128 0x1
 723 0206 9C       		.byte	0x9c
 724 0207 1E030000 		.4byte	0x31e
 725 020b 0A       		.uleb128 0xa
 726 020c 16000000 		.4byte	.LVL2
 727 0210 0D060000 		.4byte	0x60d
 728 0214 25020000 		.4byte	0x225
 729 0218 0B       		.uleb128 0xb
 730 0219 01       		.uleb128 0x1
 731 021a 50       		.byte	0x50
 732 021b 02       		.uleb128 0x2
 733 021c 08       		.byte	0x8
 734 021d 28       		.byte	0x28
 735 021e 0B       		.uleb128 0xb
 736 021f 01       		.uleb128 0x1
 737 0220 51       		.byte	0x51
 738 0221 02       		.uleb128 0x2
 739 0222 08       		.byte	0x8
 740 0223 28       		.byte	0x28
 741 0224 00       		.byte	0
 742 0225 0A       		.uleb128 0xa
 743 0226 1E000000 		.4byte	.LVL3
 744 022a 02060000 		.4byte	0x602
 745 022e 3A020000 		.4byte	0x23a
 746 0232 0B       		.uleb128 0xb
 747 0233 01       		.uleb128 0x1
 748 0234 50       		.byte	0x50
 749 0235 03       		.uleb128 0x3
 750 0236 0A       		.byte	0xa
 751 0237 9001     		.2byte	0x190
 752 0239 00       		.byte	0
 753 023a 0A       		.uleb128 0xa
 754 023b 26000000 		.4byte	.LVL4
 755 023f 18060000 		.4byte	0x618
 756 0243 54020000 		.4byte	0x254
 757 0247 0B       		.uleb128 0xb
 758 0248 01       		.uleb128 0x1
 759 0249 50       		.byte	0x50
 760 024a 02       		.uleb128 0x2
 761 024b 08       		.byte	0x8
 762 024c 28       		.byte	0x28
 763 024d 0B       		.uleb128 0xb
 764 024e 01       		.uleb128 0x1
 765 024f 51       		.byte	0x51
 766 0250 02       		.uleb128 0x2
 767 0251 08       		.byte	0x8
 768 0252 28       		.byte	0x28
 769 0253 00       		.byte	0
 770 0254 0A       		.uleb128 0xa
 771 0255 2E000000 		.4byte	.LVL5
 772 0259 02060000 		.4byte	0x602
 773 025d 69020000 		.4byte	0x269
 774 0261 0B       		.uleb128 0xb
 775 0262 01       		.uleb128 0x1
 776 0263 50       		.byte	0x50
 777 0264 03       		.uleb128 0x3
ARM GAS  C:\Users\Armands\AppData\Local\Temp\ccZR2QL2.s 			page 19


 778 0265 0A       		.byte	0xa
 779 0266 2C01     		.2byte	0x12c
 780 0268 00       		.byte	0
 781 0269 0A       		.uleb128 0xa
 782 026a 3A000000 		.4byte	.LVL6
 783 026e 0D060000 		.4byte	0x60d
 784 0272 83020000 		.4byte	0x283
 785 0276 0B       		.uleb128 0xb
 786 0277 01       		.uleb128 0x1
 787 0278 50       		.byte	0x50
 788 0279 02       		.uleb128 0x2
 789 027a 08       		.byte	0x8
 790 027b 28       		.byte	0x28
 791 027c 0B       		.uleb128 0xb
 792 027d 01       		.uleb128 0x1
 793 027e 51       		.byte	0x51
 794 027f 02       		.uleb128 0x2
 795 0280 08       		.byte	0x8
 796 0281 28       		.byte	0x28
 797 0282 00       		.byte	0
 798 0283 0A       		.uleb128 0xa
 799 0284 40000000 		.4byte	.LVL7
 800 0288 02060000 		.4byte	0x602
 801 028c 97020000 		.4byte	0x297
 802 0290 0B       		.uleb128 0xb
 803 0291 01       		.uleb128 0x1
 804 0292 50       		.byte	0x50
 805 0293 02       		.uleb128 0x2
 806 0294 08       		.byte	0x8
 807 0295 96       		.byte	0x96
 808 0296 00       		.byte	0
 809 0297 0A       		.uleb128 0xa
 810 0298 48000000 		.4byte	.LVL8
 811 029c 23060000 		.4byte	0x623
 812 02a0 B1020000 		.4byte	0x2b1
 813 02a4 0B       		.uleb128 0xb
 814 02a5 01       		.uleb128 0x1
 815 02a6 50       		.byte	0x50
 816 02a7 02       		.uleb128 0x2
 817 02a8 08       		.byte	0x8
 818 02a9 28       		.byte	0x28
 819 02aa 0B       		.uleb128 0xb
 820 02ab 01       		.uleb128 0x1
 821 02ac 51       		.byte	0x51
 822 02ad 02       		.uleb128 0x2
 823 02ae 08       		.byte	0x8
 824 02af 28       		.byte	0x28
 825 02b0 00       		.byte	0
 826 02b1 0A       		.uleb128 0xa
 827 02b2 4E000000 		.4byte	.LVL9
 828 02b6 02060000 		.4byte	0x602
 829 02ba C5020000 		.4byte	0x2c5
 830 02be 0B       		.uleb128 0xb
 831 02bf 01       		.uleb128 0x1
 832 02c0 50       		.byte	0x50
 833 02c1 02       		.uleb128 0x2
 834 02c2 08       		.byte	0x8
ARM GAS  C:\Users\Armands\AppData\Local\Temp\ccZR2QL2.s 			page 20


 835 02c3 C8       		.byte	0xc8
 836 02c4 00       		.byte	0
 837 02c5 0A       		.uleb128 0xa
 838 02c6 5E000000 		.4byte	.LVL10
 839 02ca 0D060000 		.4byte	0x60d
 840 02ce DF020000 		.4byte	0x2df
 841 02d2 0B       		.uleb128 0xb
 842 02d3 01       		.uleb128 0x1
 843 02d4 50       		.byte	0x50
 844 02d5 02       		.uleb128 0x2
 845 02d6 08       		.byte	0x8
 846 02d7 28       		.byte	0x28
 847 02d8 0B       		.uleb128 0xb
 848 02d9 01       		.uleb128 0x1
 849 02da 51       		.byte	0x51
 850 02db 02       		.uleb128 0x2
 851 02dc 08       		.byte	0x8
 852 02dd 28       		.byte	0x28
 853 02de 00       		.byte	0
 854 02df 0A       		.uleb128 0xa
 855 02e0 64000000 		.4byte	.LVL11
 856 02e4 02060000 		.4byte	0x602
 857 02e8 F3020000 		.4byte	0x2f3
 858 02ec 0B       		.uleb128 0xb
 859 02ed 01       		.uleb128 0x1
 860 02ee 50       		.byte	0x50
 861 02ef 02       		.uleb128 0x2
 862 02f0 08       		.byte	0x8
 863 02f1 96       		.byte	0x96
 864 02f2 00       		.byte	0
 865 02f3 0A       		.uleb128 0xa
 866 02f4 6C000000 		.4byte	.LVL12
 867 02f8 18060000 		.4byte	0x618
 868 02fc 0D030000 		.4byte	0x30d
 869 0300 0B       		.uleb128 0xb
 870 0301 01       		.uleb128 0x1
 871 0302 50       		.byte	0x50
 872 0303 02       		.uleb128 0x2
 873 0304 08       		.byte	0x8
 874 0305 28       		.byte	0x28
 875 0306 0B       		.uleb128 0xb
 876 0307 01       		.uleb128 0x1
 877 0308 51       		.byte	0x51
 878 0309 02       		.uleb128 0x2
 879 030a 08       		.byte	0x8
 880 030b 28       		.byte	0x28
 881 030c 00       		.byte	0
 882 030d 0C       		.uleb128 0xc
 883 030e 72000000 		.4byte	.LVL13
 884 0312 02060000 		.4byte	0x602
 885 0316 0B       		.uleb128 0xb
 886 0317 01       		.uleb128 0x1
 887 0318 50       		.byte	0x50
 888 0319 02       		.uleb128 0x2
 889 031a 08       		.byte	0x8
 890 031b C8       		.byte	0xc8
 891 031c 00       		.byte	0
ARM GAS  C:\Users\Armands\AppData\Local\Temp\ccZR2QL2.s 			page 21


 892 031d 00       		.byte	0
 893 031e 0D       		.uleb128 0xd
 894 031f 8A020000 		.4byte	.LASF40
 895 0323 01       		.byte	0x1
 896 0324 65       		.byte	0x65
 897 0325 00000000 		.4byte	.LFB64
 898 0329 EC000000 		.4byte	.LFE64-.LFB64
 899 032d 01       		.uleb128 0x1
 900 032e 9C       		.byte	0x9c
 901 032f C5040000 		.4byte	0x4c5
 902 0333 0E       		.uleb128 0xe
 903 0334 07000000 		.4byte	.LASF41
 904 0338 01       		.byte	0x1
 905 0339 68       		.byte	0x68
 906 033a 89000000 		.4byte	0x89
 907 033e 00000000 		.4byte	.LLST0
 908 0342 0F       		.uleb128 0xf
 909 0343 0A000000 		.4byte	.LBB2
 910 0347 C6000000 		.4byte	.LBE2-.LBB2
 911 034b A7040000 		.4byte	0x4a7
 912 034f 0E       		.uleb128 0xe
 913 0350 41010000 		.4byte	.LASF42
 914 0354 01       		.byte	0x1
 915 0355 6E       		.byte	0x6e
 916 0356 97000000 		.4byte	0x97
 917 035a 1E000000 		.4byte	.LLST1
 918 035e 10       		.uleb128 0x10
 919 035f 70776D00 		.ascii	"pwm\000"
 920 0363 01       		.byte	0x1
 921 0364 70       		.byte	0x70
 922 0365 97000000 		.4byte	0x97
 923 0369 73000000 		.4byte	.LLST2
 924 036d 11       		.uleb128 0x11
 925 036e 0E000000 		.4byte	.LVL15
 926 0372 2E060000 		.4byte	0x62e
 927 0376 11       		.uleb128 0x11
 928 0377 1A000000 		.4byte	.LVL17
 929 037b F7050000 		.4byte	0x5f7
 930 037f 0A       		.uleb128 0xa
 931 0380 20000000 		.4byte	.LVL18
 932 0384 02060000 		.4byte	0x602
 933 0388 93030000 		.4byte	0x393
 934 038c 0B       		.uleb128 0xb
 935 038d 01       		.uleb128 0x1
 936 038e 50       		.byte	0x50
 937 038f 02       		.uleb128 0x2
 938 0390 08       		.byte	0x8
 939 0391 28       		.byte	0x28
 940 0392 00       		.byte	0
 941 0393 0A       		.uleb128 0xa
 942 0394 30000000 		.4byte	.LVL21
 943 0398 18060000 		.4byte	0x618
 944 039c AD030000 		.4byte	0x3ad
 945 03a0 0B       		.uleb128 0xb
 946 03a1 01       		.uleb128 0x1
 947 03a2 50       		.byte	0x50
 948 03a3 02       		.uleb128 0x2
ARM GAS  C:\Users\Armands\AppData\Local\Temp\ccZR2QL2.s 			page 22


 949 03a4 08       		.byte	0x8
 950 03a5 28       		.byte	0x28
 951 03a6 0B       		.uleb128 0xb
 952 03a7 01       		.uleb128 0x1
 953 03a8 51       		.byte	0x51
 954 03a9 02       		.uleb128 0x2
 955 03aa 08       		.byte	0x8
 956 03ab 28       		.byte	0x28
 957 03ac 00       		.byte	0
 958 03ad 0A       		.uleb128 0xa
 959 03ae 36000000 		.4byte	.LVL22
 960 03b2 02060000 		.4byte	0x602
 961 03b6 C1030000 		.4byte	0x3c1
 962 03ba 0B       		.uleb128 0xb
 963 03bb 01       		.uleb128 0x1
 964 03bc 50       		.byte	0x50
 965 03bd 02       		.uleb128 0x2
 966 03be 08       		.byte	0x8
 967 03bf 28       		.byte	0x28
 968 03c0 00       		.byte	0
 969 03c1 0A       		.uleb128 0xa
 970 03c2 46000000 		.4byte	.LVL25
 971 03c6 F7050000 		.4byte	0x5f7
 972 03ca DA030000 		.4byte	0x3da
 973 03ce 0B       		.uleb128 0xb
 974 03cf 01       		.uleb128 0x1
 975 03d0 50       		.byte	0x50
 976 03d1 01       		.uleb128 0x1
 977 03d2 44       		.byte	0x44
 978 03d3 0B       		.uleb128 0xb
 979 03d4 01       		.uleb128 0x1
 980 03d5 51       		.byte	0x51
 981 03d6 02       		.uleb128 0x2
 982 03d7 08       		.byte	0x8
 983 03d8 3C       		.byte	0x3c
 984 03d9 00       		.byte	0
 985 03da 0A       		.uleb128 0xa
 986 03db 4C000000 		.4byte	.LVL26
 987 03df 02060000 		.4byte	0x602
 988 03e3 ED030000 		.4byte	0x3ed
 989 03e7 0B       		.uleb128 0xb
 990 03e8 01       		.uleb128 0x1
 991 03e9 50       		.byte	0x50
 992 03ea 01       		.uleb128 0x1
 993 03eb 4E       		.byte	0x4e
 994 03ec 00       		.byte	0
 995 03ed 0A       		.uleb128 0xa
 996 03ee 70000000 		.4byte	.LVL32
 997 03f2 F7050000 		.4byte	0x5f7
 998 03f6 01040000 		.4byte	0x401
 999 03fa 0B       		.uleb128 0xb
 1000 03fb 01       		.uleb128 0x1
 1001 03fc 51       		.byte	0x51
 1002 03fd 02       		.uleb128 0x2
 1003 03fe 74       		.byte	0x74
 1004 03ff 00       		.sleb128 0
 1005 0400 00       		.byte	0
ARM GAS  C:\Users\Armands\AppData\Local\Temp\ccZR2QL2.s 			page 23


 1006 0401 0A       		.uleb128 0xa
 1007 0402 76000000 		.4byte	.LVL33
 1008 0406 02060000 		.4byte	0x602
 1009 040a 15040000 		.4byte	0x415
 1010 040e 0B       		.uleb128 0xb
 1011 040f 01       		.uleb128 0x1
 1012 0410 50       		.byte	0x50
 1013 0411 02       		.uleb128 0x2
 1014 0412 08       		.byte	0x8
 1015 0413 28       		.byte	0x28
 1016 0414 00       		.byte	0
 1017 0415 0A       		.uleb128 0xa
 1018 0416 84000000 		.4byte	.LVL36
 1019 041a 23060000 		.4byte	0x623
 1020 041e 2F040000 		.4byte	0x42f
 1021 0422 0B       		.uleb128 0xb
 1022 0423 01       		.uleb128 0x1
 1023 0424 50       		.byte	0x50
 1024 0425 02       		.uleb128 0x2
 1025 0426 08       		.byte	0x8
 1026 0427 28       		.byte	0x28
 1027 0428 0B       		.uleb128 0xb
 1028 0429 01       		.uleb128 0x1
 1029 042a 51       		.byte	0x51
 1030 042b 02       		.uleb128 0x2
 1031 042c 08       		.byte	0x8
 1032 042d 28       		.byte	0x28
 1033 042e 00       		.byte	0
 1034 042f 0A       		.uleb128 0xa
 1035 0430 8A000000 		.4byte	.LVL37
 1036 0434 02060000 		.4byte	0x602
 1037 0438 43040000 		.4byte	0x443
 1038 043c 0B       		.uleb128 0xb
 1039 043d 01       		.uleb128 0x1
 1040 043e 50       		.byte	0x50
 1041 043f 02       		.uleb128 0x2
 1042 0440 08       		.byte	0x8
 1043 0441 28       		.byte	0x28
 1044 0442 00       		.byte	0
 1045 0443 0A       		.uleb128 0xa
 1046 0444 98000000 		.4byte	.LVL40
 1047 0448 F7050000 		.4byte	0x5f7
 1048 044c 5C040000 		.4byte	0x45c
 1049 0450 0B       		.uleb128 0xb
 1050 0451 01       		.uleb128 0x1
 1051 0452 50       		.byte	0x50
 1052 0453 02       		.uleb128 0x2
 1053 0454 08       		.byte	0x8
 1054 0455 3C       		.byte	0x3c
 1055 0456 0B       		.uleb128 0xb
 1056 0457 01       		.uleb128 0x1
 1057 0458 51       		.byte	0x51
 1058 0459 01       		.uleb128 0x1
 1059 045a 44       		.byte	0x44
 1060 045b 00       		.byte	0
 1061 045c 0A       		.uleb128 0xa
 1062 045d 9E000000 		.4byte	.LVL41
ARM GAS  C:\Users\Armands\AppData\Local\Temp\ccZR2QL2.s 			page 24


 1063 0461 02060000 		.4byte	0x602
 1064 0465 6F040000 		.4byte	0x46f
 1065 0469 0B       		.uleb128 0xb
 1066 046a 01       		.uleb128 0x1
 1067 046b 50       		.byte	0x50
 1068 046c 01       		.uleb128 0x1
 1069 046d 4E       		.byte	0x4e
 1070 046e 00       		.byte	0
 1071 046f 0A       		.uleb128 0xa
 1072 0470 C4000000 		.4byte	.LVL47
 1073 0474 F7050000 		.4byte	0x5f7
 1074 0478 83040000 		.4byte	0x483
 1075 047c 0B       		.uleb128 0xb
 1076 047d 01       		.uleb128 0x1
 1077 047e 50       		.byte	0x50
 1078 047f 02       		.uleb128 0x2
 1079 0480 74       		.byte	0x74
 1080 0481 00       		.sleb128 0
 1081 0482 00       		.byte	0
 1082 0483 0A       		.uleb128 0xa
 1083 0484 CA000000 		.4byte	.LVL48
 1084 0488 02060000 		.4byte	0x602
 1085 048c 97040000 		.4byte	0x497
 1086 0490 0B       		.uleb128 0xb
 1087 0491 01       		.uleb128 0x1
 1088 0492 50       		.byte	0x50
 1089 0493 02       		.uleb128 0x2
 1090 0494 08       		.byte	0x8
 1091 0495 28       		.byte	0x28
 1092 0496 00       		.byte	0
 1093 0497 0C       		.uleb128 0xc
 1094 0498 D0000000 		.4byte	.LVL49
 1095 049c 02060000 		.4byte	0x602
 1096 04a0 0B       		.uleb128 0xb
 1097 04a1 01       		.uleb128 0x1
 1098 04a2 50       		.byte	0x50
 1099 04a3 01       		.uleb128 0x1
 1100 04a4 3A       		.byte	0x3a
 1101 04a5 00       		.byte	0
 1102 04a6 00       		.byte	0
 1103 04a7 11       		.uleb128 0x11
 1104 04a8 06000000 		.4byte	.LVL14
 1105 04ac 39060000 		.4byte	0x639
 1106 04b0 0C       		.uleb128 0xc
 1107 04b1 DA000000 		.4byte	.LVL52
 1108 04b5 F7050000 		.4byte	0x5f7
 1109 04b9 0B       		.uleb128 0xb
 1110 04ba 01       		.uleb128 0x1
 1111 04bb 50       		.byte	0x50
 1112 04bc 01       		.uleb128 0x1
 1113 04bd 4E       		.byte	0x4e
 1114 04be 0B       		.uleb128 0xb
 1115 04bf 01       		.uleb128 0x1
 1116 04c0 51       		.byte	0x51
 1117 04c1 01       		.uleb128 0x1
 1118 04c2 4E       		.byte	0x4e
 1119 04c3 00       		.byte	0
ARM GAS  C:\Users\Armands\AppData\Local\Temp\ccZR2QL2.s 			page 25


 1120 04c4 00       		.byte	0
 1121 04c5 12       		.uleb128 0x12
 1122 04c6 C8000000 		.4byte	.LASF66
 1123 04ca 01       		.byte	0x1
 1124 04cb 32       		.byte	0x32
 1125 04cc 00000000 		.4byte	.LFB63
 1126 04d0 7C000000 		.4byte	.LFE63-.LFB63
 1127 04d4 01       		.uleb128 0x1
 1128 04d5 9C       		.byte	0x9c
 1129 04d6 97050000 		.4byte	0x597
 1130 04da 13       		.uleb128 0x13
 1131 04db 42000000 		.4byte	.LASF43
 1132 04df 01       		.byte	0x1
 1133 04e0 32       		.byte	0x32
 1134 04e1 89000000 		.4byte	0x89
 1135 04e5 88000000 		.4byte	.LLST3
 1136 04e9 13       		.uleb128 0x13
 1137 04ea 4D020000 		.4byte	.LASF44
 1138 04ee 01       		.byte	0x1
 1139 04ef 32       		.byte	0x32
 1140 04f0 89000000 		.4byte	0x89
 1141 04f4 B4000000 		.4byte	.LLST4
 1142 04f8 0E       		.uleb128 0xe
 1143 04f9 B5010000 		.4byte	.LASF45
 1144 04fd 01       		.byte	0x1
 1145 04fe 40       		.byte	0x40
 1146 04ff B8000000 		.4byte	0xb8
 1147 0503 E0000000 		.4byte	.LLST5
 1148 0507 11       		.uleb128 0x11
 1149 0508 0A000000 		.4byte	.LVL54
 1150 050c 44060000 		.4byte	0x644
 1151 0510 0A       		.uleb128 0xa
 1152 0511 14000000 		.4byte	.LVL55
 1153 0515 4F060000 		.4byte	0x64f
 1154 0519 24050000 		.4byte	0x524
 1155 051d 0B       		.uleb128 0xb
 1156 051e 01       		.uleb128 0x1
 1157 051f 50       		.byte	0x50
 1158 0520 02       		.uleb128 0x2
 1159 0521 74       		.byte	0x74
 1160 0522 00       		.sleb128 0
 1161 0523 00       		.byte	0
 1162 0524 11       		.uleb128 0x11
 1163 0525 18000000 		.4byte	.LVL56
 1164 0529 5A060000 		.4byte	0x65a
 1165 052d 11       		.uleb128 0x11
 1166 052e 1E000000 		.4byte	.LVL58
 1167 0532 65060000 		.4byte	0x665
 1168 0536 11       		.uleb128 0x11
 1169 0537 26000000 		.4byte	.LVL59
 1170 053b 39060000 		.4byte	0x639
 1171 053f 11       		.uleb128 0x11
 1172 0540 2E000000 		.4byte	.LVL60
 1173 0544 F6010000 		.4byte	0x1f6
 1174 0548 11       		.uleb128 0x11
 1175 0549 32000000 		.4byte	.LVL61
 1176 054d 5A060000 		.4byte	0x65a
ARM GAS  C:\Users\Armands\AppData\Local\Temp\ccZR2QL2.s 			page 26


 1177 0551 11       		.uleb128 0x11
 1178 0552 3C000000 		.4byte	.LVL64
 1179 0556 1E030000 		.4byte	0x31e
 1180 055a 11       		.uleb128 0x11
 1181 055b 40000000 		.4byte	.LVL65
 1182 055f 5A060000 		.4byte	0x65a
 1183 0563 11       		.uleb128 0x11
 1184 0564 4E000000 		.4byte	.LVL68
 1185 0568 F7050000 		.4byte	0x5f7
 1186 056c 11       		.uleb128 0x11
 1187 056d 52000000 		.4byte	.LVL69
 1188 0571 5A060000 		.4byte	0x65a
 1189 0575 11       		.uleb128 0x11
 1190 0576 60000000 		.4byte	.LVL70
 1191 057a 5A060000 		.4byte	0x65a
 1192 057e 11       		.uleb128 0x11
 1193 057f 66000000 		.4byte	.LVL72
 1194 0583 B8010000 		.4byte	0x1b8
 1195 0587 0C       		.uleb128 0xc
 1196 0588 6C000000 		.4byte	.LVL73
 1197 058c 70060000 		.4byte	0x670
 1198 0590 0B       		.uleb128 0xb
 1199 0591 01       		.uleb128 0x1
 1200 0592 50       		.byte	0x50
 1201 0593 01       		.uleb128 0x1
 1202 0594 30       		.byte	0x30
 1203 0595 00       		.byte	0
 1204 0596 00       		.byte	0
 1205 0597 14       		.uleb128 0x14
 1206 0598 AC010000 		.4byte	.LASF46
 1207 059c 01       		.byte	0x1
 1208 059d 27       		.byte	0x27
 1209 059e A2000000 		.4byte	0xa2
 1210 05a2 05       		.uleb128 0x5
 1211 05a3 03       		.byte	0x3
 1212 05a4 00000000 		.4byte	lineSens
 1213 05a8 15       		.uleb128 0x15
 1214 05a9 07000000 		.4byte	.LASF41
 1215 05ad 01       		.byte	0x1
 1216 05ae 28       		.byte	0x28
 1217 05af A2000000 		.4byte	0xa2
 1218 05b3 16       		.uleb128 0x16
 1219 05b4 E2020000 		.4byte	.LASF47
 1220 05b8 06       		.byte	0x6
 1221 05b9 1207     		.2byte	0x712
 1222 05bb BF050000 		.4byte	0x5bf
 1223 05bf 17       		.uleb128 0x17
 1224 05c0 AD000000 		.4byte	0xad
 1225 05c4 18       		.uleb128 0x18
 1226 05c5 59010000 		.4byte	.LASF48
 1227 05c9 04       		.byte	0x4
 1228 05ca 3B       		.byte	0x3b
 1229 05cb E6000000 		.4byte	0xe6
 1230 05cf 05       		.uleb128 0x5
 1231 05d0 03       		.byte	0x3
 1232 05d1 00000000 		.4byte	gLine
 1233 05d5 18       		.uleb128 0x18
ARM GAS  C:\Users\Armands\AppData\Local\Temp\ccZR2QL2.s 			page 27


 1234 05d6 00000000 		.4byte	.LASF49
 1235 05da 05       		.byte	0x5
 1236 05db 17       		.byte	0x17
 1237 05dc 7B010000 		.4byte	0x17b
 1238 05e0 05       		.uleb128 0x5
 1239 05e1 03       		.byte	0x3
 1240 05e2 00000000 		.4byte	gMotor
 1241 05e6 18       		.uleb128 0x18
 1242 05e7 87000000 		.4byte	.LASF50
 1243 05eb 01       		.byte	0x1
 1244 05ec 29       		.byte	0x29
 1245 05ed 89000000 		.4byte	0x89
 1246 05f1 05       		.uleb128 0x5
 1247 05f2 03       		.byte	0x3
 1248 05f3 00000000 		.4byte	speed_pwm
 1249 05f7 19       		.uleb128 0x19
 1250 05f8 58020000 		.4byte	.LASF51
 1251 05fc 58020000 		.4byte	.LASF51
 1252 0600 05       		.byte	0x5
 1253 0601 1B       		.byte	0x1b
 1254 0602 19       		.uleb128 0x19
 1255 0603 7D030000 		.4byte	.LASF52
 1256 0607 7D030000 		.4byte	.LASF52
 1257 060b 07       		.byte	0x7
 1258 060c 76       		.byte	0x76
 1259 060d 19       		.uleb128 0x19
 1260 060e 3E020000 		.4byte	.LASF53
 1261 0612 3E020000 		.4byte	.LASF53
 1262 0616 05       		.byte	0x5
 1263 0617 1C       		.byte	0x1c
 1264 0618 19       		.uleb128 0x19
 1265 0619 BE020000 		.4byte	.LASF54
 1266 061d BE020000 		.4byte	.LASF54
 1267 0621 05       		.byte	0x5
 1268 0622 1E       		.byte	0x1e
 1269 0623 19       		.uleb128 0x19
 1270 0624 63000000 		.4byte	.LASF55
 1271 0628 63000000 		.4byte	.LASF55
 1272 062c 05       		.byte	0x5
 1273 062d 1D       		.byte	0x1d
 1274 062e 19       		.uleb128 0x19
 1275 062f AC000000 		.4byte	.LASF56
 1276 0633 AC000000 		.4byte	.LASF56
 1277 0637 04       		.byte	0x4
 1278 0638 3F       		.byte	0x3f
 1279 0639 19       		.uleb128 0x19
 1280 063a 22000000 		.4byte	.LASF57
 1281 063e 22000000 		.4byte	.LASF57
 1282 0642 04       		.byte	0x4
 1283 0643 3D       		.byte	0x3d
 1284 0644 19       		.uleb128 0x19
 1285 0645 D3010000 		.4byte	.LASF58
 1286 0649 D3010000 		.4byte	.LASF58
 1287 064d 04       		.byte	0x4
 1288 064e 40       		.byte	0x40
 1289 064f 19       		.uleb128 0x19
 1290 0650 C1010000 		.4byte	.LASF59
ARM GAS  C:\Users\Armands\AppData\Local\Temp\ccZR2QL2.s 			page 28


 1291 0654 C1010000 		.4byte	.LASF59
 1292 0658 08       		.byte	0x8
 1293 0659 25       		.byte	0x25
 1294 065a 19       		.uleb128 0x19
 1295 065b EF000000 		.4byte	.LASF60
 1296 065f EF000000 		.4byte	.LASF60
 1297 0663 09       		.byte	0x9
 1298 0664 15       		.byte	0x15
 1299 0665 19       		.uleb128 0x19
 1300 0666 9F000000 		.4byte	.LASF61
 1301 066a 9F000000 		.4byte	.LASF61
 1302 066e 04       		.byte	0x4
 1303 066f 41       		.byte	0x41
 1304 0670 19       		.uleb128 0x19
 1305 0671 D3000000 		.4byte	.LASF62
 1306 0675 D3000000 		.4byte	.LASF62
 1307 0679 0A       		.byte	0xa
 1308 067a 2F       		.byte	0x2f
 1309 067b 00       		.byte	0
 1310              		.section	.debug_abbrev,"",%progbits
 1311              	.Ldebug_abbrev0:
 1312 0000 01       		.uleb128 0x1
 1313 0001 11       		.uleb128 0x11
 1314 0002 01       		.byte	0x1
 1315 0003 25       		.uleb128 0x25
 1316 0004 0E       		.uleb128 0xe
 1317 0005 13       		.uleb128 0x13
 1318 0006 0B       		.uleb128 0xb
 1319 0007 03       		.uleb128 0x3
 1320 0008 0E       		.uleb128 0xe
 1321 0009 1B       		.uleb128 0x1b
 1322 000a 0E       		.uleb128 0xe
 1323 000b 55       		.uleb128 0x55
 1324 000c 17       		.uleb128 0x17
 1325 000d 11       		.uleb128 0x11
 1326 000e 01       		.uleb128 0x1
 1327 000f 10       		.uleb128 0x10
 1328 0010 17       		.uleb128 0x17
 1329 0011 00       		.byte	0
 1330 0012 00       		.byte	0
 1331 0013 02       		.uleb128 0x2
 1332 0014 16       		.uleb128 0x16
 1333 0015 00       		.byte	0
 1334 0016 03       		.uleb128 0x3
 1335 0017 0E       		.uleb128 0xe
 1336 0018 3A       		.uleb128 0x3a
 1337 0019 0B       		.uleb128 0xb
 1338 001a 3B       		.uleb128 0x3b
 1339 001b 0B       		.uleb128 0xb
 1340 001c 49       		.uleb128 0x49
 1341 001d 13       		.uleb128 0x13
 1342 001e 00       		.byte	0
 1343 001f 00       		.byte	0
 1344 0020 03       		.uleb128 0x3
 1345 0021 24       		.uleb128 0x24
 1346 0022 00       		.byte	0
 1347 0023 0B       		.uleb128 0xb
ARM GAS  C:\Users\Armands\AppData\Local\Temp\ccZR2QL2.s 			page 29


 1348 0024 0B       		.uleb128 0xb
 1349 0025 3E       		.uleb128 0x3e
 1350 0026 0B       		.uleb128 0xb
 1351 0027 03       		.uleb128 0x3
 1352 0028 0E       		.uleb128 0xe
 1353 0029 00       		.byte	0
 1354 002a 00       		.byte	0
 1355 002b 04       		.uleb128 0x4
 1356 002c 24       		.uleb128 0x24
 1357 002d 00       		.byte	0
 1358 002e 0B       		.uleb128 0xb
 1359 002f 0B       		.uleb128 0xb
 1360 0030 3E       		.uleb128 0x3e
 1361 0031 0B       		.uleb128 0xb
 1362 0032 03       		.uleb128 0x3
 1363 0033 08       		.uleb128 0x8
 1364 0034 00       		.byte	0
 1365 0035 00       		.byte	0
 1366 0036 05       		.uleb128 0x5
 1367 0037 13       		.uleb128 0x13
 1368 0038 01       		.byte	0x1
 1369 0039 03       		.uleb128 0x3
 1370 003a 0E       		.uleb128 0xe
 1371 003b 0B       		.uleb128 0xb
 1372 003c 0B       		.uleb128 0xb
 1373 003d 3A       		.uleb128 0x3a
 1374 003e 0B       		.uleb128 0xb
 1375 003f 3B       		.uleb128 0x3b
 1376 0040 0B       		.uleb128 0xb
 1377 0041 01       		.uleb128 0x1
 1378 0042 13       		.uleb128 0x13
 1379 0043 00       		.byte	0
 1380 0044 00       		.byte	0
 1381 0045 06       		.uleb128 0x6
 1382 0046 0D       		.uleb128 0xd
 1383 0047 00       		.byte	0
 1384 0048 03       		.uleb128 0x3
 1385 0049 0E       		.uleb128 0xe
 1386 004a 3A       		.uleb128 0x3a
 1387 004b 0B       		.uleb128 0xb
 1388 004c 3B       		.uleb128 0x3b
 1389 004d 0B       		.uleb128 0xb
 1390 004e 49       		.uleb128 0x49
 1391 004f 13       		.uleb128 0x13
 1392 0050 38       		.uleb128 0x38
 1393 0051 0B       		.uleb128 0xb
 1394 0052 00       		.byte	0
 1395 0053 00       		.byte	0
 1396 0054 07       		.uleb128 0x7
 1397 0055 01       		.uleb128 0x1
 1398 0056 01       		.byte	0x1
 1399 0057 49       		.uleb128 0x49
 1400 0058 13       		.uleb128 0x13
 1401 0059 01       		.uleb128 0x1
 1402 005a 13       		.uleb128 0x13
 1403 005b 00       		.byte	0
 1404 005c 00       		.byte	0
ARM GAS  C:\Users\Armands\AppData\Local\Temp\ccZR2QL2.s 			page 30


 1405 005d 08       		.uleb128 0x8
 1406 005e 21       		.uleb128 0x21
 1407 005f 00       		.byte	0
 1408 0060 49       		.uleb128 0x49
 1409 0061 13       		.uleb128 0x13
 1410 0062 2F       		.uleb128 0x2f
 1411 0063 0B       		.uleb128 0xb
 1412 0064 00       		.byte	0
 1413 0065 00       		.byte	0
 1414 0066 09       		.uleb128 0x9
 1415 0067 2E       		.uleb128 0x2e
 1416 0068 01       		.byte	0x1
 1417 0069 03       		.uleb128 0x3
 1418 006a 0E       		.uleb128 0xe
 1419 006b 3A       		.uleb128 0x3a
 1420 006c 0B       		.uleb128 0xb
 1421 006d 3B       		.uleb128 0x3b
 1422 006e 0B       		.uleb128 0xb
 1423 006f 27       		.uleb128 0x27
 1424 0070 19       		.uleb128 0x19
 1425 0071 11       		.uleb128 0x11
 1426 0072 01       		.uleb128 0x1
 1427 0073 12       		.uleb128 0x12
 1428 0074 06       		.uleb128 0x6
 1429 0075 40       		.uleb128 0x40
 1430 0076 18       		.uleb128 0x18
 1431 0077 9742     		.uleb128 0x2117
 1432 0079 19       		.uleb128 0x19
 1433 007a 01       		.uleb128 0x1
 1434 007b 13       		.uleb128 0x13
 1435 007c 00       		.byte	0
 1436 007d 00       		.byte	0
 1437 007e 0A       		.uleb128 0xa
 1438 007f 898201   		.uleb128 0x4109
 1439 0082 01       		.byte	0x1
 1440 0083 11       		.uleb128 0x11
 1441 0084 01       		.uleb128 0x1
 1442 0085 31       		.uleb128 0x31
 1443 0086 13       		.uleb128 0x13
 1444 0087 01       		.uleb128 0x1
 1445 0088 13       		.uleb128 0x13
 1446 0089 00       		.byte	0
 1447 008a 00       		.byte	0
 1448 008b 0B       		.uleb128 0xb
 1449 008c 8A8201   		.uleb128 0x410a
 1450 008f 00       		.byte	0
 1451 0090 02       		.uleb128 0x2
 1452 0091 18       		.uleb128 0x18
 1453 0092 9142     		.uleb128 0x2111
 1454 0094 18       		.uleb128 0x18
 1455 0095 00       		.byte	0
 1456 0096 00       		.byte	0
 1457 0097 0C       		.uleb128 0xc
 1458 0098 898201   		.uleb128 0x4109
 1459 009b 01       		.byte	0x1
 1460 009c 11       		.uleb128 0x11
 1461 009d 01       		.uleb128 0x1
ARM GAS  C:\Users\Armands\AppData\Local\Temp\ccZR2QL2.s 			page 31


 1462 009e 31       		.uleb128 0x31
 1463 009f 13       		.uleb128 0x13
 1464 00a0 00       		.byte	0
 1465 00a1 00       		.byte	0
 1466 00a2 0D       		.uleb128 0xd
 1467 00a3 2E       		.uleb128 0x2e
 1468 00a4 01       		.byte	0x1
 1469 00a5 03       		.uleb128 0x3
 1470 00a6 0E       		.uleb128 0xe
 1471 00a7 3A       		.uleb128 0x3a
 1472 00a8 0B       		.uleb128 0xb
 1473 00a9 3B       		.uleb128 0x3b
 1474 00aa 0B       		.uleb128 0xb
 1475 00ab 27       		.uleb128 0x27
 1476 00ac 19       		.uleb128 0x19
 1477 00ad 11       		.uleb128 0x11
 1478 00ae 01       		.uleb128 0x1
 1479 00af 12       		.uleb128 0x12
 1480 00b0 06       		.uleb128 0x6
 1481 00b1 40       		.uleb128 0x40
 1482 00b2 18       		.uleb128 0x18
 1483 00b3 9642     		.uleb128 0x2116
 1484 00b5 19       		.uleb128 0x19
 1485 00b6 01       		.uleb128 0x1
 1486 00b7 13       		.uleb128 0x13
 1487 00b8 00       		.byte	0
 1488 00b9 00       		.byte	0
 1489 00ba 0E       		.uleb128 0xe
 1490 00bb 34       		.uleb128 0x34
 1491 00bc 00       		.byte	0
 1492 00bd 03       		.uleb128 0x3
 1493 00be 0E       		.uleb128 0xe
 1494 00bf 3A       		.uleb128 0x3a
 1495 00c0 0B       		.uleb128 0xb
 1496 00c1 3B       		.uleb128 0x3b
 1497 00c2 0B       		.uleb128 0xb
 1498 00c3 49       		.uleb128 0x49
 1499 00c4 13       		.uleb128 0x13
 1500 00c5 02       		.uleb128 0x2
 1501 00c6 17       		.uleb128 0x17
 1502 00c7 00       		.byte	0
 1503 00c8 00       		.byte	0
 1504 00c9 0F       		.uleb128 0xf
 1505 00ca 0B       		.uleb128 0xb
 1506 00cb 01       		.byte	0x1
 1507 00cc 11       		.uleb128 0x11
 1508 00cd 01       		.uleb128 0x1
 1509 00ce 12       		.uleb128 0x12
 1510 00cf 06       		.uleb128 0x6
 1511 00d0 01       		.uleb128 0x1
 1512 00d1 13       		.uleb128 0x13
 1513 00d2 00       		.byte	0
 1514 00d3 00       		.byte	0
 1515 00d4 10       		.uleb128 0x10
 1516 00d5 34       		.uleb128 0x34
 1517 00d6 00       		.byte	0
 1518 00d7 03       		.uleb128 0x3
ARM GAS  C:\Users\Armands\AppData\Local\Temp\ccZR2QL2.s 			page 32


 1519 00d8 08       		.uleb128 0x8
 1520 00d9 3A       		.uleb128 0x3a
 1521 00da 0B       		.uleb128 0xb
 1522 00db 3B       		.uleb128 0x3b
 1523 00dc 0B       		.uleb128 0xb
 1524 00dd 49       		.uleb128 0x49
 1525 00de 13       		.uleb128 0x13
 1526 00df 02       		.uleb128 0x2
 1527 00e0 17       		.uleb128 0x17
 1528 00e1 00       		.byte	0
 1529 00e2 00       		.byte	0
 1530 00e3 11       		.uleb128 0x11
 1531 00e4 898201   		.uleb128 0x4109
 1532 00e7 00       		.byte	0
 1533 00e8 11       		.uleb128 0x11
 1534 00e9 01       		.uleb128 0x1
 1535 00ea 31       		.uleb128 0x31
 1536 00eb 13       		.uleb128 0x13
 1537 00ec 00       		.byte	0
 1538 00ed 00       		.byte	0
 1539 00ee 12       		.uleb128 0x12
 1540 00ef 2E       		.uleb128 0x2e
 1541 00f0 01       		.byte	0x1
 1542 00f1 3F       		.uleb128 0x3f
 1543 00f2 19       		.uleb128 0x19
 1544 00f3 03       		.uleb128 0x3
 1545 00f4 0E       		.uleb128 0xe
 1546 00f5 3A       		.uleb128 0x3a
 1547 00f6 0B       		.uleb128 0xb
 1548 00f7 3B       		.uleb128 0x3b
 1549 00f8 0B       		.uleb128 0xb
 1550 00f9 27       		.uleb128 0x27
 1551 00fa 19       		.uleb128 0x19
 1552 00fb 8701     		.uleb128 0x87
 1553 00fd 19       		.uleb128 0x19
 1554 00fe 11       		.uleb128 0x11
 1555 00ff 01       		.uleb128 0x1
 1556 0100 12       		.uleb128 0x12
 1557 0101 06       		.uleb128 0x6
 1558 0102 40       		.uleb128 0x40
 1559 0103 18       		.uleb128 0x18
 1560 0104 9742     		.uleb128 0x2117
 1561 0106 19       		.uleb128 0x19
 1562 0107 01       		.uleb128 0x1
 1563 0108 13       		.uleb128 0x13
 1564 0109 00       		.byte	0
 1565 010a 00       		.byte	0
 1566 010b 13       		.uleb128 0x13
 1567 010c 05       		.uleb128 0x5
 1568 010d 00       		.byte	0
 1569 010e 03       		.uleb128 0x3
 1570 010f 0E       		.uleb128 0xe
 1571 0110 3A       		.uleb128 0x3a
 1572 0111 0B       		.uleb128 0xb
 1573 0112 3B       		.uleb128 0x3b
 1574 0113 0B       		.uleb128 0xb
 1575 0114 49       		.uleb128 0x49
ARM GAS  C:\Users\Armands\AppData\Local\Temp\ccZR2QL2.s 			page 33


 1576 0115 13       		.uleb128 0x13
 1577 0116 02       		.uleb128 0x2
 1578 0117 17       		.uleb128 0x17
 1579 0118 00       		.byte	0
 1580 0119 00       		.byte	0
 1581 011a 14       		.uleb128 0x14
 1582 011b 34       		.uleb128 0x34
 1583 011c 00       		.byte	0
 1584 011d 03       		.uleb128 0x3
 1585 011e 0E       		.uleb128 0xe
 1586 011f 3A       		.uleb128 0x3a
 1587 0120 0B       		.uleb128 0xb
 1588 0121 3B       		.uleb128 0x3b
 1589 0122 0B       		.uleb128 0xb
 1590 0123 49       		.uleb128 0x49
 1591 0124 13       		.uleb128 0x13
 1592 0125 02       		.uleb128 0x2
 1593 0126 18       		.uleb128 0x18
 1594 0127 00       		.byte	0
 1595 0128 00       		.byte	0
 1596 0129 15       		.uleb128 0x15
 1597 012a 34       		.uleb128 0x34
 1598 012b 00       		.byte	0
 1599 012c 03       		.uleb128 0x3
 1600 012d 0E       		.uleb128 0xe
 1601 012e 3A       		.uleb128 0x3a
 1602 012f 0B       		.uleb128 0xb
 1603 0130 3B       		.uleb128 0x3b
 1604 0131 0B       		.uleb128 0xb
 1605 0132 49       		.uleb128 0x49
 1606 0133 13       		.uleb128 0x13
 1607 0134 00       		.byte	0
 1608 0135 00       		.byte	0
 1609 0136 16       		.uleb128 0x16
 1610 0137 34       		.uleb128 0x34
 1611 0138 00       		.byte	0
 1612 0139 03       		.uleb128 0x3
 1613 013a 0E       		.uleb128 0xe
 1614 013b 3A       		.uleb128 0x3a
 1615 013c 0B       		.uleb128 0xb
 1616 013d 3B       		.uleb128 0x3b
 1617 013e 05       		.uleb128 0x5
 1618 013f 49       		.uleb128 0x49
 1619 0140 13       		.uleb128 0x13
 1620 0141 3F       		.uleb128 0x3f
 1621 0142 19       		.uleb128 0x19
 1622 0143 3C       		.uleb128 0x3c
 1623 0144 19       		.uleb128 0x19
 1624 0145 00       		.byte	0
 1625 0146 00       		.byte	0
 1626 0147 17       		.uleb128 0x17
 1627 0148 35       		.uleb128 0x35
 1628 0149 00       		.byte	0
 1629 014a 49       		.uleb128 0x49
 1630 014b 13       		.uleb128 0x13
 1631 014c 00       		.byte	0
 1632 014d 00       		.byte	0
ARM GAS  C:\Users\Armands\AppData\Local\Temp\ccZR2QL2.s 			page 34


 1633 014e 18       		.uleb128 0x18
 1634 014f 34       		.uleb128 0x34
 1635 0150 00       		.byte	0
 1636 0151 03       		.uleb128 0x3
 1637 0152 0E       		.uleb128 0xe
 1638 0153 3A       		.uleb128 0x3a
 1639 0154 0B       		.uleb128 0xb
 1640 0155 3B       		.uleb128 0x3b
 1641 0156 0B       		.uleb128 0xb
 1642 0157 49       		.uleb128 0x49
 1643 0158 13       		.uleb128 0x13
 1644 0159 3F       		.uleb128 0x3f
 1645 015a 19       		.uleb128 0x19
 1646 015b 02       		.uleb128 0x2
 1647 015c 18       		.uleb128 0x18
 1648 015d 00       		.byte	0
 1649 015e 00       		.byte	0
 1650 015f 19       		.uleb128 0x19
 1651 0160 2E       		.uleb128 0x2e
 1652 0161 00       		.byte	0
 1653 0162 3F       		.uleb128 0x3f
 1654 0163 19       		.uleb128 0x19
 1655 0164 3C       		.uleb128 0x3c
 1656 0165 19       		.uleb128 0x19
 1657 0166 6E       		.uleb128 0x6e
 1658 0167 0E       		.uleb128 0xe
 1659 0168 03       		.uleb128 0x3
 1660 0169 0E       		.uleb128 0xe
 1661 016a 3A       		.uleb128 0x3a
 1662 016b 0B       		.uleb128 0xb
 1663 016c 3B       		.uleb128 0x3b
 1664 016d 0B       		.uleb128 0xb
 1665 016e 00       		.byte	0
 1666 016f 00       		.byte	0
 1667 0170 00       		.byte	0
 1668              		.section	.debug_loc,"",%progbits
 1669              	.Ldebug_loc0:
 1670              	.LLST0:
 1671 0000 06000000 		.4byte	.LVL14
 1672 0004 0D000000 		.4byte	.LVL15-1
 1673 0008 0100     		.2byte	0x1
 1674 000a 50       		.byte	0x50
 1675 000b D2000000 		.4byte	.LVL50
 1676 000f D6000000 		.4byte	.LVL51
 1677 0013 0100     		.2byte	0x1
 1678 0015 50       		.byte	0x50
 1679 0016 00000000 		.4byte	0
 1680 001a 00000000 		.4byte	0
 1681              	.LLST1:
 1682 001e 0E000000 		.4byte	.LVL15
 1683 0022 14000000 		.4byte	.LVL16
 1684 0026 0100     		.2byte	0x1
 1685 0028 50       		.byte	0x50
 1686 0029 22000000 		.4byte	.LVL19
 1687 002d 2C000000 		.4byte	.LVL20
 1688 0031 0100     		.2byte	0x1
 1689 0033 50       		.byte	0x50
ARM GAS  C:\Users\Armands\AppData\Local\Temp\ccZR2QL2.s 			page 35


 1690 0034 38000000 		.4byte	.LVL23
 1691 0038 42000000 		.4byte	.LVL24
 1692 003c 0100     		.2byte	0x1
 1693 003e 50       		.byte	0x50
 1694 003f 4E000000 		.4byte	.LVL27
 1695 0043 58000000 		.4byte	.LVL28
 1696 0047 0100     		.2byte	0x1
 1697 0049 50       		.byte	0x50
 1698 004a 78000000 		.4byte	.LVL34
 1699 004e 80000000 		.4byte	.LVL35
 1700 0052 0100     		.2byte	0x1
 1701 0054 50       		.byte	0x50
 1702 0055 8C000000 		.4byte	.LVL38
 1703 0059 94000000 		.4byte	.LVL39
 1704 005d 0100     		.2byte	0x1
 1705 005f 50       		.byte	0x50
 1706 0060 A0000000 		.4byte	.LVL42
 1707 0064 AA000000 		.4byte	.LVL43
 1708 0068 0100     		.2byte	0x1
 1709 006a 50       		.byte	0x50
 1710 006b 00000000 		.4byte	0
 1711 006f 00000000 		.4byte	0
 1712              	.LLST2:
 1713 0073 0E000000 		.4byte	.LVL15
 1714 0077 D2000000 		.4byte	.LVL50
 1715 007b 0300     		.2byte	0x3
 1716 007d 08       		.byte	0x8
 1717 007e 3C       		.byte	0x3c
 1718 007f 9F       		.byte	0x9f
 1719 0080 00000000 		.4byte	0
 1720 0084 00000000 		.4byte	0
 1721              	.LLST3:
 1722 0088 00000000 		.4byte	.LVL53
 1723 008c 09000000 		.4byte	.LVL54-1
 1724 0090 0100     		.2byte	0x1
 1725 0092 50       		.byte	0x50
 1726 0093 09000000 		.4byte	.LVL54-1
 1727 0097 1A000000 		.4byte	.LVL57
 1728 009b 0100     		.2byte	0x1
 1729 009d 54       		.byte	0x54
 1730 009e 1A000000 		.4byte	.LVL57
 1731 00a2 7C000000 		.4byte	.LFE63
 1732 00a6 0400     		.2byte	0x4
 1733 00a8 F3       		.byte	0xf3
 1734 00a9 01       		.uleb128 0x1
 1735 00aa 50       		.byte	0x50
 1736 00ab 9F       		.byte	0x9f
 1737 00ac 00000000 		.4byte	0
 1738 00b0 00000000 		.4byte	0
 1739              	.LLST4:
 1740 00b4 00000000 		.4byte	.LVL53
 1741 00b8 09000000 		.4byte	.LVL54-1
 1742 00bc 0100     		.2byte	0x1
 1743 00be 51       		.byte	0x51
 1744 00bf 09000000 		.4byte	.LVL54-1
 1745 00c3 1A000000 		.4byte	.LVL57
 1746 00c7 0100     		.2byte	0x1
ARM GAS  C:\Users\Armands\AppData\Local\Temp\ccZR2QL2.s 			page 36


 1747 00c9 55       		.byte	0x55
 1748 00ca 1A000000 		.4byte	.LVL57
 1749 00ce 7C000000 		.4byte	.LFE63
 1750 00d2 0400     		.2byte	0x4
 1751 00d4 F3       		.byte	0xf3
 1752 00d5 01       		.uleb128 0x1
 1753 00d6 51       		.byte	0x51
 1754 00d7 9F       		.byte	0x9f
 1755 00d8 00000000 		.4byte	0
 1756 00dc 00000000 		.4byte	0
 1757              	.LLST5:
 1758 00e0 1A000000 		.4byte	.LVL57
 1759 00e4 34000000 		.4byte	.LVL62
 1760 00e8 0100     		.2byte	0x1
 1761 00ea 55       		.byte	0x55
 1762 00eb 34000000 		.4byte	.LVL62
 1763 00ef 36000000 		.4byte	.LVL63
 1764 00f3 0100     		.2byte	0x1
 1765 00f5 50       		.byte	0x50
 1766 00f6 36000000 		.4byte	.LVL63
 1767 00fa 42000000 		.4byte	.LVL66
 1768 00fe 0100     		.2byte	0x1
 1769 0100 55       		.byte	0x55
 1770 0101 42000000 		.4byte	.LVL66
 1771 0105 44000000 		.4byte	.LVL67
 1772 0109 0100     		.2byte	0x1
 1773 010b 50       		.byte	0x50
 1774 010c 44000000 		.4byte	.LVL67
 1775 0110 62000000 		.4byte	.LVL71
 1776 0114 0100     		.2byte	0x1
 1777 0116 55       		.byte	0x55
 1778 0117 62000000 		.4byte	.LVL71
 1779 011b 65000000 		.4byte	.LVL72-1
 1780 011f 0100     		.2byte	0x1
 1781 0121 50       		.byte	0x50
 1782 0122 65000000 		.4byte	.LVL72-1
 1783 0126 7C000000 		.4byte	.LFE63
 1784 012a 0100     		.2byte	0x1
 1785 012c 55       		.byte	0x55
 1786 012d 00000000 		.4byte	0
 1787 0131 00000000 		.4byte	0
 1788              		.section	.debug_aranges,"",%progbits
 1789 0000 34000000 		.4byte	0x34
 1790 0004 0200     		.2byte	0x2
 1791 0006 00000000 		.4byte	.Ldebug_info0
 1792 000a 04       		.byte	0x4
 1793 000b 00       		.byte	0
 1794 000c 0000     		.2byte	0
 1795 000e 0000     		.2byte	0
 1796 0010 00000000 		.4byte	.LFB66
 1797 0014 12000000 		.4byte	.LFE66-.LFB66
 1798 0018 00000000 		.4byte	.LFB65
 1799 001c 78000000 		.4byte	.LFE65-.LFB65
 1800 0020 00000000 		.4byte	.LFB64
 1801 0024 EC000000 		.4byte	.LFE64-.LFB64
 1802 0028 00000000 		.4byte	.LFB63
 1803 002c 7C000000 		.4byte	.LFE63-.LFB63
ARM GAS  C:\Users\Armands\AppData\Local\Temp\ccZR2QL2.s 			page 37


 1804 0030 00000000 		.4byte	0
 1805 0034 00000000 		.4byte	0
 1806              		.section	.debug_ranges,"",%progbits
 1807              	.Ldebug_ranges0:
 1808 0000 00000000 		.4byte	.LFB66
 1809 0004 12000000 		.4byte	.LFE66
 1810 0008 00000000 		.4byte	.LFB65
 1811 000c 78000000 		.4byte	.LFE65
 1812 0010 00000000 		.4byte	.LFB64
 1813 0014 EC000000 		.4byte	.LFE64
 1814 0018 00000000 		.4byte	.LFB63
 1815 001c 7C000000 		.4byte	.LFE63
 1816 0020 00000000 		.4byte	0
 1817 0024 00000000 		.4byte	0
 1818              		.section	.debug_line,"",%progbits
 1819              	.Ldebug_line0:
 1820 0000 25020000 		.section	.debug_str,"MS",%progbits,1
 1820      02009D01 
 1820      00000201 
 1820      FB0E0D00 
 1820      01010101 
 1821              	.LASF49:
 1822 0000 674D6F74 		.ascii	"gMotor\000"
 1822      6F7200
 1823              	.LASF41:
 1824 0007 64697374 		.ascii	"distSens\000"
 1824      53656E73 
 1824      00
 1825              	.LASF33:
 1826 0010 67447269 		.ascii	"gDrivevars\000"
 1826      76657661 
 1826      727300
 1827              	.LASF13:
 1828 001b 696E7438 		.ascii	"int8_t\000"
 1828      5F7400
 1829              	.LASF57:
 1830 0022 44697374 		.ascii	"DistSensRead\000"
 1830      53656E73 
 1830      52656164 
 1830      00
 1831              	.LASF4:
 1832 002f 73686F72 		.ascii	"short int\000"
 1832      7420696E 
 1832      7400
 1833              	.LASF21:
 1834 0039 73697A65 		.ascii	"sizetype\000"
 1834      74797065 
 1834      00
 1835              	.LASF43:
 1836 0042 66697273 		.ascii	"firstMove\000"
 1836      744D6F76 
 1836      6500
 1837              	.LASF20:
 1838 004c 6C6F6E67 		.ascii	"long double\000"
 1838      20646F75 
 1838      626C6500 
 1839              	.LASF8:
ARM GAS  C:\Users\Armands\AppData\Local\Temp\ccZR2QL2.s 			page 38


 1840 0058 5F5F7569 		.ascii	"__uint32_t\000"
 1840      6E743332 
 1840      5F7400
 1841              	.LASF55:
 1842 0063 7475726E 		.ascii	"turn_right\000"
 1842      5F726967 
 1842      687400
 1843              	.LASF14:
 1844 006e 75696E74 		.ascii	"uint8_t\000"
 1844      385F7400 
 1845              	.LASF31:
 1846 0076 6164635F 		.ascii	"adc_buff\000"
 1846      62756666 
 1846      00
 1847              	.LASF25:
 1848 007f 4652325F 		.ascii	"FR2_val\000"
 1848      76616C00 
 1849              	.LASF50:
 1850 0087 73706565 		.ascii	"speed_pwm\000"
 1850      645F7077 
 1850      6D00
 1851              	.LASF23:
 1852 0091 464C325F 		.ascii	"FL2_val\000"
 1852      76616C00 
 1853              	.LASF17:
 1854 0099 666C6F61 		.ascii	"float\000"
 1854      7400
 1855              	.LASF61:
 1856 009f 4C696E65 		.ascii	"LineSensRead\000"
 1856      53656E73 
 1856      52656164 
 1856      00
 1857              	.LASF56:
 1858 00ac 43616C63 		.ascii	"CalcAvrgAngle\000"
 1858      41767267 
 1858      416E676C 
 1858      6500
 1859              	.LASF10:
 1860 00ba 6C6F6E67 		.ascii	"long long int\000"
 1860      206C6F6E 
 1860      6720696E 
 1860      7400
 1861              	.LASF66:
 1862 00c8 52756E54 		.ascii	"RunTactic0\000"
 1862      61637469 
 1862      633000
 1863              	.LASF62:
 1864 00d3 53657276 		.ascii	"Servo_enable_Write\000"
 1864      6F5F656E 
 1864      61626C65 
 1864      5F577269 
 1864      746500
 1865              	.LASF7:
 1866 00e6 6C6F6E67 		.ascii	"long int\000"
 1866      20696E74 
 1866      00
 1867              	.LASF60:
ARM GAS  C:\Users\Armands\AppData\Local\Temp\ccZR2QL2.s 			page 39


 1868 00ef 6D696C6C 		.ascii	"millis\000"
 1868      697300
 1869              	.LASF28:
 1870 00f6 465F4C45 		.ascii	"F_LEFT\000"
 1870      465400
 1871              	.LASF65:
 1872 00fd 433A5C55 		.ascii	"C:\\Users\\Armands\\Documents\\bolt_sumo_code\\BOLT"
 1872      73657273 
 1872      5C41726D 
 1872      616E6473 
 1872      5C446F63 
 1873 012b 5F73756D 		.ascii	"_sumo.cydsn\000"
 1873      6F2E6379 
 1873      64736E00 
 1874              	.LASF1:
 1875 0137 5F5F7569 		.ascii	"__uint8_t\000"
 1875      6E74385F 
 1875      7400
 1876              	.LASF42:
 1877 0141 61767267 		.ascii	"avrg_angle_grad\000"
 1877      5F616E67 
 1877      6C655F67 
 1877      72616400 
 1878              	.LASF27:
 1879 0151 4654485F 		.ascii	"FTH_val\000"
 1879      76616C00 
 1880              	.LASF48:
 1881 0159 674C696E 		.ascii	"gLine\000"
 1881      6500
 1882              	.LASF26:
 1883 015f 425F7661 		.ascii	"B_val\000"
 1883      6C00
 1884              	.LASF3:
 1885 0165 756E7369 		.ascii	"unsigned char\000"
 1885      676E6564 
 1885      20636861 
 1885      7200
 1886              	.LASF2:
 1887 0173 7369676E 		.ascii	"signed char\000"
 1887      65642063 
 1887      68617200 
 1888              	.LASF11:
 1889 017f 6C6F6E67 		.ascii	"long long unsigned int\000"
 1889      206C6F6E 
 1889      6720756E 
 1889      7369676E 
 1889      65642069 
 1890              	.LASF16:
 1891 0196 75696E74 		.ascii	"uint32_t\000"
 1891      33325F74 
 1891      00
 1892              	.LASF12:
 1893 019f 756E7369 		.ascii	"unsigned int\000"
 1893      676E6564 
 1893      20696E74 
 1893      00
 1894              	.LASF46:
ARM GAS  C:\Users\Armands\AppData\Local\Temp\ccZR2QL2.s 			page 40


 1895 01ac 6C696E65 		.ascii	"lineSens\000"
 1895      53656E73 
 1895      00
 1896              	.LASF45:
 1897 01b5 74696D6F 		.ascii	"timout_time\000"
 1897      75745F74 
 1897      696D6500 
 1898              	.LASF59:
 1899 01c1 66697273 		.ascii	"firstMoveSelector\000"
 1899      744D6F76 
 1899      6553656C 
 1899      6563746F 
 1899      7200
 1900              	.LASF58:
 1901 01d3 57616974 		.ascii	"WaitForIRStart\000"
 1901      466F7249 
 1901      52537461 
 1901      727400
 1902              	.LASF30:
 1903 01e2 52454152 		.ascii	"REAR\000"
 1903      00
 1904              	.LASF0:
 1905 01e7 5F5F696E 		.ascii	"__int8_t\000"
 1905      74385F74 
 1905      00
 1906              	.LASF19:
 1907 01f0 63686172 		.ascii	"char\000"
 1907      00
 1908              	.LASF15:
 1909 01f5 696E7433 		.ascii	"int32_t\000"
 1909      325F7400 
 1910              	.LASF6:
 1911 01fd 5F5F696E 		.ascii	"__int32_t\000"
 1911      7433325F 
 1911      7400
 1912              	.LASF5:
 1913 0207 73686F72 		.ascii	"short unsigned int\000"
 1913      7420756E 
 1913      7369676E 
 1913      65642069 
 1913      6E7400
 1914              	.LASF36:
 1915 021a 6D61785F 		.ascii	"max_pwm_Limited_L\000"
 1915      70776D5F 
 1915      4C696D69 
 1915      7465645F 
 1915      4C00
 1916              	.LASF37:
 1917 022c 6D61785F 		.ascii	"max_pwm_Limited_R\000"
 1917      70776D5F 
 1917      4C696D69 
 1917      7465645F 
 1917      5200
 1918              	.LASF53:
 1919 023e 64726976 		.ascii	"drive_backward\000"
 1919      655F6261 
 1919      636B7761 
ARM GAS  C:\Users\Armands\AppData\Local\Temp\ccZR2QL2.s 			page 41


 1919      726400
 1920              	.LASF44:
 1921 024d 73706565 		.ascii	"speedlimit\000"
 1921      646C696D 
 1921      697400
 1922              	.LASF51:
 1923 0258 64726976 		.ascii	"drive_forward\000"
 1923      655F666F 
 1923      72776172 
 1923      6400
 1924              	.LASF9:
 1925 0266 6C6F6E67 		.ascii	"long unsigned int\000"
 1925      20756E73 
 1925      69676E65 
 1925      6420696E 
 1925      7400
 1926              	.LASF35:
 1927 0278 7475726E 		.ascii	"turn_speed\000"
 1927      5F737065 
 1927      656400
 1928              	.LASF18:
 1929 0283 646F7562 		.ascii	"double\000"
 1929      6C6500
 1930              	.LASF40:
 1931 028a 4163744F 		.ascii	"ActOnEnemySpotted\000"
 1931      6E456E65 
 1931      6D795370 
 1931      6F747465 
 1931      6400
 1932              	.LASF29:
 1933 029c 465F5249 		.ascii	"F_RIGHT\000"
 1933      47485400 
 1934              	.LASF64:
 1935 02a4 74616374 		.ascii	"tactic0_basic.c\000"
 1935      6963305F 
 1935      62617369 
 1935      632E6300 
 1936              	.LASF32:
 1937 02b4 674C696E 		.ascii	"gLinevars\000"
 1937      65766172 
 1937      7300
 1938              	.LASF54:
 1939 02be 7475726E 		.ascii	"turn_left\000"
 1939      5F6C6566 
 1939      7400
 1940              	.LASF39:
 1941 02c8 4163744F 		.ascii	"ActOnLineDetected\000"
 1941      6E4C696E 
 1941      65446574 
 1941      65637465 
 1941      6400
 1942              	.LASF24:
 1943 02da 4652315F 		.ascii	"FR1_val\000"
 1943      76616C00 
 1944              	.LASF47:
 1945 02e2 49544D5F 		.ascii	"ITM_RxBuffer\000"
 1945      52784275 
ARM GAS  C:\Users\Armands\AppData\Local\Temp\ccZR2QL2.s 			page 42


 1945      66666572 
 1945      00
 1946              	.LASF63:
 1947 02ef 474E5520 		.ascii	"GNU C11 5.4.1 20160609 (release) [ARM/embedded-5-br"
 1947      43313120 
 1947      352E342E 
 1947      31203230 
 1947      31363036 
 1948 0322 616E6368 		.ascii	"anch revision 237715] -mcpu=cortex-m3 -mthumb -g -O"
 1948      20726576 
 1948      6973696F 
 1948      6E203233 
 1948      37373135 
 1949 0355 67202D66 		.ascii	"g -ffunction-sections -ffat-lto-objects\000"
 1949      66756E63 
 1949      74696F6E 
 1949      2D736563 
 1949      74696F6E 
 1950              	.LASF52:
 1951 037d 43794465 		.ascii	"CyDelay\000"
 1951      6C617900 
 1952              	.LASF34:
 1953 0385 62617369 		.ascii	"basic_speed\000"
 1953      635F7370 
 1953      65656400 
 1954              	.LASF22:
 1955 0391 464C315F 		.ascii	"FL1_val\000"
 1955      76616C00 
 1956              	.LASF38:
 1957 0399 446F536F 		.ascii	"DoSomething\000"
 1957      6D657468 
 1957      696E6700 
 1958              		.ident	"GCC: (GNU Tools for ARM Embedded Processors) 5.4.1 20160609 (release) [ARM/embedded-5-bran
