ARM GAS  C:\Users\aupen\AppData\Local\Temp\ccAfVDll.s 			page 1


   1              		.syntax unified
   2              		.cpu cortex-m3
   3              		.fpu softvfp
   4              		.eabi_attribute 20, 1
   5              		.eabi_attribute 21, 1
   6              		.eabi_attribute 23, 3
   7              		.eabi_attribute 24, 1
   8              		.eabi_attribute 25, 1
   9              		.eabi_attribute 26, 1
  10              		.eabi_attribute 30, 1
  11              		.eabi_attribute 34, 1
  12              		.eabi_attribute 18, 4
  13              		.thumb
  14              		.syntax unified
  15              		.file	"tactic_tic_tac.c"
  16              		.text
  17              	.Ltext0:
  18              		.cfi_sections	.debug_frame
  19              		.section	.text.DoSomething,"ax",%progbits
  20              		.align	2
  21              		.thumb
  22              		.thumb_func
  23              		.type	DoSomething, %function
  24              	DoSomething:
  25              	.LFB66:
  26              		.file 1 "tactic_tic_tac.c"
   1:tactic_tic_tac.c **** /* ========================================
   2:tactic_tic_tac.c ****  *
   3:tactic_tic_tac.c ****  * Copyright YOUR COMPANY, THE YEAR
   4:tactic_tic_tac.c ****  * All Rights Reserved
   5:tactic_tic_tac.c ****  * UNPUBLISHED, LICENSED SOFTWARE.
   6:tactic_tic_tac.c ****  *
   7:tactic_tic_tac.c ****  * CONFIDENTIAL AND PROPRIETARY INFORMATION
   8:tactic_tic_tac.c ****  * WHICH IS THE PROPERTY OF your company.
   9:tactic_tic_tac.c ****  *
  10:tactic_tic_tac.c ****  * ========================================
  11:tactic_tic_tac.c **** */
  12:tactic_tic_tac.c **** #include <project.h>
  13:tactic_tic_tac.c **** #include "tactic_tic_tac.h"
  14:tactic_tic_tac.c **** #include "sensors.h"
  15:tactic_tic_tac.c **** #include "timer_time.h"
  16:tactic_tic_tac.c **** #include "drive.h"
  17:tactic_tic_tac.c **** #include "first_move.h"
  18:tactic_tic_tac.c **** 
  19:tactic_tic_tac.c **** //=============================================================================
  20:tactic_tic_tac.c **** // Private defines and typedefs
  21:tactic_tic_tac.c **** //=============================================================================
  22:tactic_tic_tac.c **** #define Rd_bits(value, mask)        ((value)&(mask))
  23:tactic_tic_tac.c **** 
  24:tactic_tic_tac.c **** #define SEARCH_PWM_L  25
  25:tactic_tic_tac.c **** #define SEARCH_PWM_R  25
  26:tactic_tic_tac.c **** #define TURN_PWM    40
  27:tactic_tic_tac.c **** //#define ATTACK_PWM  70
  28:tactic_tic_tac.c **** 
  29:tactic_tic_tac.c **** //=============================================================================
  30:tactic_tic_tac.c **** // Private function declarations
  31:tactic_tic_tac.c **** //=============================================================================
ARM GAS  C:\Users\aupen\AppData\Local\Temp\ccAfVDll.s 			page 2


  32:tactic_tic_tac.c **** static void ActOnEnemySpotted(void);
  33:tactic_tic_tac.c **** static void ActOnLineDetected(void);
  34:tactic_tic_tac.c **** static void DoSomething(void);
  35:tactic_tic_tac.c **** 
  36:tactic_tic_tac.c **** //=============================================================================
  37:tactic_tic_tac.c **** // Private data definitions
  38:tactic_tic_tac.c **** //=============================================================================
  39:tactic_tic_tac.c **** static uint8_t lineSens = 0;
  40:tactic_tic_tac.c **** static uint8_t distSens = 0;
  41:tactic_tic_tac.c **** int speed_pwm = 80;
  42:tactic_tic_tac.c **** 
  43:tactic_tic_tac.c **** //=============================================================================
  44:tactic_tic_tac.c **** // Public function definitions
  45:tactic_tic_tac.c **** //=============================================================================
  46:tactic_tic_tac.c **** 
  47:tactic_tic_tac.c **** //-----------------------------------------------------------------------------
  48:tactic_tic_tac.c **** //! \brief	Combat tactic #1 in action
  49:tactic_tic_tac.c **** //-----------------------------------------------------------------------------
  50:tactic_tic_tac.c **** void RunTactic8(int firstMove, int speedlimit)
  51:tactic_tic_tac.c **** {
  52:tactic_tic_tac.c ****     WaitForIRStart();
  53:tactic_tic_tac.c ****     speed_pwm = speedlimit;
  54:tactic_tic_tac.c ****     // ============================ First move ================================
  55:tactic_tic_tac.c **** 
  56:tactic_tic_tac.c ****     firstMoveSelector(firstMove);
  57:tactic_tic_tac.c ****     
  58:tactic_tic_tac.c ****     
  59:tactic_tic_tac.c ****     //drive_forward(SEARCH_PWM_L, SEARCH_PWM_R);
  60:tactic_tic_tac.c ****     //CyDelay(50);
  61:tactic_tic_tac.c **** 
  62:tactic_tic_tac.c **** 
  63:tactic_tic_tac.c ****     // ============================= Main loop ================================
  64:tactic_tic_tac.c ****     uint32_t timout_time = millis();
  65:tactic_tic_tac.c ****     while (1) {
  66:tactic_tic_tac.c **** 		// read all sensors
  67:tactic_tic_tac.c **** 		lineSens = LineSensRead();
  68:tactic_tic_tac.c **** 	    distSens = DistSensRead(); //Distance_sensor_value_Read();
  69:tactic_tic_tac.c ****         //Sensor_Reset_Write(0xFF);  // why???
  70:tactic_tic_tac.c ****         
  71:tactic_tic_tac.c ****         //Sensor_Reset_Write(0); 
  72:tactic_tic_tac.c **** 
  73:tactic_tic_tac.c **** 		if( 0 < lineSens ){
  74:tactic_tic_tac.c **** 			// line has detected
  75:tactic_tic_tac.c **** 		    ActOnLineDetected();
  76:tactic_tic_tac.c **** 			timout_time = millis();
  77:tactic_tic_tac.c **** 		}
  78:tactic_tic_tac.c **** 		else if( 0 < distSens ){
  79:tactic_tic_tac.c **** 			// opponent spotted
  80:tactic_tic_tac.c **** 			ActOnEnemySpotted();
  81:tactic_tic_tac.c **** 			timout_time = millis();
  82:tactic_tic_tac.c **** 		}
  83:tactic_tic_tac.c ****         else {
  84:tactic_tic_tac.c ****             drive_forward(SEARCH_PWM_L, SEARCH_PWM_R);
  85:tactic_tic_tac.c ****             //CyDelay(50);
  86:tactic_tic_tac.c ****         }
  87:tactic_tic_tac.c **** 
  88:tactic_tic_tac.c **** 		if( 3000 < millis() - timout_time ){
ARM GAS  C:\Users\aupen\AppData\Local\Temp\ccAfVDll.s 			page 3


  89:tactic_tic_tac.c **** 			timout_time = millis();
  90:tactic_tic_tac.c **** 			DoSomething();
  91:tactic_tic_tac.c ****             Servo_enable_Write(0);
  92:tactic_tic_tac.c **** 		}
  93:tactic_tic_tac.c ****     }
  94:tactic_tic_tac.c **** }
  95:tactic_tic_tac.c **** 
  96:tactic_tic_tac.c **** //=============================================================================
  97:tactic_tic_tac.c **** // Private function definitions
  98:tactic_tic_tac.c **** //=============================================================================
  99:tactic_tic_tac.c **** 
 100:tactic_tic_tac.c **** //! \brief	Act on opponent spotted event
 101:tactic_tic_tac.c **** void ActOnEnemySpotted(void){
 102:tactic_tic_tac.c **** 
 103:tactic_tic_tac.c **** 
 104:tactic_tic_tac.c **** 	    int distSens = DistSensRead(); //Distance_sensor_value_Read();
 105:tactic_tic_tac.c ****         //Sensor_Reset_Write(0xFF);  // why???
 106:tactic_tic_tac.c ****         
 107:tactic_tic_tac.c ****         //Sensor_Reset_Write(0); 
 108:tactic_tic_tac.c **** 
 109:tactic_tic_tac.c ****     	if( 0 < distSens ){
 110:tactic_tic_tac.c ****             int8_t avrg_angle_grad = CalcAvrgAngle();
 111:tactic_tic_tac.c **** 
 112:tactic_tic_tac.c ****         	int8_t pwm = 60;
 113:tactic_tic_tac.c ****             // Attack spotted opponent
 114:tactic_tic_tac.c ****         	if( 0 == avrg_angle_grad ){
 115:tactic_tic_tac.c ****         		drive_forward( speed_pwm , speed_pwm );		// drive forward
 116:tactic_tic_tac.c ****         		CyDelay(40);
 117:tactic_tic_tac.c ****         	}else if( -60 >= avrg_angle_grad ){
 118:tactic_tic_tac.c ****         		// [-90; -60] grad
 119:tactic_tic_tac.c ****         		turn_left(TURN_PWM,TURN_PWM); //drive_motors( -pwm, pwm );		// turn on spot left
 120:tactic_tic_tac.c ****                 CyDelay(40);
 121:tactic_tic_tac.c ****         	}else if( -30 >= avrg_angle_grad ){
 122:tactic_tic_tac.c ****         		// (-60; -30] grad
 123:tactic_tic_tac.c ****         		drive_forward( pwm / 3, pwm );	// drive more left
 124:tactic_tic_tac.c ****                 CyDelay(30);
 125:tactic_tic_tac.c ****         	}else if( 0 > avrg_angle_grad ){
 126:tactic_tic_tac.c ****         		// (-30; 0) grad
 127:tactic_tic_tac.c ****         		drive_forward( speed_pwm * 0.7, speed_pwm );	// drive little left
 128:tactic_tic_tac.c ****                 CyDelay(40);
 129:tactic_tic_tac.c ****         	}else if( 60 <= avrg_angle_grad ){
 130:tactic_tic_tac.c ****         		// [60; 90] grad
 131:tactic_tic_tac.c ****         		turn_right(TURN_PWM,TURN_PWM); //drive_motors( pwm, -pwm );		// turn on spot right
 132:tactic_tic_tac.c ****                 CyDelay(40);
 133:tactic_tic_tac.c ****         	}else if( 30 <= avrg_angle_grad ){
 134:tactic_tic_tac.c ****         		// [30; 60) grad
 135:tactic_tic_tac.c ****         		drive_forward( pwm, pwm / 3 );	// drive more right
 136:tactic_tic_tac.c ****                 CyDelay(30);
 137:tactic_tic_tac.c ****         	}else if( 0 <= avrg_angle_grad ){
 138:tactic_tic_tac.c ****         		// (0; 30) grad
 139:tactic_tic_tac.c ****         		drive_forward( speed_pwm, speed_pwm * 0.7 );	// drive little right
 140:tactic_tic_tac.c ****                 CyDelay(40);
 141:tactic_tic_tac.c ****         	}
 142:tactic_tic_tac.c ****             CyDelay(10);
 143:tactic_tic_tac.c **** 
 144:tactic_tic_tac.c ****     		}
 145:tactic_tic_tac.c ****         else {
ARM GAS  C:\Users\aupen\AppData\Local\Temp\ccAfVDll.s 			page 4


 146:tactic_tic_tac.c ****             drive_forward(30, 30);
 147:tactic_tic_tac.c ****             //CyDelay(50);
 148:tactic_tic_tac.c ****         }
 149:tactic_tic_tac.c ****        
 150:tactic_tic_tac.c **** }
 151:tactic_tic_tac.c **** 
 152:tactic_tic_tac.c **** //! \brief	Act on line detected event
 153:tactic_tic_tac.c **** void ActOnLineDetected(void){
 154:tactic_tic_tac.c **** 	//int lineSens = LineSensRead();
 155:tactic_tic_tac.c ****      
 156:tactic_tic_tac.c **** 	// Line_FL && Line_FR
 157:tactic_tic_tac.c **** 	if(gLine.F_LEFT && gLine.F_RIGHT){
 158:tactic_tic_tac.c ****         drive_backward(40,40); //drive_distance_straight_backward(10, 40);
 159:tactic_tic_tac.c ****         CyDelay(400);
 160:tactic_tic_tac.c ****         //turn_angle_right(170,50);
 161:tactic_tic_tac.c ****         turn_left(TURN_PWM,TURN_PWM); //turn_angle_right(180, TURN_PWM );
 162:tactic_tic_tac.c ****         CyDelay(300);
 163:tactic_tic_tac.c **** 	}
 164:tactic_tic_tac.c **** 	// Line_FL
 165:tactic_tic_tac.c **** 	else if(gLine.F_LEFT){
 166:tactic_tic_tac.c ****         drive_backward(40,40); //drive_distance_straight_backward(10, 40);
 167:tactic_tic_tac.c ****         CyDelay(150);
 168:tactic_tic_tac.c ****         turn_right(TURN_PWM,TURN_PWM); //turn_angle_right(135, TURN_PWM );
 169:tactic_tic_tac.c ****         CyDelay(200);
 170:tactic_tic_tac.c **** 	}
 171:tactic_tic_tac.c **** 	// Line_FR
 172:tactic_tic_tac.c **** 	else if(gLine.F_RIGHT){
 173:tactic_tic_tac.c ****         drive_backward(40,40); //drive_distance_straight_backward(10, 40);
 174:tactic_tic_tac.c ****         CyDelay(150);
 175:tactic_tic_tac.c ****         turn_left(TURN_PWM,TURN_PWM); //turn_angle_left(135, TURN_PWM );
 176:tactic_tic_tac.c ****         CyDelay(200);
 177:tactic_tic_tac.c **** 	}
 178:tactic_tic_tac.c ****     //drive_forward( 0, 0 );
 179:tactic_tic_tac.c **** }
 180:tactic_tic_tac.c **** 
 181:tactic_tic_tac.c **** //! \brief	Do something when opponent is not visible
 182:tactic_tic_tac.c **** void DoSomething(void){
  27              		.loc 1 182 0
  28              		.cfi_startproc
  29              		@ args = 0, pretend = 0, frame = 0
  30              		@ frame_needed = 0, uses_anonymous_args = 0
  31 0000 08B5     		push	{r3, lr}
  32              		.cfi_def_cfa_offset 8
  33              		.cfi_offset 3, -8
  34              		.cfi_offset 14, -4
 183:tactic_tic_tac.c **** 	// Drive little forward.
 184:tactic_tic_tac.c ****     //drive_forward( 40, 40 );
 185:tactic_tic_tac.c ****     //CyDelay(50);
 186:tactic_tic_tac.c ****     drive_forward( 0, 0 ); // BREAK A BIT FOR FUN
  35              		.loc 1 186 0
  36 0002 0021     		movs	r1, #0
  37 0004 0846     		mov	r0, r1
  38 0006 FFF7FEFF 		bl	drive_forward
  39              	.LVL0:
 187:tactic_tic_tac.c ****     CyDelay(50);
  40              		.loc 1 187 0
  41 000a 3220     		movs	r0, #50
ARM GAS  C:\Users\aupen\AppData\Local\Temp\ccAfVDll.s 			page 5


  42 000c FFF7FEFF 		bl	CyDelay
  43              	.LVL1:
  44 0010 08BD     		pop	{r3, pc}
  45              		.cfi_endproc
  46              	.LFE66:
  47              		.size	DoSomething, .-DoSomething
  48 0012 00BF     		.section	.text.ActOnLineDetected,"ax",%progbits
  49              		.align	2
  50              		.thumb
  51              		.thumb_func
  52              		.type	ActOnLineDetected, %function
  53              	ActOnLineDetected:
  54              	.LFB65:
 153:tactic_tic_tac.c **** 	//int lineSens = LineSensRead();
  55              		.loc 1 153 0
  56              		.cfi_startproc
  57              		@ args = 0, pretend = 0, frame = 0
  58              		@ frame_needed = 0, uses_anonymous_args = 0
  59 0000 08B5     		push	{r3, lr}
  60              		.cfi_def_cfa_offset 8
  61              		.cfi_offset 3, -8
  62              		.cfi_offset 14, -4
 157:tactic_tic_tac.c ****         drive_backward(40,40); //drive_distance_straight_backward(10, 40);
  63              		.loc 1 157 0
  64 0002 1C4B     		ldr	r3, .L8
  65 0004 9B69     		ldr	r3, [r3, #24]
  66 0006 9BB1     		cbz	r3, .L4
 157:tactic_tic_tac.c ****         drive_backward(40,40); //drive_distance_straight_backward(10, 40);
  67              		.loc 1 157 0 is_stmt 0 discriminator 1
  68 0008 1A4A     		ldr	r2, .L8
  69 000a D269     		ldr	r2, [r2, #28]
  70 000c 82B1     		cbz	r2, .L4
 158:tactic_tic_tac.c ****         CyDelay(400);
  71              		.loc 1 158 0 is_stmt 1
  72 000e 2821     		movs	r1, #40
  73 0010 0846     		mov	r0, r1
  74 0012 FFF7FEFF 		bl	drive_backward
  75              	.LVL2:
 159:tactic_tic_tac.c ****         //turn_angle_right(170,50);
  76              		.loc 1 159 0
  77 0016 4FF4C870 		mov	r0, #400
  78 001a FFF7FEFF 		bl	CyDelay
  79              	.LVL3:
 161:tactic_tic_tac.c ****         CyDelay(300);
  80              		.loc 1 161 0
  81 001e 2821     		movs	r1, #40
  82 0020 0846     		mov	r0, r1
  83 0022 FFF7FEFF 		bl	turn_left
  84              	.LVL4:
 162:tactic_tic_tac.c **** 	}
  85              		.loc 1 162 0
  86 0026 4FF49670 		mov	r0, #300
  87 002a FFF7FEFF 		bl	CyDelay
  88              	.LVL5:
  89 002e 08BD     		pop	{r3, pc}
  90              	.L4:
 165:tactic_tic_tac.c ****         drive_backward(40,40); //drive_distance_straight_backward(10, 40);
ARM GAS  C:\Users\aupen\AppData\Local\Temp\ccAfVDll.s 			page 6


  91              		.loc 1 165 0
  92 0030 73B1     		cbz	r3, .L6
 166:tactic_tic_tac.c ****         CyDelay(150);
  93              		.loc 1 166 0
  94 0032 2821     		movs	r1, #40
  95 0034 0846     		mov	r0, r1
  96 0036 FFF7FEFF 		bl	drive_backward
  97              	.LVL6:
 167:tactic_tic_tac.c ****         turn_right(TURN_PWM,TURN_PWM); //turn_angle_right(135, TURN_PWM );
  98              		.loc 1 167 0
  99 003a 9620     		movs	r0, #150
 100 003c FFF7FEFF 		bl	CyDelay
 101              	.LVL7:
 168:tactic_tic_tac.c ****         CyDelay(200);
 102              		.loc 1 168 0
 103 0040 2821     		movs	r1, #40
 104 0042 0846     		mov	r0, r1
 105 0044 FFF7FEFF 		bl	turn_right
 106              	.LVL8:
 169:tactic_tic_tac.c **** 	}
 107              		.loc 1 169 0
 108 0048 C820     		movs	r0, #200
 109 004a FFF7FEFF 		bl	CyDelay
 110              	.LVL9:
 111 004e 08BD     		pop	{r3, pc}
 112              	.L6:
 172:tactic_tic_tac.c ****         drive_backward(40,40); //drive_distance_straight_backward(10, 40);
 113              		.loc 1 172 0
 114 0050 084B     		ldr	r3, .L8
 115 0052 DB69     		ldr	r3, [r3, #28]
 116 0054 6BB1     		cbz	r3, .L3
 173:tactic_tic_tac.c ****         CyDelay(150);
 117              		.loc 1 173 0
 118 0056 2821     		movs	r1, #40
 119 0058 0846     		mov	r0, r1
 120 005a FFF7FEFF 		bl	drive_backward
 121              	.LVL10:
 174:tactic_tic_tac.c ****         turn_left(TURN_PWM,TURN_PWM); //turn_angle_left(135, TURN_PWM );
 122              		.loc 1 174 0
 123 005e 9620     		movs	r0, #150
 124 0060 FFF7FEFF 		bl	CyDelay
 125              	.LVL11:
 175:tactic_tic_tac.c ****         CyDelay(200);
 126              		.loc 1 175 0
 127 0064 2821     		movs	r1, #40
 128 0066 0846     		mov	r0, r1
 129 0068 FFF7FEFF 		bl	turn_left
 130              	.LVL12:
 176:tactic_tic_tac.c **** 	}
 131              		.loc 1 176 0
 132 006c C820     		movs	r0, #200
 133 006e FFF7FEFF 		bl	CyDelay
 134              	.LVL13:
 135              	.L3:
 136 0072 08BD     		pop	{r3, pc}
 137              	.L9:
 138              		.align	2
ARM GAS  C:\Users\aupen\AppData\Local\Temp\ccAfVDll.s 			page 7


 139              	.L8:
 140 0074 00000000 		.word	gLine
 141              		.cfi_endproc
 142              	.LFE65:
 143              		.size	ActOnLineDetected, .-ActOnLineDetected
 144              		.global	__aeabi_i2d
 145              		.global	__aeabi_dmul
 146              		.global	__aeabi_d2iz
 147              		.section	.text.ActOnEnemySpotted,"ax",%progbits
 148              		.align	2
 149              		.thumb
 150              		.thumb_func
 151              		.type	ActOnEnemySpotted, %function
 152              	ActOnEnemySpotted:
 153              	.LFB64:
 101:tactic_tic_tac.c **** 
 154              		.loc 1 101 0
 155              		.cfi_startproc
 156              		@ args = 0, pretend = 0, frame = 0
 157              		@ frame_needed = 0, uses_anonymous_args = 0
 158 0000 10B5     		push	{r4, lr}
 159              		.cfi_def_cfa_offset 8
 160              		.cfi_offset 4, -8
 161              		.cfi_offset 14, -4
 104:tactic_tic_tac.c ****         //Sensor_Reset_Write(0xFF);  // why???
 162              		.loc 1 104 0
 163 0002 FFF7FEFF 		bl	DistSensRead
 164              	.LVL14:
 109:tactic_tic_tac.c ****             int8_t avrg_angle_grad = CalcAvrgAngle();
 165              		.loc 1 109 0
 166 0006 0028     		cmp	r0, #0
 167 0008 63DD     		ble	.L11
 168              	.LBB2:
 110:tactic_tic_tac.c **** 
 169              		.loc 1 110 0
 170 000a FFF7FEFF 		bl	CalcAvrgAngle
 171              	.LVL15:
 114:tactic_tic_tac.c ****         		drive_forward( speed_pwm , speed_pwm );		// drive forward
 172              		.loc 1 114 0
 173 000e 40B9     		cbnz	r0, .L12
 115:tactic_tic_tac.c ****         		CyDelay(40);
 174              		.loc 1 115 0
 175 0010 354B     		ldr	r3, .L21+8
 176 0012 1868     		ldr	r0, [r3]
 177              	.LVL16:
 178 0014 0146     		mov	r1, r0
 179 0016 FFF7FEFF 		bl	drive_forward
 180              	.LVL17:
 116:tactic_tic_tac.c ****         	}else if( -60 >= avrg_angle_grad ){
 181              		.loc 1 116 0
 182 001a 2820     		movs	r0, #40
 183 001c FFF7FEFF 		bl	CyDelay
 184              	.LVL18:
 185 0020 53E0     		b	.L13
 186              	.LVL19:
 187              	.L12:
 117:tactic_tic_tac.c ****         		// [-90; -60] grad
ARM GAS  C:\Users\aupen\AppData\Local\Temp\ccAfVDll.s 			page 8


 188              		.loc 1 117 0
 189 0022 10F13B0F 		cmn	r0, #59
 190 0026 07DA     		bge	.L14
 119:tactic_tic_tac.c ****                 CyDelay(40);
 191              		.loc 1 119 0
 192 0028 2821     		movs	r1, #40
 193 002a 0846     		mov	r0, r1
 194              	.LVL20:
 195 002c FFF7FEFF 		bl	turn_left
 196              	.LVL21:
 120:tactic_tic_tac.c ****         	}else if( -30 >= avrg_angle_grad ){
 197              		.loc 1 120 0
 198 0030 2820     		movs	r0, #40
 199 0032 FFF7FEFF 		bl	CyDelay
 200              	.LVL22:
 201 0036 48E0     		b	.L13
 202              	.LVL23:
 203              	.L14:
 121:tactic_tic_tac.c ****         		// (-60; -30] grad
 204              		.loc 1 121 0
 205 0038 10F11D0F 		cmn	r0, #29
 206 003c 07DA     		bge	.L15
 123:tactic_tic_tac.c ****                 CyDelay(30);
 207              		.loc 1 123 0
 208 003e 3C21     		movs	r1, #60
 209 0040 1420     		movs	r0, #20
 210              	.LVL24:
 211 0042 FFF7FEFF 		bl	drive_forward
 212              	.LVL25:
 124:tactic_tic_tac.c ****         	}else if( 0 > avrg_angle_grad ){
 213              		.loc 1 124 0
 214 0046 1E20     		movs	r0, #30
 215 0048 FFF7FEFF 		bl	CyDelay
 216              	.LVL26:
 217 004c 3DE0     		b	.L13
 218              	.LVL27:
 219              	.L15:
 125:tactic_tic_tac.c ****         		// (-30; 0) grad
 220              		.loc 1 125 0
 221 004e 0028     		cmp	r0, #0
 222 0050 12DA     		bge	.L16
 127:tactic_tic_tac.c ****                 CyDelay(40);
 223              		.loc 1 127 0
 224 0052 254B     		ldr	r3, .L21+8
 225 0054 1C68     		ldr	r4, [r3]
 226 0056 2046     		mov	r0, r4
 227              	.LVL28:
 228 0058 FFF7FEFF 		bl	__aeabi_i2d
 229              	.LVL29:
 230 005c 20A3     		adr	r3, .L21
 231 005e D3E90023 		ldrd	r2, [r3]
 232 0062 FFF7FEFF 		bl	__aeabi_dmul
 233              	.LVL30:
 234 0066 FFF7FEFF 		bl	__aeabi_d2iz
 235              	.LVL31:
 236 006a 2146     		mov	r1, r4
 237 006c FFF7FEFF 		bl	drive_forward
ARM GAS  C:\Users\aupen\AppData\Local\Temp\ccAfVDll.s 			page 9


 238              	.LVL32:
 128:tactic_tic_tac.c ****         	}else if( 60 <= avrg_angle_grad ){
 239              		.loc 1 128 0
 240 0070 2820     		movs	r0, #40
 241 0072 FFF7FEFF 		bl	CyDelay
 242              	.LVL33:
 243 0076 28E0     		b	.L13
 244              	.LVL34:
 245              	.L16:
 129:tactic_tic_tac.c ****         		// [60; 90] grad
 246              		.loc 1 129 0
 247 0078 3B28     		cmp	r0, #59
 248 007a 07DD     		ble	.L17
 131:tactic_tic_tac.c ****                 CyDelay(40);
 249              		.loc 1 131 0
 250 007c 2821     		movs	r1, #40
 251 007e 0846     		mov	r0, r1
 252              	.LVL35:
 253 0080 FFF7FEFF 		bl	turn_right
 254              	.LVL36:
 132:tactic_tic_tac.c ****         	}else if( 30 <= avrg_angle_grad ){
 255              		.loc 1 132 0
 256 0084 2820     		movs	r0, #40
 257 0086 FFF7FEFF 		bl	CyDelay
 258              	.LVL37:
 259 008a 1EE0     		b	.L13
 260              	.LVL38:
 261              	.L17:
 133:tactic_tic_tac.c ****         		// [30; 60) grad
 262              		.loc 1 133 0
 263 008c 1D28     		cmp	r0, #29
 264 008e 07DD     		ble	.L18
 135:tactic_tic_tac.c ****                 CyDelay(30);
 265              		.loc 1 135 0
 266 0090 1421     		movs	r1, #20
 267 0092 3C20     		movs	r0, #60
 268              	.LVL39:
 269 0094 FFF7FEFF 		bl	drive_forward
 270              	.LVL40:
 136:tactic_tic_tac.c ****         	}else if( 0 <= avrg_angle_grad ){
 271              		.loc 1 136 0
 272 0098 1E20     		movs	r0, #30
 273 009a FFF7FEFF 		bl	CyDelay
 274              	.LVL41:
 275 009e 14E0     		b	.L13
 276              	.LVL42:
 277              	.L18:
 137:tactic_tic_tac.c ****         		// (0; 30) grad
 278              		.loc 1 137 0
 279 00a0 0028     		cmp	r0, #0
 280 00a2 12DB     		blt	.L13
 139:tactic_tic_tac.c ****                 CyDelay(40);
 281              		.loc 1 139 0
 282 00a4 104B     		ldr	r3, .L21+8
 283 00a6 1C68     		ldr	r4, [r3]
 284 00a8 2046     		mov	r0, r4
 285              	.LVL43:
ARM GAS  C:\Users\aupen\AppData\Local\Temp\ccAfVDll.s 			page 10


 286 00aa FFF7FEFF 		bl	__aeabi_i2d
 287              	.LVL44:
 288 00ae 0CA3     		adr	r3, .L21
 289 00b0 D3E90023 		ldrd	r2, [r3]
 290 00b4 FFF7FEFF 		bl	__aeabi_dmul
 291              	.LVL45:
 292 00b8 FFF7FEFF 		bl	__aeabi_d2iz
 293              	.LVL46:
 294 00bc 0146     		mov	r1, r0
 295 00be 2046     		mov	r0, r4
 296 00c0 FFF7FEFF 		bl	drive_forward
 297              	.LVL47:
 140:tactic_tic_tac.c ****         	}
 298              		.loc 1 140 0
 299 00c4 2820     		movs	r0, #40
 300 00c6 FFF7FEFF 		bl	CyDelay
 301              	.LVL48:
 302              	.L13:
 142:tactic_tic_tac.c **** 
 303              		.loc 1 142 0
 304 00ca 0A20     		movs	r0, #10
 305 00cc FFF7FEFF 		bl	CyDelay
 306              	.LVL49:
 307              	.LBE2:
 308 00d0 10BD     		pop	{r4, pc}
 309              	.LVL50:
 310              	.L11:
 146:tactic_tic_tac.c ****             //CyDelay(50);
 311              		.loc 1 146 0
 312 00d2 1E21     		movs	r1, #30
 313 00d4 0846     		mov	r0, r1
 314              	.LVL51:
 315 00d6 FFF7FEFF 		bl	drive_forward
 316              	.LVL52:
 317 00da 10BD     		pop	{r4, pc}
 318              	.L22:
 319 00dc AFF30080 		.align	3
 320              	.L21:
 321 00e0 66666666 		.word	1717986918
 322 00e4 6666E63F 		.word	1072064102
 323 00e8 00000000 		.word	.LANCHOR0
 324              		.cfi_endproc
 325              	.LFE64:
 326              		.size	ActOnEnemySpotted, .-ActOnEnemySpotted
 327              		.section	.text.RunTactic8,"ax",%progbits
 328              		.align	2
 329              		.global	RunTactic8
 330              		.thumb
 331              		.thumb_func
 332              		.type	RunTactic8, %function
 333              	RunTactic8:
 334              	.LFB63:
  51:tactic_tic_tac.c ****     WaitForIRStart();
 335              		.loc 1 51 0
 336              		.cfi_startproc
 337              		@ args = 0, pretend = 0, frame = 0
 338              		@ frame_needed = 0, uses_anonymous_args = 0
ARM GAS  C:\Users\aupen\AppData\Local\Temp\ccAfVDll.s 			page 11


 339              	.LVL53:
 340 0000 38B5     		push	{r3, r4, r5, lr}
 341              		.cfi_def_cfa_offset 16
 342              		.cfi_offset 3, -16
 343              		.cfi_offset 4, -12
 344              		.cfi_offset 5, -8
 345              		.cfi_offset 14, -4
 346 0002 0446     		mov	r4, r0
 347 0004 0D46     		mov	r5, r1
  52:tactic_tic_tac.c ****     speed_pwm = speedlimit;
 348              		.loc 1 52 0
 349 0006 FFF7FEFF 		bl	WaitForIRStart
 350              	.LVL54:
  53:tactic_tic_tac.c ****     // ============================ First move ================================
 351              		.loc 1 53 0
 352 000a 184B     		ldr	r3, .L30
 353 000c 1D60     		str	r5, [r3]
  56:tactic_tic_tac.c ****     
 354              		.loc 1 56 0
 355 000e E0B2     		uxtb	r0, r4
 356 0010 FFF7FEFF 		bl	firstMoveSelector
 357              	.LVL55:
  64:tactic_tic_tac.c ****     while (1) {
 358              		.loc 1 64 0
 359 0014 FFF7FEFF 		bl	millis
 360              	.LVL56:
 361 0018 0546     		mov	r5, r0
 362              	.LVL57:
 363              	.L27:
  67:tactic_tic_tac.c **** 	    distSens = DistSensRead(); //Distance_sensor_value_Read();
 364              		.loc 1 67 0
 365 001a FFF7FEFF 		bl	LineSensRead
 366              	.LVL58:
 367 001e 144C     		ldr	r4, .L30+4
 368 0020 2070     		strb	r0, [r4]
  68:tactic_tic_tac.c ****         //Sensor_Reset_Write(0xFF);  // why???
 369              		.loc 1 68 0
 370 0022 FFF7FEFF 		bl	DistSensRead
 371              	.LVL59:
  73:tactic_tic_tac.c **** 			// line has detected
 372              		.loc 1 73 0
 373 0026 2378     		ldrb	r3, [r4]	@ zero_extendqisi2
 374 0028 2BB1     		cbz	r3, .L24
  75:tactic_tic_tac.c **** 			timout_time = millis();
 375              		.loc 1 75 0
 376 002a FFF7FEFF 		bl	ActOnLineDetected
 377              	.LVL60:
  76:tactic_tic_tac.c **** 		}
 378              		.loc 1 76 0
 379 002e FFF7FEFF 		bl	millis
 380              	.LVL61:
 381 0032 0546     		mov	r5, r0
 382              	.LVL62:
 383 0034 0AE0     		b	.L25
 384              	.LVL63:
 385              	.L24:
  78:tactic_tic_tac.c **** 			// opponent spotted
ARM GAS  C:\Users\aupen\AppData\Local\Temp\ccAfVDll.s 			page 12


 386              		.loc 1 78 0
 387 0036 28B1     		cbz	r0, .L26
  80:tactic_tic_tac.c **** 			timout_time = millis();
 388              		.loc 1 80 0
 389 0038 FFF7FEFF 		bl	ActOnEnemySpotted
 390              	.LVL64:
  81:tactic_tic_tac.c **** 		}
 391              		.loc 1 81 0
 392 003c FFF7FEFF 		bl	millis
 393              	.LVL65:
 394 0040 0546     		mov	r5, r0
 395              	.LVL66:
 396 0042 03E0     		b	.L25
 397              	.LVL67:
 398              	.L26:
  84:tactic_tic_tac.c ****             //CyDelay(50);
 399              		.loc 1 84 0
 400 0044 1921     		movs	r1, #25
 401 0046 0846     		mov	r0, r1
 402 0048 FFF7FEFF 		bl	drive_forward
 403              	.LVL68:
 404              	.L25:
  88:tactic_tic_tac.c **** 			timout_time = millis();
 405              		.loc 1 88 0
 406 004c FFF7FEFF 		bl	millis
 407              	.LVL69:
 408 0050 401B     		subs	r0, r0, r5
 409 0052 40F6B833 		movw	r3, #3000
 410 0056 9842     		cmp	r0, r3
 411 0058 DFD9     		bls	.L27
  89:tactic_tic_tac.c **** 			DoSomething();
 412              		.loc 1 89 0
 413 005a FFF7FEFF 		bl	millis
 414              	.LVL70:
 415 005e 0546     		mov	r5, r0
 416              	.LVL71:
  90:tactic_tic_tac.c ****             Servo_enable_Write(0);
 417              		.loc 1 90 0
 418 0060 FFF7FEFF 		bl	DoSomething
 419              	.LVL72:
  91:tactic_tic_tac.c **** 		}
 420              		.loc 1 91 0
 421 0064 0020     		movs	r0, #0
 422 0066 FFF7FEFF 		bl	Servo_enable_Write
 423              	.LVL73:
 424 006a D6E7     		b	.L27
 425              	.L31:
 426              		.align	2
 427              	.L30:
 428 006c 00000000 		.word	.LANCHOR0
 429 0070 00000000 		.word	.LANCHOR1
 430              		.cfi_endproc
 431              	.LFE63:
 432              		.size	RunTactic8, .-RunTactic8
 433              		.global	speed_pwm
 434              		.comm	gMotor,16,4
 435              		.comm	gLine,96,4
ARM GAS  C:\Users\aupen\AppData\Local\Temp\ccAfVDll.s 			page 13


 436              		.data
 437              		.align	2
 438              		.set	.LANCHOR0,. + 0
 439              		.type	speed_pwm, %object
 440              		.size	speed_pwm, 4
 441              	speed_pwm:
 442 0000 50000000 		.word	80
 443              		.bss
 444              		.set	.LANCHOR1,. + 0
 445              		.type	lineSens, %object
 446              		.size	lineSens, 1
 447              	lineSens:
 448 0000 00       		.space	1
 449              		.text
 450              	.Letext0:
 451              		.file 2 "c:\\program files (x86)\\cypress\\psoc creator\\4.1\\psoc creator\\import\\gnu\\arm\\5.4.
 452              		.file 3 "c:\\program files (x86)\\cypress\\psoc creator\\4.1\\psoc creator\\import\\gnu\\arm\\5.4.
 453              		.file 4 "sensors.h"
 454              		.file 5 "drive.h"
 455              		.file 6 "Generated_Source\\PSoC5/core_cm3.h"
 456              		.file 7 "Generated_Source\\PSoC5/CyLib.h"
 457              		.file 8 "first_move.h"
 458              		.file 9 "timer_time.h"
 459              		.file 10 "Generated_Source\\PSoC5/Servo_enable.h"
 460              		.section	.debug_info,"",%progbits
 461              	.Ldebug_info0:
 462 0000 87060000 		.4byte	0x687
 463 0004 0400     		.2byte	0x4
 464 0006 00000000 		.4byte	.Ldebug_abbrev0
 465 000a 04       		.byte	0x4
 466 000b 01       		.uleb128 0x1
 467 000c DF020000 		.4byte	.LASF63
 468 0010 0C       		.byte	0xc
 469 0011 8B020000 		.4byte	.LASF64
 470 0015 69010000 		.4byte	.LASF65
 471 0019 00000000 		.4byte	.Ldebug_ranges0+0
 472 001d 00000000 		.4byte	0
 473 0021 00000000 		.4byte	.Ldebug_line0
 474 0025 02       		.uleb128 0x2
 475 0026 C4010000 		.4byte	.LASF0
 476 002a 02       		.byte	0x2
 477 002b 1B       		.byte	0x1b
 478 002c 30000000 		.4byte	0x30
 479 0030 03       		.uleb128 0x3
 480 0031 01       		.byte	0x1
 481 0032 06       		.byte	0x6
 482 0033 30010000 		.4byte	.LASF2
 483 0037 02       		.uleb128 0x2
 484 0038 F4000000 		.4byte	.LASF1
 485 003c 02       		.byte	0x2
 486 003d 1D       		.byte	0x1d
 487 003e 42000000 		.4byte	0x42
 488 0042 03       		.uleb128 0x3
 489 0043 01       		.byte	0x1
 490 0044 08       		.byte	0x8
 491 0045 22010000 		.4byte	.LASF3
 492 0049 03       		.uleb128 0x3
ARM GAS  C:\Users\aupen\AppData\Local\Temp\ccAfVDll.s 			page 14


 493 004a 02       		.byte	0x2
 494 004b 05       		.byte	0x5
 495 004c 2F000000 		.4byte	.LASF4
 496 0050 03       		.uleb128 0x3
 497 0051 02       		.byte	0x2
 498 0052 07       		.byte	0x7
 499 0053 ED010000 		.4byte	.LASF5
 500 0057 02       		.uleb128 0x2
 501 0058 E3010000 		.4byte	.LASF6
 502 005c 02       		.byte	0x2
 503 005d 3F       		.byte	0x3f
 504 005e 62000000 		.4byte	0x62
 505 0062 03       		.uleb128 0x3
 506 0063 04       		.byte	0x4
 507 0064 05       		.byte	0x5
 508 0065 D2010000 		.4byte	.LASF7
 509 0069 02       		.uleb128 0x2
 510 006a 58000000 		.4byte	.LASF8
 511 006e 02       		.byte	0x2
 512 006f 41       		.byte	0x41
 513 0070 74000000 		.4byte	0x74
 514 0074 03       		.uleb128 0x3
 515 0075 04       		.byte	0x4
 516 0076 07       		.byte	0x7
 517 0077 55020000 		.4byte	.LASF9
 518 007b 03       		.uleb128 0x3
 519 007c 08       		.byte	0x8
 520 007d 05       		.byte	0x5
 521 007e BA000000 		.4byte	.LASF10
 522 0082 03       		.uleb128 0x3
 523 0083 08       		.byte	0x8
 524 0084 07       		.byte	0x7
 525 0085 3C010000 		.4byte	.LASF11
 526 0089 04       		.uleb128 0x4
 527 008a 04       		.byte	0x4
 528 008b 05       		.byte	0x5
 529 008c 696E7400 		.ascii	"int\000"
 530 0090 03       		.uleb128 0x3
 531 0091 04       		.byte	0x4
 532 0092 07       		.byte	0x7
 533 0093 5C010000 		.4byte	.LASF12
 534 0097 02       		.uleb128 0x2
 535 0098 1B000000 		.4byte	.LASF13
 536 009c 03       		.byte	0x3
 537 009d 14       		.byte	0x14
 538 009e 25000000 		.4byte	0x25
 539 00a2 02       		.uleb128 0x2
 540 00a3 6E000000 		.4byte	.LASF14
 541 00a7 03       		.byte	0x3
 542 00a8 18       		.byte	0x18
 543 00a9 37000000 		.4byte	0x37
 544 00ad 02       		.uleb128 0x2
 545 00ae DB010000 		.4byte	.LASF15
 546 00b2 03       		.byte	0x3
 547 00b3 2C       		.byte	0x2c
 548 00b4 57000000 		.4byte	0x57
 549 00b8 02       		.uleb128 0x2
ARM GAS  C:\Users\aupen\AppData\Local\Temp\ccAfVDll.s 			page 15


 550 00b9 53010000 		.4byte	.LASF16
 551 00bd 03       		.byte	0x3
 552 00be 30       		.byte	0x30
 553 00bf 69000000 		.4byte	0x69
 554 00c3 03       		.uleb128 0x3
 555 00c4 04       		.byte	0x4
 556 00c5 04       		.byte	0x4
 557 00c6 99000000 		.4byte	.LASF17
 558 00ca 03       		.uleb128 0x3
 559 00cb 08       		.byte	0x8
 560 00cc 04       		.byte	0x4
 561 00cd 72020000 		.4byte	.LASF18
 562 00d1 03       		.uleb128 0x3
 563 00d2 01       		.byte	0x1
 564 00d3 08       		.byte	0x8
 565 00d4 CD010000 		.4byte	.LASF19
 566 00d8 03       		.uleb128 0x3
 567 00d9 08       		.byte	0x8
 568 00da 04       		.byte	0x4
 569 00db 4C000000 		.4byte	.LASF20
 570 00df 03       		.uleb128 0x3
 571 00e0 04       		.byte	0x4
 572 00e1 07       		.byte	0x7
 573 00e2 39000000 		.4byte	.LASF21
 574 00e6 05       		.uleb128 0x5
 575 00e7 A4020000 		.4byte	.LASF32
 576 00eb 60       		.byte	0x60
 577 00ec 04       		.byte	0x4
 578 00ed 2C       		.byte	0x2c
 579 00ee 6B010000 		.4byte	0x16b
 580 00f2 06       		.uleb128 0x6
 581 00f3 81030000 		.4byte	.LASF22
 582 00f7 04       		.byte	0x4
 583 00f8 2D       		.byte	0x2d
 584 00f9 89000000 		.4byte	0x89
 585 00fd 00       		.byte	0
 586 00fe 06       		.uleb128 0x6
 587 00ff 91000000 		.4byte	.LASF23
 588 0103 04       		.byte	0x4
 589 0104 2E       		.byte	0x2e
 590 0105 89000000 		.4byte	0x89
 591 0109 04       		.byte	0x4
 592 010a 06       		.uleb128 0x6
 593 010b CA020000 		.4byte	.LASF24
 594 010f 04       		.byte	0x4
 595 0110 2F       		.byte	0x2f
 596 0111 89000000 		.4byte	0x89
 597 0115 08       		.byte	0x8
 598 0116 06       		.uleb128 0x6
 599 0117 7F000000 		.4byte	.LASF25
 600 011b 04       		.byte	0x4
 601 011c 30       		.byte	0x30
 602 011d 89000000 		.4byte	0x89
 603 0121 0C       		.byte	0xc
 604 0122 06       		.uleb128 0x6
 605 0123 1C010000 		.4byte	.LASF26
 606 0127 04       		.byte	0x4
ARM GAS  C:\Users\aupen\AppData\Local\Temp\ccAfVDll.s 			page 16


 607 0128 32       		.byte	0x32
 608 0129 89000000 		.4byte	0x89
 609 012d 10       		.byte	0x10
 610 012e 06       		.uleb128 0x6
 611 012f 0E010000 		.4byte	.LASF27
 612 0133 04       		.byte	0x4
 613 0134 33       		.byte	0x33
 614 0135 89000000 		.4byte	0x89
 615 0139 14       		.byte	0x14
 616 013a 06       		.uleb128 0x6
 617 013b ED000000 		.4byte	.LASF28
 618 013f 04       		.byte	0x4
 619 0140 35       		.byte	0x35
 620 0141 89000000 		.4byte	0x89
 621 0145 18       		.byte	0x18
 622 0146 06       		.uleb128 0x6
 623 0147 9C020000 		.4byte	.LASF29
 624 014b 04       		.byte	0x4
 625 014c 36       		.byte	0x36
 626 014d 89000000 		.4byte	0x89
 627 0151 1C       		.byte	0x1c
 628 0152 06       		.uleb128 0x6
 629 0153 BF010000 		.4byte	.LASF30
 630 0157 04       		.byte	0x4
 631 0158 37       		.byte	0x37
 632 0159 89000000 		.4byte	0x89
 633 015d 20       		.byte	0x20
 634 015e 06       		.uleb128 0x6
 635 015f 76000000 		.4byte	.LASF31
 636 0163 04       		.byte	0x4
 637 0164 39       		.byte	0x39
 638 0165 6B010000 		.4byte	0x16b
 639 0169 24       		.byte	0x24
 640 016a 00       		.byte	0
 641 016b 07       		.uleb128 0x7
 642 016c 89000000 		.4byte	0x89
 643 0170 7B010000 		.4byte	0x17b
 644 0174 08       		.uleb128 0x8
 645 0175 DF000000 		.4byte	0xdf
 646 0179 0E       		.byte	0xe
 647 017a 00       		.byte	0
 648 017b 05       		.uleb128 0x5
 649 017c 10000000 		.4byte	.LASF33
 650 0180 10       		.byte	0x10
 651 0181 05       		.byte	0x5
 652 0182 11       		.byte	0x11
 653 0183 B8010000 		.4byte	0x1b8
 654 0187 06       		.uleb128 0x6
 655 0188 75030000 		.4byte	.LASF34
 656 018c 05       		.byte	0x5
 657 018d 12       		.byte	0x12
 658 018e 89000000 		.4byte	0x89
 659 0192 00       		.byte	0
 660 0193 06       		.uleb128 0x6
 661 0194 67020000 		.4byte	.LASF35
 662 0198 05       		.byte	0x5
 663 0199 13       		.byte	0x13
ARM GAS  C:\Users\aupen\AppData\Local\Temp\ccAfVDll.s 			page 17


 664 019a 89000000 		.4byte	0x89
 665 019e 04       		.byte	0x4
 666 019f 06       		.uleb128 0x6
 667 01a0 00020000 		.4byte	.LASF36
 668 01a4 05       		.byte	0x5
 669 01a5 14       		.byte	0x14
 670 01a6 89000000 		.4byte	0x89
 671 01aa 08       		.byte	0x8
 672 01ab 06       		.uleb128 0x6
 673 01ac 12020000 		.4byte	.LASF37
 674 01b0 05       		.byte	0x5
 675 01b1 15       		.byte	0x15
 676 01b2 89000000 		.4byte	0x89
 677 01b6 0C       		.byte	0xc
 678 01b7 00       		.byte	0
 679 01b8 09       		.uleb128 0x9
 680 01b9 89030000 		.4byte	.LASF38
 681 01bd 01       		.byte	0x1
 682 01be B6       		.byte	0xb6
 683 01bf 00000000 		.4byte	.LFB66
 684 01c3 12000000 		.4byte	.LFE66-.LFB66
 685 01c7 01       		.uleb128 0x1
 686 01c8 9C       		.byte	0x9c
 687 01c9 F6010000 		.4byte	0x1f6
 688 01cd 0A       		.uleb128 0xa
 689 01ce 0A000000 		.4byte	.LVL0
 690 01d2 06060000 		.4byte	0x606
 691 01d6 E5010000 		.4byte	0x1e5
 692 01da 0B       		.uleb128 0xb
 693 01db 01       		.uleb128 0x1
 694 01dc 50       		.byte	0x50
 695 01dd 01       		.uleb128 0x1
 696 01de 30       		.byte	0x30
 697 01df 0B       		.uleb128 0xb
 698 01e0 01       		.uleb128 0x1
 699 01e1 51       		.byte	0x51
 700 01e2 01       		.uleb128 0x1
 701 01e3 30       		.byte	0x30
 702 01e4 00       		.byte	0
 703 01e5 0C       		.uleb128 0xc
 704 01e6 10000000 		.4byte	.LVL1
 705 01ea 11060000 		.4byte	0x611
 706 01ee 0B       		.uleb128 0xb
 707 01ef 01       		.uleb128 0x1
 708 01f0 50       		.byte	0x50
 709 01f1 02       		.uleb128 0x2
 710 01f2 08       		.byte	0x8
 711 01f3 32       		.byte	0x32
 712 01f4 00       		.byte	0
 713 01f5 00       		.byte	0
 714 01f6 09       		.uleb128 0x9
 715 01f7 B8020000 		.4byte	.LASF39
 716 01fb 01       		.byte	0x1
 717 01fc 99       		.byte	0x99
 718 01fd 00000000 		.4byte	.LFB65
 719 0201 78000000 		.4byte	.LFE65-.LFB65
 720 0205 01       		.uleb128 0x1
ARM GAS  C:\Users\aupen\AppData\Local\Temp\ccAfVDll.s 			page 18


 721 0206 9C       		.byte	0x9c
 722 0207 1E030000 		.4byte	0x31e
 723 020b 0A       		.uleb128 0xa
 724 020c 16000000 		.4byte	.LVL2
 725 0210 1C060000 		.4byte	0x61c
 726 0214 25020000 		.4byte	0x225
 727 0218 0B       		.uleb128 0xb
 728 0219 01       		.uleb128 0x1
 729 021a 50       		.byte	0x50
 730 021b 02       		.uleb128 0x2
 731 021c 08       		.byte	0x8
 732 021d 28       		.byte	0x28
 733 021e 0B       		.uleb128 0xb
 734 021f 01       		.uleb128 0x1
 735 0220 51       		.byte	0x51
 736 0221 02       		.uleb128 0x2
 737 0222 08       		.byte	0x8
 738 0223 28       		.byte	0x28
 739 0224 00       		.byte	0
 740 0225 0A       		.uleb128 0xa
 741 0226 1E000000 		.4byte	.LVL3
 742 022a 11060000 		.4byte	0x611
 743 022e 3A020000 		.4byte	0x23a
 744 0232 0B       		.uleb128 0xb
 745 0233 01       		.uleb128 0x1
 746 0234 50       		.byte	0x50
 747 0235 03       		.uleb128 0x3
 748 0236 0A       		.byte	0xa
 749 0237 9001     		.2byte	0x190
 750 0239 00       		.byte	0
 751 023a 0A       		.uleb128 0xa
 752 023b 26000000 		.4byte	.LVL4
 753 023f 27060000 		.4byte	0x627
 754 0243 54020000 		.4byte	0x254
 755 0247 0B       		.uleb128 0xb
 756 0248 01       		.uleb128 0x1
 757 0249 50       		.byte	0x50
 758 024a 02       		.uleb128 0x2
 759 024b 08       		.byte	0x8
 760 024c 28       		.byte	0x28
 761 024d 0B       		.uleb128 0xb
 762 024e 01       		.uleb128 0x1
 763 024f 51       		.byte	0x51
 764 0250 02       		.uleb128 0x2
 765 0251 08       		.byte	0x8
 766 0252 28       		.byte	0x28
 767 0253 00       		.byte	0
 768 0254 0A       		.uleb128 0xa
 769 0255 2E000000 		.4byte	.LVL5
 770 0259 11060000 		.4byte	0x611
 771 025d 69020000 		.4byte	0x269
 772 0261 0B       		.uleb128 0xb
 773 0262 01       		.uleb128 0x1
 774 0263 50       		.byte	0x50
 775 0264 03       		.uleb128 0x3
 776 0265 0A       		.byte	0xa
 777 0266 2C01     		.2byte	0x12c
ARM GAS  C:\Users\aupen\AppData\Local\Temp\ccAfVDll.s 			page 19


 778 0268 00       		.byte	0
 779 0269 0A       		.uleb128 0xa
 780 026a 3A000000 		.4byte	.LVL6
 781 026e 1C060000 		.4byte	0x61c
 782 0272 83020000 		.4byte	0x283
 783 0276 0B       		.uleb128 0xb
 784 0277 01       		.uleb128 0x1
 785 0278 50       		.byte	0x50
 786 0279 02       		.uleb128 0x2
 787 027a 08       		.byte	0x8
 788 027b 28       		.byte	0x28
 789 027c 0B       		.uleb128 0xb
 790 027d 01       		.uleb128 0x1
 791 027e 51       		.byte	0x51
 792 027f 02       		.uleb128 0x2
 793 0280 08       		.byte	0x8
 794 0281 28       		.byte	0x28
 795 0282 00       		.byte	0
 796 0283 0A       		.uleb128 0xa
 797 0284 40000000 		.4byte	.LVL7
 798 0288 11060000 		.4byte	0x611
 799 028c 97020000 		.4byte	0x297
 800 0290 0B       		.uleb128 0xb
 801 0291 01       		.uleb128 0x1
 802 0292 50       		.byte	0x50
 803 0293 02       		.uleb128 0x2
 804 0294 08       		.byte	0x8
 805 0295 96       		.byte	0x96
 806 0296 00       		.byte	0
 807 0297 0A       		.uleb128 0xa
 808 0298 48000000 		.4byte	.LVL8
 809 029c 32060000 		.4byte	0x632
 810 02a0 B1020000 		.4byte	0x2b1
 811 02a4 0B       		.uleb128 0xb
 812 02a5 01       		.uleb128 0x1
 813 02a6 50       		.byte	0x50
 814 02a7 02       		.uleb128 0x2
 815 02a8 08       		.byte	0x8
 816 02a9 28       		.byte	0x28
 817 02aa 0B       		.uleb128 0xb
 818 02ab 01       		.uleb128 0x1
 819 02ac 51       		.byte	0x51
 820 02ad 02       		.uleb128 0x2
 821 02ae 08       		.byte	0x8
 822 02af 28       		.byte	0x28
 823 02b0 00       		.byte	0
 824 02b1 0A       		.uleb128 0xa
 825 02b2 4E000000 		.4byte	.LVL9
 826 02b6 11060000 		.4byte	0x611
 827 02ba C5020000 		.4byte	0x2c5
 828 02be 0B       		.uleb128 0xb
 829 02bf 01       		.uleb128 0x1
 830 02c0 50       		.byte	0x50
 831 02c1 02       		.uleb128 0x2
 832 02c2 08       		.byte	0x8
 833 02c3 C8       		.byte	0xc8
 834 02c4 00       		.byte	0
ARM GAS  C:\Users\aupen\AppData\Local\Temp\ccAfVDll.s 			page 20


 835 02c5 0A       		.uleb128 0xa
 836 02c6 5E000000 		.4byte	.LVL10
 837 02ca 1C060000 		.4byte	0x61c
 838 02ce DF020000 		.4byte	0x2df
 839 02d2 0B       		.uleb128 0xb
 840 02d3 01       		.uleb128 0x1
 841 02d4 50       		.byte	0x50
 842 02d5 02       		.uleb128 0x2
 843 02d6 08       		.byte	0x8
 844 02d7 28       		.byte	0x28
 845 02d8 0B       		.uleb128 0xb
 846 02d9 01       		.uleb128 0x1
 847 02da 51       		.byte	0x51
 848 02db 02       		.uleb128 0x2
 849 02dc 08       		.byte	0x8
 850 02dd 28       		.byte	0x28
 851 02de 00       		.byte	0
 852 02df 0A       		.uleb128 0xa
 853 02e0 64000000 		.4byte	.LVL11
 854 02e4 11060000 		.4byte	0x611
 855 02e8 F3020000 		.4byte	0x2f3
 856 02ec 0B       		.uleb128 0xb
 857 02ed 01       		.uleb128 0x1
 858 02ee 50       		.byte	0x50
 859 02ef 02       		.uleb128 0x2
 860 02f0 08       		.byte	0x8
 861 02f1 96       		.byte	0x96
 862 02f2 00       		.byte	0
 863 02f3 0A       		.uleb128 0xa
 864 02f4 6C000000 		.4byte	.LVL12
 865 02f8 27060000 		.4byte	0x627
 866 02fc 0D030000 		.4byte	0x30d
 867 0300 0B       		.uleb128 0xb
 868 0301 01       		.uleb128 0x1
 869 0302 50       		.byte	0x50
 870 0303 02       		.uleb128 0x2
 871 0304 08       		.byte	0x8
 872 0305 28       		.byte	0x28
 873 0306 0B       		.uleb128 0xb
 874 0307 01       		.uleb128 0x1
 875 0308 51       		.byte	0x51
 876 0309 02       		.uleb128 0x2
 877 030a 08       		.byte	0x8
 878 030b 28       		.byte	0x28
 879 030c 00       		.byte	0
 880 030d 0C       		.uleb128 0xc
 881 030e 72000000 		.4byte	.LVL13
 882 0312 11060000 		.4byte	0x611
 883 0316 0B       		.uleb128 0xb
 884 0317 01       		.uleb128 0x1
 885 0318 50       		.byte	0x50
 886 0319 02       		.uleb128 0x2
 887 031a 08       		.byte	0x8
 888 031b C8       		.byte	0xc8
 889 031c 00       		.byte	0
 890 031d 00       		.byte	0
 891 031e 0D       		.uleb128 0xd
ARM GAS  C:\Users\aupen\AppData\Local\Temp\ccAfVDll.s 			page 21


 892 031f 79020000 		.4byte	.LASF40
 893 0323 01       		.byte	0x1
 894 0324 65       		.byte	0x65
 895 0325 00000000 		.4byte	.LFB64
 896 0329 EC000000 		.4byte	.LFE64-.LFB64
 897 032d 01       		.uleb128 0x1
 898 032e 9C       		.byte	0x9c
 899 032f C5040000 		.4byte	0x4c5
 900 0333 0E       		.uleb128 0xe
 901 0334 07000000 		.4byte	.LASF41
 902 0338 01       		.byte	0x1
 903 0339 68       		.byte	0x68
 904 033a 89000000 		.4byte	0x89
 905 033e 00000000 		.4byte	.LLST0
 906 0342 0F       		.uleb128 0xf
 907 0343 0A000000 		.4byte	.LBB2
 908 0347 C6000000 		.4byte	.LBE2-.LBB2
 909 034b A7040000 		.4byte	0x4a7
 910 034f 0E       		.uleb128 0xe
 911 0350 FE000000 		.4byte	.LASF42
 912 0354 01       		.byte	0x1
 913 0355 6E       		.byte	0x6e
 914 0356 97000000 		.4byte	0x97
 915 035a 1E000000 		.4byte	.LLST1
 916 035e 10       		.uleb128 0x10
 917 035f 70776D00 		.ascii	"pwm\000"
 918 0363 01       		.byte	0x1
 919 0364 70       		.byte	0x70
 920 0365 97000000 		.4byte	0x97
 921 0369 73000000 		.4byte	.LLST2
 922 036d 11       		.uleb128 0x11
 923 036e 0E000000 		.4byte	.LVL15
 924 0372 3D060000 		.4byte	0x63d
 925 0376 11       		.uleb128 0x11
 926 0377 1A000000 		.4byte	.LVL17
 927 037b 06060000 		.4byte	0x606
 928 037f 0A       		.uleb128 0xa
 929 0380 20000000 		.4byte	.LVL18
 930 0384 11060000 		.4byte	0x611
 931 0388 93030000 		.4byte	0x393
 932 038c 0B       		.uleb128 0xb
 933 038d 01       		.uleb128 0x1
 934 038e 50       		.byte	0x50
 935 038f 02       		.uleb128 0x2
 936 0390 08       		.byte	0x8
 937 0391 28       		.byte	0x28
 938 0392 00       		.byte	0
 939 0393 0A       		.uleb128 0xa
 940 0394 30000000 		.4byte	.LVL21
 941 0398 27060000 		.4byte	0x627
 942 039c AD030000 		.4byte	0x3ad
 943 03a0 0B       		.uleb128 0xb
 944 03a1 01       		.uleb128 0x1
 945 03a2 50       		.byte	0x50
 946 03a3 02       		.uleb128 0x2
 947 03a4 08       		.byte	0x8
 948 03a5 28       		.byte	0x28
ARM GAS  C:\Users\aupen\AppData\Local\Temp\ccAfVDll.s 			page 22


 949 03a6 0B       		.uleb128 0xb
 950 03a7 01       		.uleb128 0x1
 951 03a8 51       		.byte	0x51
 952 03a9 02       		.uleb128 0x2
 953 03aa 08       		.byte	0x8
 954 03ab 28       		.byte	0x28
 955 03ac 00       		.byte	0
 956 03ad 0A       		.uleb128 0xa
 957 03ae 36000000 		.4byte	.LVL22
 958 03b2 11060000 		.4byte	0x611
 959 03b6 C1030000 		.4byte	0x3c1
 960 03ba 0B       		.uleb128 0xb
 961 03bb 01       		.uleb128 0x1
 962 03bc 50       		.byte	0x50
 963 03bd 02       		.uleb128 0x2
 964 03be 08       		.byte	0x8
 965 03bf 28       		.byte	0x28
 966 03c0 00       		.byte	0
 967 03c1 0A       		.uleb128 0xa
 968 03c2 46000000 		.4byte	.LVL25
 969 03c6 06060000 		.4byte	0x606
 970 03ca DA030000 		.4byte	0x3da
 971 03ce 0B       		.uleb128 0xb
 972 03cf 01       		.uleb128 0x1
 973 03d0 50       		.byte	0x50
 974 03d1 01       		.uleb128 0x1
 975 03d2 44       		.byte	0x44
 976 03d3 0B       		.uleb128 0xb
 977 03d4 01       		.uleb128 0x1
 978 03d5 51       		.byte	0x51
 979 03d6 02       		.uleb128 0x2
 980 03d7 08       		.byte	0x8
 981 03d8 3C       		.byte	0x3c
 982 03d9 00       		.byte	0
 983 03da 0A       		.uleb128 0xa
 984 03db 4C000000 		.4byte	.LVL26
 985 03df 11060000 		.4byte	0x611
 986 03e3 ED030000 		.4byte	0x3ed
 987 03e7 0B       		.uleb128 0xb
 988 03e8 01       		.uleb128 0x1
 989 03e9 50       		.byte	0x50
 990 03ea 01       		.uleb128 0x1
 991 03eb 4E       		.byte	0x4e
 992 03ec 00       		.byte	0
 993 03ed 0A       		.uleb128 0xa
 994 03ee 70000000 		.4byte	.LVL32
 995 03f2 06060000 		.4byte	0x606
 996 03f6 01040000 		.4byte	0x401
 997 03fa 0B       		.uleb128 0xb
 998 03fb 01       		.uleb128 0x1
 999 03fc 51       		.byte	0x51
 1000 03fd 02       		.uleb128 0x2
 1001 03fe 74       		.byte	0x74
 1002 03ff 00       		.sleb128 0
 1003 0400 00       		.byte	0
 1004 0401 0A       		.uleb128 0xa
 1005 0402 76000000 		.4byte	.LVL33
ARM GAS  C:\Users\aupen\AppData\Local\Temp\ccAfVDll.s 			page 23


 1006 0406 11060000 		.4byte	0x611
 1007 040a 15040000 		.4byte	0x415
 1008 040e 0B       		.uleb128 0xb
 1009 040f 01       		.uleb128 0x1
 1010 0410 50       		.byte	0x50
 1011 0411 02       		.uleb128 0x2
 1012 0412 08       		.byte	0x8
 1013 0413 28       		.byte	0x28
 1014 0414 00       		.byte	0
 1015 0415 0A       		.uleb128 0xa
 1016 0416 84000000 		.4byte	.LVL36
 1017 041a 32060000 		.4byte	0x632
 1018 041e 2F040000 		.4byte	0x42f
 1019 0422 0B       		.uleb128 0xb
 1020 0423 01       		.uleb128 0x1
 1021 0424 50       		.byte	0x50
 1022 0425 02       		.uleb128 0x2
 1023 0426 08       		.byte	0x8
 1024 0427 28       		.byte	0x28
 1025 0428 0B       		.uleb128 0xb
 1026 0429 01       		.uleb128 0x1
 1027 042a 51       		.byte	0x51
 1028 042b 02       		.uleb128 0x2
 1029 042c 08       		.byte	0x8
 1030 042d 28       		.byte	0x28
 1031 042e 00       		.byte	0
 1032 042f 0A       		.uleb128 0xa
 1033 0430 8A000000 		.4byte	.LVL37
 1034 0434 11060000 		.4byte	0x611
 1035 0438 43040000 		.4byte	0x443
 1036 043c 0B       		.uleb128 0xb
 1037 043d 01       		.uleb128 0x1
 1038 043e 50       		.byte	0x50
 1039 043f 02       		.uleb128 0x2
 1040 0440 08       		.byte	0x8
 1041 0441 28       		.byte	0x28
 1042 0442 00       		.byte	0
 1043 0443 0A       		.uleb128 0xa
 1044 0444 98000000 		.4byte	.LVL40
 1045 0448 06060000 		.4byte	0x606
 1046 044c 5C040000 		.4byte	0x45c
 1047 0450 0B       		.uleb128 0xb
 1048 0451 01       		.uleb128 0x1
 1049 0452 50       		.byte	0x50
 1050 0453 02       		.uleb128 0x2
 1051 0454 08       		.byte	0x8
 1052 0455 3C       		.byte	0x3c
 1053 0456 0B       		.uleb128 0xb
 1054 0457 01       		.uleb128 0x1
 1055 0458 51       		.byte	0x51
 1056 0459 01       		.uleb128 0x1
 1057 045a 44       		.byte	0x44
 1058 045b 00       		.byte	0
 1059 045c 0A       		.uleb128 0xa
 1060 045d 9E000000 		.4byte	.LVL41
 1061 0461 11060000 		.4byte	0x611
 1062 0465 6F040000 		.4byte	0x46f
ARM GAS  C:\Users\aupen\AppData\Local\Temp\ccAfVDll.s 			page 24


 1063 0469 0B       		.uleb128 0xb
 1064 046a 01       		.uleb128 0x1
 1065 046b 50       		.byte	0x50
 1066 046c 01       		.uleb128 0x1
 1067 046d 4E       		.byte	0x4e
 1068 046e 00       		.byte	0
 1069 046f 0A       		.uleb128 0xa
 1070 0470 C4000000 		.4byte	.LVL47
 1071 0474 06060000 		.4byte	0x606
 1072 0478 83040000 		.4byte	0x483
 1073 047c 0B       		.uleb128 0xb
 1074 047d 01       		.uleb128 0x1
 1075 047e 50       		.byte	0x50
 1076 047f 02       		.uleb128 0x2
 1077 0480 74       		.byte	0x74
 1078 0481 00       		.sleb128 0
 1079 0482 00       		.byte	0
 1080 0483 0A       		.uleb128 0xa
 1081 0484 CA000000 		.4byte	.LVL48
 1082 0488 11060000 		.4byte	0x611
 1083 048c 97040000 		.4byte	0x497
 1084 0490 0B       		.uleb128 0xb
 1085 0491 01       		.uleb128 0x1
 1086 0492 50       		.byte	0x50
 1087 0493 02       		.uleb128 0x2
 1088 0494 08       		.byte	0x8
 1089 0495 28       		.byte	0x28
 1090 0496 00       		.byte	0
 1091 0497 0C       		.uleb128 0xc
 1092 0498 D0000000 		.4byte	.LVL49
 1093 049c 11060000 		.4byte	0x611
 1094 04a0 0B       		.uleb128 0xb
 1095 04a1 01       		.uleb128 0x1
 1096 04a2 50       		.byte	0x50
 1097 04a3 01       		.uleb128 0x1
 1098 04a4 3A       		.byte	0x3a
 1099 04a5 00       		.byte	0
 1100 04a6 00       		.byte	0
 1101 04a7 11       		.uleb128 0x11
 1102 04a8 06000000 		.4byte	.LVL14
 1103 04ac 48060000 		.4byte	0x648
 1104 04b0 0C       		.uleb128 0xc
 1105 04b1 DA000000 		.4byte	.LVL52
 1106 04b5 06060000 		.4byte	0x606
 1107 04b9 0B       		.uleb128 0xb
 1108 04ba 01       		.uleb128 0x1
 1109 04bb 50       		.byte	0x50
 1110 04bc 01       		.uleb128 0x1
 1111 04bd 4E       		.byte	0x4e
 1112 04be 0B       		.uleb128 0xb
 1113 04bf 01       		.uleb128 0x1
 1114 04c0 51       		.byte	0x51
 1115 04c1 01       		.uleb128 0x1
 1116 04c2 4E       		.byte	0x4e
 1117 04c3 00       		.byte	0
 1118 04c4 00       		.byte	0
 1119 04c5 12       		.uleb128 0x12
ARM GAS  C:\Users\aupen\AppData\Local\Temp\ccAfVDll.s 			page 25


 1120 04c6 DB000000 		.4byte	.LASF66
 1121 04ca 01       		.byte	0x1
 1122 04cb 32       		.byte	0x32
 1123 04cc 00000000 		.4byte	.LFB63
 1124 04d0 74000000 		.4byte	.LFE63-.LFB63
 1125 04d4 01       		.uleb128 0x1
 1126 04d5 9C       		.byte	0x9c
 1127 04d6 A6050000 		.4byte	0x5a6
 1128 04da 13       		.uleb128 0x13
 1129 04db 42000000 		.4byte	.LASF43
 1130 04df 01       		.byte	0x1
 1131 04e0 32       		.byte	0x32
 1132 04e1 89000000 		.4byte	0x89
 1133 04e5 88000000 		.4byte	.LLST3
 1134 04e9 13       		.uleb128 0x13
 1135 04ea 33020000 		.4byte	.LASF44
 1136 04ee 01       		.byte	0x1
 1137 04ef 32       		.byte	0x32
 1138 04f0 89000000 		.4byte	0x89
 1139 04f4 B4000000 		.4byte	.LLST4
 1140 04f8 0E       		.uleb128 0xe
 1141 04f9 92010000 		.4byte	.LASF45
 1142 04fd 01       		.byte	0x1
 1143 04fe 40       		.byte	0x40
 1144 04ff B8000000 		.4byte	0xb8
 1145 0503 E0000000 		.4byte	.LLST5
 1146 0507 11       		.uleb128 0x11
 1147 0508 0A000000 		.4byte	.LVL54
 1148 050c 53060000 		.4byte	0x653
 1149 0510 0A       		.uleb128 0xa
 1150 0511 14000000 		.4byte	.LVL55
 1151 0515 5E060000 		.4byte	0x65e
 1152 0519 24050000 		.4byte	0x524
 1153 051d 0B       		.uleb128 0xb
 1154 051e 01       		.uleb128 0x1
 1155 051f 50       		.byte	0x50
 1156 0520 02       		.uleb128 0x2
 1157 0521 74       		.byte	0x74
 1158 0522 00       		.sleb128 0
 1159 0523 00       		.byte	0
 1160 0524 11       		.uleb128 0x11
 1161 0525 18000000 		.4byte	.LVL56
 1162 0529 69060000 		.4byte	0x669
 1163 052d 11       		.uleb128 0x11
 1164 052e 1E000000 		.4byte	.LVL58
 1165 0532 74060000 		.4byte	0x674
 1166 0536 11       		.uleb128 0x11
 1167 0537 26000000 		.4byte	.LVL59
 1168 053b 48060000 		.4byte	0x648
 1169 053f 11       		.uleb128 0x11
 1170 0540 2E000000 		.4byte	.LVL60
 1171 0544 F6010000 		.4byte	0x1f6
 1172 0548 11       		.uleb128 0x11
 1173 0549 32000000 		.4byte	.LVL61
 1174 054d 69060000 		.4byte	0x669
 1175 0551 11       		.uleb128 0x11
 1176 0552 3C000000 		.4byte	.LVL64
ARM GAS  C:\Users\aupen\AppData\Local\Temp\ccAfVDll.s 			page 26


 1177 0556 1E030000 		.4byte	0x31e
 1178 055a 11       		.uleb128 0x11
 1179 055b 40000000 		.4byte	.LVL65
 1180 055f 69060000 		.4byte	0x669
 1181 0563 0A       		.uleb128 0xa
 1182 0564 4C000000 		.4byte	.LVL68
 1183 0568 06060000 		.4byte	0x606
 1184 056c 7B050000 		.4byte	0x57b
 1185 0570 0B       		.uleb128 0xb
 1186 0571 01       		.uleb128 0x1
 1187 0572 50       		.byte	0x50
 1188 0573 01       		.uleb128 0x1
 1189 0574 49       		.byte	0x49
 1190 0575 0B       		.uleb128 0xb
 1191 0576 01       		.uleb128 0x1
 1192 0577 51       		.byte	0x51
 1193 0578 01       		.uleb128 0x1
 1194 0579 49       		.byte	0x49
 1195 057a 00       		.byte	0
 1196 057b 11       		.uleb128 0x11
 1197 057c 50000000 		.4byte	.LVL69
 1198 0580 69060000 		.4byte	0x669
 1199 0584 11       		.uleb128 0x11
 1200 0585 5E000000 		.4byte	.LVL70
 1201 0589 69060000 		.4byte	0x669
 1202 058d 11       		.uleb128 0x11
 1203 058e 64000000 		.4byte	.LVL72
 1204 0592 B8010000 		.4byte	0x1b8
 1205 0596 0C       		.uleb128 0xc
 1206 0597 6A000000 		.4byte	.LVL73
 1207 059b 7F060000 		.4byte	0x67f
 1208 059f 0B       		.uleb128 0xb
 1209 05a0 01       		.uleb128 0x1
 1210 05a1 50       		.byte	0x50
 1211 05a2 01       		.uleb128 0x1
 1212 05a3 30       		.byte	0x30
 1213 05a4 00       		.byte	0
 1214 05a5 00       		.byte	0
 1215 05a6 14       		.uleb128 0x14
 1216 05a7 4C020000 		.4byte	.LASF46
 1217 05ab 01       		.byte	0x1
 1218 05ac 27       		.byte	0x27
 1219 05ad A2000000 		.4byte	0xa2
 1220 05b1 05       		.uleb128 0x5
 1221 05b2 03       		.byte	0x3
 1222 05b3 00000000 		.4byte	lineSens
 1223 05b7 15       		.uleb128 0x15
 1224 05b8 07000000 		.4byte	.LASF41
 1225 05bc 01       		.byte	0x1
 1226 05bd 28       		.byte	0x28
 1227 05be A2000000 		.4byte	0xa2
 1228 05c2 16       		.uleb128 0x16
 1229 05c3 D2020000 		.4byte	.LASF47
 1230 05c7 06       		.byte	0x6
 1231 05c8 1207     		.2byte	0x712
 1232 05ca CE050000 		.4byte	0x5ce
 1233 05ce 17       		.uleb128 0x17
ARM GAS  C:\Users\aupen\AppData\Local\Temp\ccAfVDll.s 			page 27


 1234 05cf AD000000 		.4byte	0xad
 1235 05d3 18       		.uleb128 0x18
 1236 05d4 16010000 		.4byte	.LASF48
 1237 05d8 04       		.byte	0x4
 1238 05d9 3B       		.byte	0x3b
 1239 05da E6000000 		.4byte	0xe6
 1240 05de 05       		.uleb128 0x5
 1241 05df 03       		.byte	0x3
 1242 05e0 00000000 		.4byte	gLine
 1243 05e4 18       		.uleb128 0x18
 1244 05e5 00000000 		.4byte	.LASF49
 1245 05e9 05       		.byte	0x5
 1246 05ea 17       		.byte	0x17
 1247 05eb 7B010000 		.4byte	0x17b
 1248 05ef 05       		.uleb128 0x5
 1249 05f0 03       		.byte	0x3
 1250 05f1 00000000 		.4byte	gMotor
 1251 05f5 18       		.uleb128 0x18
 1252 05f6 87000000 		.4byte	.LASF50
 1253 05fa 01       		.byte	0x1
 1254 05fb 29       		.byte	0x29
 1255 05fc 89000000 		.4byte	0x89
 1256 0600 05       		.uleb128 0x5
 1257 0601 03       		.byte	0x3
 1258 0602 00000000 		.4byte	speed_pwm
 1259 0606 19       		.uleb128 0x19
 1260 0607 3E020000 		.4byte	.LASF51
 1261 060b 3E020000 		.4byte	.LASF51
 1262 060f 05       		.byte	0x5
 1263 0610 1A       		.byte	0x1a
 1264 0611 19       		.uleb128 0x19
 1265 0612 6D030000 		.4byte	.LASF52
 1266 0616 6D030000 		.4byte	.LASF52
 1267 061a 07       		.byte	0x7
 1268 061b 76       		.byte	0x76
 1269 061c 19       		.uleb128 0x19
 1270 061d 24020000 		.4byte	.LASF53
 1271 0621 24020000 		.4byte	.LASF53
 1272 0625 05       		.byte	0x5
 1273 0626 1B       		.byte	0x1b
 1274 0627 19       		.uleb128 0x19
 1275 0628 AE020000 		.4byte	.LASF54
 1276 062c AE020000 		.4byte	.LASF54
 1277 0630 05       		.byte	0x5
 1278 0631 1D       		.byte	0x1d
 1279 0632 19       		.uleb128 0x19
 1280 0633 63000000 		.4byte	.LASF55
 1281 0637 63000000 		.4byte	.LASF55
 1282 063b 05       		.byte	0x5
 1283 063c 1C       		.byte	0x1c
 1284 063d 19       		.uleb128 0x19
 1285 063e AC000000 		.4byte	.LASF56
 1286 0642 AC000000 		.4byte	.LASF56
 1287 0646 04       		.byte	0x4
 1288 0647 3F       		.byte	0x3f
 1289 0648 19       		.uleb128 0x19
 1290 0649 22000000 		.4byte	.LASF57
ARM GAS  C:\Users\aupen\AppData\Local\Temp\ccAfVDll.s 			page 28


 1291 064d 22000000 		.4byte	.LASF57
 1292 0651 04       		.byte	0x4
 1293 0652 3D       		.byte	0x3d
 1294 0653 19       		.uleb128 0x19
 1295 0654 B0010000 		.4byte	.LASF58
 1296 0658 B0010000 		.4byte	.LASF58
 1297 065c 04       		.byte	0x4
 1298 065d 40       		.byte	0x40
 1299 065e 19       		.uleb128 0x19
 1300 065f 9E010000 		.4byte	.LASF59
 1301 0663 9E010000 		.4byte	.LASF59
 1302 0667 08       		.byte	0x8
 1303 0668 22       		.byte	0x22
 1304 0669 19       		.uleb128 0x19
 1305 066a E6000000 		.4byte	.LASF60
 1306 066e E6000000 		.4byte	.LASF60
 1307 0672 09       		.byte	0x9
 1308 0673 15       		.byte	0x15
 1309 0674 19       		.uleb128 0x19
 1310 0675 9F000000 		.4byte	.LASF61
 1311 0679 9F000000 		.4byte	.LASF61
 1312 067d 04       		.byte	0x4
 1313 067e 41       		.byte	0x41
 1314 067f 19       		.uleb128 0x19
 1315 0680 C8000000 		.4byte	.LASF62
 1316 0684 C8000000 		.4byte	.LASF62
 1317 0688 0A       		.byte	0xa
 1318 0689 2F       		.byte	0x2f
 1319 068a 00       		.byte	0
 1320              		.section	.debug_abbrev,"",%progbits
 1321              	.Ldebug_abbrev0:
 1322 0000 01       		.uleb128 0x1
 1323 0001 11       		.uleb128 0x11
 1324 0002 01       		.byte	0x1
 1325 0003 25       		.uleb128 0x25
 1326 0004 0E       		.uleb128 0xe
 1327 0005 13       		.uleb128 0x13
 1328 0006 0B       		.uleb128 0xb
 1329 0007 03       		.uleb128 0x3
 1330 0008 0E       		.uleb128 0xe
 1331 0009 1B       		.uleb128 0x1b
 1332 000a 0E       		.uleb128 0xe
 1333 000b 55       		.uleb128 0x55
 1334 000c 17       		.uleb128 0x17
 1335 000d 11       		.uleb128 0x11
 1336 000e 01       		.uleb128 0x1
 1337 000f 10       		.uleb128 0x10
 1338 0010 17       		.uleb128 0x17
 1339 0011 00       		.byte	0
 1340 0012 00       		.byte	0
 1341 0013 02       		.uleb128 0x2
 1342 0014 16       		.uleb128 0x16
 1343 0015 00       		.byte	0
 1344 0016 03       		.uleb128 0x3
 1345 0017 0E       		.uleb128 0xe
 1346 0018 3A       		.uleb128 0x3a
 1347 0019 0B       		.uleb128 0xb
ARM GAS  C:\Users\aupen\AppData\Local\Temp\ccAfVDll.s 			page 29


 1348 001a 3B       		.uleb128 0x3b
 1349 001b 0B       		.uleb128 0xb
 1350 001c 49       		.uleb128 0x49
 1351 001d 13       		.uleb128 0x13
 1352 001e 00       		.byte	0
 1353 001f 00       		.byte	0
 1354 0020 03       		.uleb128 0x3
 1355 0021 24       		.uleb128 0x24
 1356 0022 00       		.byte	0
 1357 0023 0B       		.uleb128 0xb
 1358 0024 0B       		.uleb128 0xb
 1359 0025 3E       		.uleb128 0x3e
 1360 0026 0B       		.uleb128 0xb
 1361 0027 03       		.uleb128 0x3
 1362 0028 0E       		.uleb128 0xe
 1363 0029 00       		.byte	0
 1364 002a 00       		.byte	0
 1365 002b 04       		.uleb128 0x4
 1366 002c 24       		.uleb128 0x24
 1367 002d 00       		.byte	0
 1368 002e 0B       		.uleb128 0xb
 1369 002f 0B       		.uleb128 0xb
 1370 0030 3E       		.uleb128 0x3e
 1371 0031 0B       		.uleb128 0xb
 1372 0032 03       		.uleb128 0x3
 1373 0033 08       		.uleb128 0x8
 1374 0034 00       		.byte	0
 1375 0035 00       		.byte	0
 1376 0036 05       		.uleb128 0x5
 1377 0037 13       		.uleb128 0x13
 1378 0038 01       		.byte	0x1
 1379 0039 03       		.uleb128 0x3
 1380 003a 0E       		.uleb128 0xe
 1381 003b 0B       		.uleb128 0xb
 1382 003c 0B       		.uleb128 0xb
 1383 003d 3A       		.uleb128 0x3a
 1384 003e 0B       		.uleb128 0xb
 1385 003f 3B       		.uleb128 0x3b
 1386 0040 0B       		.uleb128 0xb
 1387 0041 01       		.uleb128 0x1
 1388 0042 13       		.uleb128 0x13
 1389 0043 00       		.byte	0
 1390 0044 00       		.byte	0
 1391 0045 06       		.uleb128 0x6
 1392 0046 0D       		.uleb128 0xd
 1393 0047 00       		.byte	0
 1394 0048 03       		.uleb128 0x3
 1395 0049 0E       		.uleb128 0xe
 1396 004a 3A       		.uleb128 0x3a
 1397 004b 0B       		.uleb128 0xb
 1398 004c 3B       		.uleb128 0x3b
 1399 004d 0B       		.uleb128 0xb
 1400 004e 49       		.uleb128 0x49
 1401 004f 13       		.uleb128 0x13
 1402 0050 38       		.uleb128 0x38
 1403 0051 0B       		.uleb128 0xb
 1404 0052 00       		.byte	0
ARM GAS  C:\Users\aupen\AppData\Local\Temp\ccAfVDll.s 			page 30


 1405 0053 00       		.byte	0
 1406 0054 07       		.uleb128 0x7
 1407 0055 01       		.uleb128 0x1
 1408 0056 01       		.byte	0x1
 1409 0057 49       		.uleb128 0x49
 1410 0058 13       		.uleb128 0x13
 1411 0059 01       		.uleb128 0x1
 1412 005a 13       		.uleb128 0x13
 1413 005b 00       		.byte	0
 1414 005c 00       		.byte	0
 1415 005d 08       		.uleb128 0x8
 1416 005e 21       		.uleb128 0x21
 1417 005f 00       		.byte	0
 1418 0060 49       		.uleb128 0x49
 1419 0061 13       		.uleb128 0x13
 1420 0062 2F       		.uleb128 0x2f
 1421 0063 0B       		.uleb128 0xb
 1422 0064 00       		.byte	0
 1423 0065 00       		.byte	0
 1424 0066 09       		.uleb128 0x9
 1425 0067 2E       		.uleb128 0x2e
 1426 0068 01       		.byte	0x1
 1427 0069 03       		.uleb128 0x3
 1428 006a 0E       		.uleb128 0xe
 1429 006b 3A       		.uleb128 0x3a
 1430 006c 0B       		.uleb128 0xb
 1431 006d 3B       		.uleb128 0x3b
 1432 006e 0B       		.uleb128 0xb
 1433 006f 27       		.uleb128 0x27
 1434 0070 19       		.uleb128 0x19
 1435 0071 11       		.uleb128 0x11
 1436 0072 01       		.uleb128 0x1
 1437 0073 12       		.uleb128 0x12
 1438 0074 06       		.uleb128 0x6
 1439 0075 40       		.uleb128 0x40
 1440 0076 18       		.uleb128 0x18
 1441 0077 9742     		.uleb128 0x2117
 1442 0079 19       		.uleb128 0x19
 1443 007a 01       		.uleb128 0x1
 1444 007b 13       		.uleb128 0x13
 1445 007c 00       		.byte	0
 1446 007d 00       		.byte	0
 1447 007e 0A       		.uleb128 0xa
 1448 007f 898201   		.uleb128 0x4109
 1449 0082 01       		.byte	0x1
 1450 0083 11       		.uleb128 0x11
 1451 0084 01       		.uleb128 0x1
 1452 0085 31       		.uleb128 0x31
 1453 0086 13       		.uleb128 0x13
 1454 0087 01       		.uleb128 0x1
 1455 0088 13       		.uleb128 0x13
 1456 0089 00       		.byte	0
 1457 008a 00       		.byte	0
 1458 008b 0B       		.uleb128 0xb
 1459 008c 8A8201   		.uleb128 0x410a
 1460 008f 00       		.byte	0
 1461 0090 02       		.uleb128 0x2
ARM GAS  C:\Users\aupen\AppData\Local\Temp\ccAfVDll.s 			page 31


 1462 0091 18       		.uleb128 0x18
 1463 0092 9142     		.uleb128 0x2111
 1464 0094 18       		.uleb128 0x18
 1465 0095 00       		.byte	0
 1466 0096 00       		.byte	0
 1467 0097 0C       		.uleb128 0xc
 1468 0098 898201   		.uleb128 0x4109
 1469 009b 01       		.byte	0x1
 1470 009c 11       		.uleb128 0x11
 1471 009d 01       		.uleb128 0x1
 1472 009e 31       		.uleb128 0x31
 1473 009f 13       		.uleb128 0x13
 1474 00a0 00       		.byte	0
 1475 00a1 00       		.byte	0
 1476 00a2 0D       		.uleb128 0xd
 1477 00a3 2E       		.uleb128 0x2e
 1478 00a4 01       		.byte	0x1
 1479 00a5 03       		.uleb128 0x3
 1480 00a6 0E       		.uleb128 0xe
 1481 00a7 3A       		.uleb128 0x3a
 1482 00a8 0B       		.uleb128 0xb
 1483 00a9 3B       		.uleb128 0x3b
 1484 00aa 0B       		.uleb128 0xb
 1485 00ab 27       		.uleb128 0x27
 1486 00ac 19       		.uleb128 0x19
 1487 00ad 11       		.uleb128 0x11
 1488 00ae 01       		.uleb128 0x1
 1489 00af 12       		.uleb128 0x12
 1490 00b0 06       		.uleb128 0x6
 1491 00b1 40       		.uleb128 0x40
 1492 00b2 18       		.uleb128 0x18
 1493 00b3 9642     		.uleb128 0x2116
 1494 00b5 19       		.uleb128 0x19
 1495 00b6 01       		.uleb128 0x1
 1496 00b7 13       		.uleb128 0x13
 1497 00b8 00       		.byte	0
 1498 00b9 00       		.byte	0
 1499 00ba 0E       		.uleb128 0xe
 1500 00bb 34       		.uleb128 0x34
 1501 00bc 00       		.byte	0
 1502 00bd 03       		.uleb128 0x3
 1503 00be 0E       		.uleb128 0xe
 1504 00bf 3A       		.uleb128 0x3a
 1505 00c0 0B       		.uleb128 0xb
 1506 00c1 3B       		.uleb128 0x3b
 1507 00c2 0B       		.uleb128 0xb
 1508 00c3 49       		.uleb128 0x49
 1509 00c4 13       		.uleb128 0x13
 1510 00c5 02       		.uleb128 0x2
 1511 00c6 17       		.uleb128 0x17
 1512 00c7 00       		.byte	0
 1513 00c8 00       		.byte	0
 1514 00c9 0F       		.uleb128 0xf
 1515 00ca 0B       		.uleb128 0xb
 1516 00cb 01       		.byte	0x1
 1517 00cc 11       		.uleb128 0x11
 1518 00cd 01       		.uleb128 0x1
ARM GAS  C:\Users\aupen\AppData\Local\Temp\ccAfVDll.s 			page 32


 1519 00ce 12       		.uleb128 0x12
 1520 00cf 06       		.uleb128 0x6
 1521 00d0 01       		.uleb128 0x1
 1522 00d1 13       		.uleb128 0x13
 1523 00d2 00       		.byte	0
 1524 00d3 00       		.byte	0
 1525 00d4 10       		.uleb128 0x10
 1526 00d5 34       		.uleb128 0x34
 1527 00d6 00       		.byte	0
 1528 00d7 03       		.uleb128 0x3
 1529 00d8 08       		.uleb128 0x8
 1530 00d9 3A       		.uleb128 0x3a
 1531 00da 0B       		.uleb128 0xb
 1532 00db 3B       		.uleb128 0x3b
 1533 00dc 0B       		.uleb128 0xb
 1534 00dd 49       		.uleb128 0x49
 1535 00de 13       		.uleb128 0x13
 1536 00df 02       		.uleb128 0x2
 1537 00e0 17       		.uleb128 0x17
 1538 00e1 00       		.byte	0
 1539 00e2 00       		.byte	0
 1540 00e3 11       		.uleb128 0x11
 1541 00e4 898201   		.uleb128 0x4109
 1542 00e7 00       		.byte	0
 1543 00e8 11       		.uleb128 0x11
 1544 00e9 01       		.uleb128 0x1
 1545 00ea 31       		.uleb128 0x31
 1546 00eb 13       		.uleb128 0x13
 1547 00ec 00       		.byte	0
 1548 00ed 00       		.byte	0
 1549 00ee 12       		.uleb128 0x12
 1550 00ef 2E       		.uleb128 0x2e
 1551 00f0 01       		.byte	0x1
 1552 00f1 3F       		.uleb128 0x3f
 1553 00f2 19       		.uleb128 0x19
 1554 00f3 03       		.uleb128 0x3
 1555 00f4 0E       		.uleb128 0xe
 1556 00f5 3A       		.uleb128 0x3a
 1557 00f6 0B       		.uleb128 0xb
 1558 00f7 3B       		.uleb128 0x3b
 1559 00f8 0B       		.uleb128 0xb
 1560 00f9 27       		.uleb128 0x27
 1561 00fa 19       		.uleb128 0x19
 1562 00fb 8701     		.uleb128 0x87
 1563 00fd 19       		.uleb128 0x19
 1564 00fe 11       		.uleb128 0x11
 1565 00ff 01       		.uleb128 0x1
 1566 0100 12       		.uleb128 0x12
 1567 0101 06       		.uleb128 0x6
 1568 0102 40       		.uleb128 0x40
 1569 0103 18       		.uleb128 0x18
 1570 0104 9742     		.uleb128 0x2117
 1571 0106 19       		.uleb128 0x19
 1572 0107 01       		.uleb128 0x1
 1573 0108 13       		.uleb128 0x13
 1574 0109 00       		.byte	0
 1575 010a 00       		.byte	0
ARM GAS  C:\Users\aupen\AppData\Local\Temp\ccAfVDll.s 			page 33


 1576 010b 13       		.uleb128 0x13
 1577 010c 05       		.uleb128 0x5
 1578 010d 00       		.byte	0
 1579 010e 03       		.uleb128 0x3
 1580 010f 0E       		.uleb128 0xe
 1581 0110 3A       		.uleb128 0x3a
 1582 0111 0B       		.uleb128 0xb
 1583 0112 3B       		.uleb128 0x3b
 1584 0113 0B       		.uleb128 0xb
 1585 0114 49       		.uleb128 0x49
 1586 0115 13       		.uleb128 0x13
 1587 0116 02       		.uleb128 0x2
 1588 0117 17       		.uleb128 0x17
 1589 0118 00       		.byte	0
 1590 0119 00       		.byte	0
 1591 011a 14       		.uleb128 0x14
 1592 011b 34       		.uleb128 0x34
 1593 011c 00       		.byte	0
 1594 011d 03       		.uleb128 0x3
 1595 011e 0E       		.uleb128 0xe
 1596 011f 3A       		.uleb128 0x3a
 1597 0120 0B       		.uleb128 0xb
 1598 0121 3B       		.uleb128 0x3b
 1599 0122 0B       		.uleb128 0xb
 1600 0123 49       		.uleb128 0x49
 1601 0124 13       		.uleb128 0x13
 1602 0125 02       		.uleb128 0x2
 1603 0126 18       		.uleb128 0x18
 1604 0127 00       		.byte	0
 1605 0128 00       		.byte	0
 1606 0129 15       		.uleb128 0x15
 1607 012a 34       		.uleb128 0x34
 1608 012b 00       		.byte	0
 1609 012c 03       		.uleb128 0x3
 1610 012d 0E       		.uleb128 0xe
 1611 012e 3A       		.uleb128 0x3a
 1612 012f 0B       		.uleb128 0xb
 1613 0130 3B       		.uleb128 0x3b
 1614 0131 0B       		.uleb128 0xb
 1615 0132 49       		.uleb128 0x49
 1616 0133 13       		.uleb128 0x13
 1617 0134 00       		.byte	0
 1618 0135 00       		.byte	0
 1619 0136 16       		.uleb128 0x16
 1620 0137 34       		.uleb128 0x34
 1621 0138 00       		.byte	0
 1622 0139 03       		.uleb128 0x3
 1623 013a 0E       		.uleb128 0xe
 1624 013b 3A       		.uleb128 0x3a
 1625 013c 0B       		.uleb128 0xb
 1626 013d 3B       		.uleb128 0x3b
 1627 013e 05       		.uleb128 0x5
 1628 013f 49       		.uleb128 0x49
 1629 0140 13       		.uleb128 0x13
 1630 0141 3F       		.uleb128 0x3f
 1631 0142 19       		.uleb128 0x19
 1632 0143 3C       		.uleb128 0x3c
ARM GAS  C:\Users\aupen\AppData\Local\Temp\ccAfVDll.s 			page 34


 1633 0144 19       		.uleb128 0x19
 1634 0145 00       		.byte	0
 1635 0146 00       		.byte	0
 1636 0147 17       		.uleb128 0x17
 1637 0148 35       		.uleb128 0x35
 1638 0149 00       		.byte	0
 1639 014a 49       		.uleb128 0x49
 1640 014b 13       		.uleb128 0x13
 1641 014c 00       		.byte	0
 1642 014d 00       		.byte	0
 1643 014e 18       		.uleb128 0x18
 1644 014f 34       		.uleb128 0x34
 1645 0150 00       		.byte	0
 1646 0151 03       		.uleb128 0x3
 1647 0152 0E       		.uleb128 0xe
 1648 0153 3A       		.uleb128 0x3a
 1649 0154 0B       		.uleb128 0xb
 1650 0155 3B       		.uleb128 0x3b
 1651 0156 0B       		.uleb128 0xb
 1652 0157 49       		.uleb128 0x49
 1653 0158 13       		.uleb128 0x13
 1654 0159 3F       		.uleb128 0x3f
 1655 015a 19       		.uleb128 0x19
 1656 015b 02       		.uleb128 0x2
 1657 015c 18       		.uleb128 0x18
 1658 015d 00       		.byte	0
 1659 015e 00       		.byte	0
 1660 015f 19       		.uleb128 0x19
 1661 0160 2E       		.uleb128 0x2e
 1662 0161 00       		.byte	0
 1663 0162 3F       		.uleb128 0x3f
 1664 0163 19       		.uleb128 0x19
 1665 0164 3C       		.uleb128 0x3c
 1666 0165 19       		.uleb128 0x19
 1667 0166 6E       		.uleb128 0x6e
 1668 0167 0E       		.uleb128 0xe
 1669 0168 03       		.uleb128 0x3
 1670 0169 0E       		.uleb128 0xe
 1671 016a 3A       		.uleb128 0x3a
 1672 016b 0B       		.uleb128 0xb
 1673 016c 3B       		.uleb128 0x3b
 1674 016d 0B       		.uleb128 0xb
 1675 016e 00       		.byte	0
 1676 016f 00       		.byte	0
 1677 0170 00       		.byte	0
 1678              		.section	.debug_loc,"",%progbits
 1679              	.Ldebug_loc0:
 1680              	.LLST0:
 1681 0000 06000000 		.4byte	.LVL14
 1682 0004 0D000000 		.4byte	.LVL15-1
 1683 0008 0100     		.2byte	0x1
 1684 000a 50       		.byte	0x50
 1685 000b D2000000 		.4byte	.LVL50
 1686 000f D6000000 		.4byte	.LVL51
 1687 0013 0100     		.2byte	0x1
 1688 0015 50       		.byte	0x50
 1689 0016 00000000 		.4byte	0
ARM GAS  C:\Users\aupen\AppData\Local\Temp\ccAfVDll.s 			page 35


 1690 001a 00000000 		.4byte	0
 1691              	.LLST1:
 1692 001e 0E000000 		.4byte	.LVL15
 1693 0022 14000000 		.4byte	.LVL16
 1694 0026 0100     		.2byte	0x1
 1695 0028 50       		.byte	0x50
 1696 0029 22000000 		.4byte	.LVL19
 1697 002d 2C000000 		.4byte	.LVL20
 1698 0031 0100     		.2byte	0x1
 1699 0033 50       		.byte	0x50
 1700 0034 38000000 		.4byte	.LVL23
 1701 0038 42000000 		.4byte	.LVL24
 1702 003c 0100     		.2byte	0x1
 1703 003e 50       		.byte	0x50
 1704 003f 4E000000 		.4byte	.LVL27
 1705 0043 58000000 		.4byte	.LVL28
 1706 0047 0100     		.2byte	0x1
 1707 0049 50       		.byte	0x50
 1708 004a 78000000 		.4byte	.LVL34
 1709 004e 80000000 		.4byte	.LVL35
 1710 0052 0100     		.2byte	0x1
 1711 0054 50       		.byte	0x50
 1712 0055 8C000000 		.4byte	.LVL38
 1713 0059 94000000 		.4byte	.LVL39
 1714 005d 0100     		.2byte	0x1
 1715 005f 50       		.byte	0x50
 1716 0060 A0000000 		.4byte	.LVL42
 1717 0064 AA000000 		.4byte	.LVL43
 1718 0068 0100     		.2byte	0x1
 1719 006a 50       		.byte	0x50
 1720 006b 00000000 		.4byte	0
 1721 006f 00000000 		.4byte	0
 1722              	.LLST2:
 1723 0073 0E000000 		.4byte	.LVL15
 1724 0077 D2000000 		.4byte	.LVL50
 1725 007b 0300     		.2byte	0x3
 1726 007d 08       		.byte	0x8
 1727 007e 3C       		.byte	0x3c
 1728 007f 9F       		.byte	0x9f
 1729 0080 00000000 		.4byte	0
 1730 0084 00000000 		.4byte	0
 1731              	.LLST3:
 1732 0088 00000000 		.4byte	.LVL53
 1733 008c 09000000 		.4byte	.LVL54-1
 1734 0090 0100     		.2byte	0x1
 1735 0092 50       		.byte	0x50
 1736 0093 09000000 		.4byte	.LVL54-1
 1737 0097 1A000000 		.4byte	.LVL57
 1738 009b 0100     		.2byte	0x1
 1739 009d 54       		.byte	0x54
 1740 009e 1A000000 		.4byte	.LVL57
 1741 00a2 74000000 		.4byte	.LFE63
 1742 00a6 0400     		.2byte	0x4
 1743 00a8 F3       		.byte	0xf3
 1744 00a9 01       		.uleb128 0x1
 1745 00aa 50       		.byte	0x50
 1746 00ab 9F       		.byte	0x9f
ARM GAS  C:\Users\aupen\AppData\Local\Temp\ccAfVDll.s 			page 36


 1747 00ac 00000000 		.4byte	0
 1748 00b0 00000000 		.4byte	0
 1749              	.LLST4:
 1750 00b4 00000000 		.4byte	.LVL53
 1751 00b8 09000000 		.4byte	.LVL54-1
 1752 00bc 0100     		.2byte	0x1
 1753 00be 51       		.byte	0x51
 1754 00bf 09000000 		.4byte	.LVL54-1
 1755 00c3 1A000000 		.4byte	.LVL57
 1756 00c7 0100     		.2byte	0x1
 1757 00c9 55       		.byte	0x55
 1758 00ca 1A000000 		.4byte	.LVL57
 1759 00ce 74000000 		.4byte	.LFE63
 1760 00d2 0400     		.2byte	0x4
 1761 00d4 F3       		.byte	0xf3
 1762 00d5 01       		.uleb128 0x1
 1763 00d6 51       		.byte	0x51
 1764 00d7 9F       		.byte	0x9f
 1765 00d8 00000000 		.4byte	0
 1766 00dc 00000000 		.4byte	0
 1767              	.LLST5:
 1768 00e0 1A000000 		.4byte	.LVL57
 1769 00e4 34000000 		.4byte	.LVL62
 1770 00e8 0100     		.2byte	0x1
 1771 00ea 55       		.byte	0x55
 1772 00eb 34000000 		.4byte	.LVL62
 1773 00ef 36000000 		.4byte	.LVL63
 1774 00f3 0100     		.2byte	0x1
 1775 00f5 50       		.byte	0x50
 1776 00f6 36000000 		.4byte	.LVL63
 1777 00fa 42000000 		.4byte	.LVL66
 1778 00fe 0100     		.2byte	0x1
 1779 0100 55       		.byte	0x55
 1780 0101 42000000 		.4byte	.LVL66
 1781 0105 44000000 		.4byte	.LVL67
 1782 0109 0100     		.2byte	0x1
 1783 010b 50       		.byte	0x50
 1784 010c 44000000 		.4byte	.LVL67
 1785 0110 60000000 		.4byte	.LVL71
 1786 0114 0100     		.2byte	0x1
 1787 0116 55       		.byte	0x55
 1788 0117 60000000 		.4byte	.LVL71
 1789 011b 63000000 		.4byte	.LVL72-1
 1790 011f 0100     		.2byte	0x1
 1791 0121 50       		.byte	0x50
 1792 0122 63000000 		.4byte	.LVL72-1
 1793 0126 74000000 		.4byte	.LFE63
 1794 012a 0100     		.2byte	0x1
 1795 012c 55       		.byte	0x55
 1796 012d 00000000 		.4byte	0
 1797 0131 00000000 		.4byte	0
 1798              		.section	.debug_aranges,"",%progbits
 1799 0000 34000000 		.4byte	0x34
 1800 0004 0200     		.2byte	0x2
 1801 0006 00000000 		.4byte	.Ldebug_info0
 1802 000a 04       		.byte	0x4
 1803 000b 00       		.byte	0
ARM GAS  C:\Users\aupen\AppData\Local\Temp\ccAfVDll.s 			page 37


 1804 000c 0000     		.2byte	0
 1805 000e 0000     		.2byte	0
 1806 0010 00000000 		.4byte	.LFB66
 1807 0014 12000000 		.4byte	.LFE66-.LFB66
 1808 0018 00000000 		.4byte	.LFB65
 1809 001c 78000000 		.4byte	.LFE65-.LFB65
 1810 0020 00000000 		.4byte	.LFB64
 1811 0024 EC000000 		.4byte	.LFE64-.LFB64
 1812 0028 00000000 		.4byte	.LFB63
 1813 002c 74000000 		.4byte	.LFE63-.LFB63
 1814 0030 00000000 		.4byte	0
 1815 0034 00000000 		.4byte	0
 1816              		.section	.debug_ranges,"",%progbits
 1817              	.Ldebug_ranges0:
 1818 0000 00000000 		.4byte	.LFB66
 1819 0004 12000000 		.4byte	.LFE66
 1820 0008 00000000 		.4byte	.LFB65
 1821 000c 78000000 		.4byte	.LFE65
 1822 0010 00000000 		.4byte	.LFB64
 1823 0014 EC000000 		.4byte	.LFE64
 1824 0018 00000000 		.4byte	.LFB63
 1825 001c 74000000 		.4byte	.LFE63
 1826 0020 00000000 		.4byte	0
 1827 0024 00000000 		.4byte	0
 1828              		.section	.debug_line,"",%progbits
 1829              	.Ldebug_line0:
 1830 0000 26020000 		.section	.debug_str,"MS",%progbits,1
 1830      02009E01 
 1830      00000201 
 1830      FB0E0D00 
 1830      01010101 
 1831              	.LASF49:
 1832 0000 674D6F74 		.ascii	"gMotor\000"
 1832      6F7200
 1833              	.LASF41:
 1834 0007 64697374 		.ascii	"distSens\000"
 1834      53656E73 
 1834      00
 1835              	.LASF33:
 1836 0010 67447269 		.ascii	"gDrivevars\000"
 1836      76657661 
 1836      727300
 1837              	.LASF13:
 1838 001b 696E7438 		.ascii	"int8_t\000"
 1838      5F7400
 1839              	.LASF57:
 1840 0022 44697374 		.ascii	"DistSensRead\000"
 1840      53656E73 
 1840      52656164 
 1840      00
 1841              	.LASF4:
 1842 002f 73686F72 		.ascii	"short int\000"
 1842      7420696E 
 1842      7400
 1843              	.LASF21:
 1844 0039 73697A65 		.ascii	"sizetype\000"
 1844      74797065 
ARM GAS  C:\Users\aupen\AppData\Local\Temp\ccAfVDll.s 			page 38


 1844      00
 1845              	.LASF43:
 1846 0042 66697273 		.ascii	"firstMove\000"
 1846      744D6F76 
 1846      6500
 1847              	.LASF20:
 1848 004c 6C6F6E67 		.ascii	"long double\000"
 1848      20646F75 
 1848      626C6500 
 1849              	.LASF8:
 1850 0058 5F5F7569 		.ascii	"__uint32_t\000"
 1850      6E743332 
 1850      5F7400
 1851              	.LASF55:
 1852 0063 7475726E 		.ascii	"turn_right\000"
 1852      5F726967 
 1852      687400
 1853              	.LASF14:
 1854 006e 75696E74 		.ascii	"uint8_t\000"
 1854      385F7400 
 1855              	.LASF31:
 1856 0076 6164635F 		.ascii	"adc_buff\000"
 1856      62756666 
 1856      00
 1857              	.LASF25:
 1858 007f 4652325F 		.ascii	"FR2_val\000"
 1858      76616C00 
 1859              	.LASF50:
 1860 0087 73706565 		.ascii	"speed_pwm\000"
 1860      645F7077 
 1860      6D00
 1861              	.LASF23:
 1862 0091 464C325F 		.ascii	"FL2_val\000"
 1862      76616C00 
 1863              	.LASF17:
 1864 0099 666C6F61 		.ascii	"float\000"
 1864      7400
 1865              	.LASF61:
 1866 009f 4C696E65 		.ascii	"LineSensRead\000"
 1866      53656E73 
 1866      52656164 
 1866      00
 1867              	.LASF56:
 1868 00ac 43616C63 		.ascii	"CalcAvrgAngle\000"
 1868      41767267 
 1868      416E676C 
 1868      6500
 1869              	.LASF10:
 1870 00ba 6C6F6E67 		.ascii	"long long int\000"
 1870      206C6F6E 
 1870      6720696E 
 1870      7400
 1871              	.LASF62:
 1872 00c8 53657276 		.ascii	"Servo_enable_Write\000"
 1872      6F5F656E 
 1872      61626C65 
 1872      5F577269 
ARM GAS  C:\Users\aupen\AppData\Local\Temp\ccAfVDll.s 			page 39


 1872      746500
 1873              	.LASF66:
 1874 00db 52756E54 		.ascii	"RunTactic8\000"
 1874      61637469 
 1874      633800
 1875              	.LASF60:
 1876 00e6 6D696C6C 		.ascii	"millis\000"
 1876      697300
 1877              	.LASF28:
 1878 00ed 465F4C45 		.ascii	"F_LEFT\000"
 1878      465400
 1879              	.LASF1:
 1880 00f4 5F5F7569 		.ascii	"__uint8_t\000"
 1880      6E74385F 
 1880      7400
 1881              	.LASF42:
 1882 00fe 61767267 		.ascii	"avrg_angle_grad\000"
 1882      5F616E67 
 1882      6C655F67 
 1882      72616400 
 1883              	.LASF27:
 1884 010e 4654485F 		.ascii	"FTH_val\000"
 1884      76616C00 
 1885              	.LASF48:
 1886 0116 674C696E 		.ascii	"gLine\000"
 1886      6500
 1887              	.LASF26:
 1888 011c 425F7661 		.ascii	"B_val\000"
 1888      6C00
 1889              	.LASF3:
 1890 0122 756E7369 		.ascii	"unsigned char\000"
 1890      676E6564 
 1890      20636861 
 1890      7200
 1891              	.LASF2:
 1892 0130 7369676E 		.ascii	"signed char\000"
 1892      65642063 
 1892      68617200 
 1893              	.LASF11:
 1894 013c 6C6F6E67 		.ascii	"long long unsigned int\000"
 1894      206C6F6E 
 1894      6720756E 
 1894      7369676E 
 1894      65642069 
 1895              	.LASF16:
 1896 0153 75696E74 		.ascii	"uint32_t\000"
 1896      33325F74 
 1896      00
 1897              	.LASF12:
 1898 015c 756E7369 		.ascii	"unsigned int\000"
 1898      676E6564 
 1898      20696E74 
 1898      00
 1899              	.LASF65:
 1900 0169 473A5C52 		.ascii	"G:\\Roboti\\BOLT_sumo_code\\BOLT_sumo.cydsn\000"
 1900      6F626F74 
 1900      695C424F 
ARM GAS  C:\Users\aupen\AppData\Local\Temp\ccAfVDll.s 			page 40


 1900      4C545F73 
 1900      756D6F5F 
 1901              	.LASF45:
 1902 0192 74696D6F 		.ascii	"timout_time\000"
 1902      75745F74 
 1902      696D6500 
 1903              	.LASF59:
 1904 019e 66697273 		.ascii	"firstMoveSelector\000"
 1904      744D6F76 
 1904      6553656C 
 1904      6563746F 
 1904      7200
 1905              	.LASF58:
 1906 01b0 57616974 		.ascii	"WaitForIRStart\000"
 1906      466F7249 
 1906      52537461 
 1906      727400
 1907              	.LASF30:
 1908 01bf 52454152 		.ascii	"REAR\000"
 1908      00
 1909              	.LASF0:
 1910 01c4 5F5F696E 		.ascii	"__int8_t\000"
 1910      74385F74 
 1910      00
 1911              	.LASF19:
 1912 01cd 63686172 		.ascii	"char\000"
 1912      00
 1913              	.LASF7:
 1914 01d2 6C6F6E67 		.ascii	"long int\000"
 1914      20696E74 
 1914      00
 1915              	.LASF15:
 1916 01db 696E7433 		.ascii	"int32_t\000"
 1916      325F7400 
 1917              	.LASF6:
 1918 01e3 5F5F696E 		.ascii	"__int32_t\000"
 1918      7433325F 
 1918      7400
 1919              	.LASF5:
 1920 01ed 73686F72 		.ascii	"short unsigned int\000"
 1920      7420756E 
 1920      7369676E 
 1920      65642069 
 1920      6E7400
 1921              	.LASF36:
 1922 0200 6D61785F 		.ascii	"max_pwm_Limited_L\000"
 1922      70776D5F 
 1922      4C696D69 
 1922      7465645F 
 1922      4C00
 1923              	.LASF37:
 1924 0212 6D61785F 		.ascii	"max_pwm_Limited_R\000"
 1924      70776D5F 
 1924      4C696D69 
 1924      7465645F 
 1924      5200
 1925              	.LASF53:
ARM GAS  C:\Users\aupen\AppData\Local\Temp\ccAfVDll.s 			page 41


 1926 0224 64726976 		.ascii	"drive_backward\000"
 1926      655F6261 
 1926      636B7761 
 1926      726400
 1927              	.LASF44:
 1928 0233 73706565 		.ascii	"speedlimit\000"
 1928      646C696D 
 1928      697400
 1929              	.LASF51:
 1930 023e 64726976 		.ascii	"drive_forward\000"
 1930      655F666F 
 1930      72776172 
 1930      6400
 1931              	.LASF46:
 1932 024c 6C696E65 		.ascii	"lineSens\000"
 1932      53656E73 
 1932      00
 1933              	.LASF9:
 1934 0255 6C6F6E67 		.ascii	"long unsigned int\000"
 1934      20756E73 
 1934      69676E65 
 1934      6420696E 
 1934      7400
 1935              	.LASF35:
 1936 0267 7475726E 		.ascii	"turn_speed\000"
 1936      5F737065 
 1936      656400
 1937              	.LASF18:
 1938 0272 646F7562 		.ascii	"double\000"
 1938      6C6500
 1939              	.LASF40:
 1940 0279 4163744F 		.ascii	"ActOnEnemySpotted\000"
 1940      6E456E65 
 1940      6D795370 
 1940      6F747465 
 1940      6400
 1941              	.LASF64:
 1942 028b 74616374 		.ascii	"tactic_tic_tac.c\000"
 1942      69635F74 
 1942      69635F74 
 1942      61632E63 
 1942      00
 1943              	.LASF29:
 1944 029c 465F5249 		.ascii	"F_RIGHT\000"
 1944      47485400 
 1945              	.LASF32:
 1946 02a4 674C696E 		.ascii	"gLinevars\000"
 1946      65766172 
 1946      7300
 1947              	.LASF54:
 1948 02ae 7475726E 		.ascii	"turn_left\000"
 1948      5F6C6566 
 1948      7400
 1949              	.LASF39:
 1950 02b8 4163744F 		.ascii	"ActOnLineDetected\000"
 1950      6E4C696E 
 1950      65446574 
ARM GAS  C:\Users\aupen\AppData\Local\Temp\ccAfVDll.s 			page 42


 1950      65637465 
 1950      6400
 1951              	.LASF24:
 1952 02ca 4652315F 		.ascii	"FR1_val\000"
 1952      76616C00 
 1953              	.LASF47:
 1954 02d2 49544D5F 		.ascii	"ITM_RxBuffer\000"
 1954      52784275 
 1954      66666572 
 1954      00
 1955              	.LASF63:
 1956 02df 474E5520 		.ascii	"GNU C11 5.4.1 20160609 (release) [ARM/embedded-5-br"
 1956      43313120 
 1956      352E342E 
 1956      31203230 
 1956      31363036 
 1957 0312 616E6368 		.ascii	"anch revision 237715] -mcpu=cortex-m3 -mthumb -g -O"
 1957      20726576 
 1957      6973696F 
 1957      6E203233 
 1957      37373135 
 1958 0345 67202D66 		.ascii	"g -ffunction-sections -ffat-lto-objects\000"
 1958      66756E63 
 1958      74696F6E 
 1958      2D736563 
 1958      74696F6E 
 1959              	.LASF52:
 1960 036d 43794465 		.ascii	"CyDelay\000"
 1960      6C617900 
 1961              	.LASF34:
 1962 0375 62617369 		.ascii	"basic_speed\000"
 1962      635F7370 
 1962      65656400 
 1963              	.LASF22:
 1964 0381 464C315F 		.ascii	"FL1_val\000"
 1964      76616C00 
 1965              	.LASF38:
 1966 0389 446F536F 		.ascii	"DoSomething\000"
 1966      6D657468 
 1966      696E6700 
 1967              		.ident	"GCC: (GNU Tools for ARM Embedded Processors) 5.4.1 20160609 (release) [ARM/embedded-5-bran
